{
  "_metadata_": {
    "Source file": "output_variables_dreq01.00.31_CANOE__BACKUP_26Mar2021_18h26m06sUTC.xlsx output_variables_dreq01.00.31__BACKUP_26Mar2021_18h26m02sUTC.xlsx", 
    "MIP table": "AERday"
  }, 
  "cod": {
    "CMOR Name": "cod", 
    "CMOR Name, any freq": "cod", 
    "CCCma check": "N/A, Jason", 
    "CCCma hist file": null, 
    "CCCma hist var names": null, 
    "CCCma hist var frequency": null, 
    "CCCma TS var name": null, 
    "CCCma diag file": null, 
    "CCCma units": null, 
    "CCCma optional deck": null, 
    "CCCma comment": null, 
    "CCCma NetCDF comment": null, 
    "CCCma target vertical grid": null, 
    "CCCma target horizontal grid": null, 
    "Include only for": null, 
    "Exclude for": null, 
    "long_name": "Cloud Optical Depth", 
    "units": "1", 
    "description": "The optical thickness is the integral along the path of radiation of a volume scattering/absorption/attenuation coefficient. The radiative flux is reduced by a factor exp(-optical_thickness) on traversing the path. A coordinate variable of radiation_wavelength or radiation_frequency can be specified to indicate that the optical thickness applies at specific wavelengths or frequencies. The atmosphere optical thickness applies to radiation passing through the entire atmosphere. \"Cloud\" means the component of extinction owing to the presence of liquid or ice water particles. The specification of a physical process by the phrase due_to_process means that the quantity named is a  single term in a sum of terms which together compose the general quantity named by omitting the phrase.", 
    "comment": "The optical thickness is the integral along the path of radiation of a volume scattering/absorption/attenuation coefficient. The radiative flux is reduced by a factor exp(-optical_thickness) on traversing the path. A coordinate variable of radiation_wavelength or radiation_frequency can be specified to indicate that the optical thickness applies at specific wavelengths or frequencies. The atmosphere optical thickness applies to radiation passing through the entire atmosphere. \"Cloud\" means the component of extinction owing to the presence of liquid or ice water particles. The specification of a physical process by the phrase due_to_process means that the quantity named is a  single term in a sum of terms which together compose the general quantity named by omitting the phrase.", 
    "out_name": "cod", 
    "standard_name": "atmosphere_optical_thickness_due_to_cloud", 
    "cell_methods": "area: time: mean", 
    "positive": null, 
    "type": "real", 
    "dimensions": "longitude latitude time", 
    "modeling_realm": "aerosol", 
    "frequency": "day", 
    "cell_measures": "area: areacella", 
    "valid_min": null, 
    "valid_max": null, 
    "ok_min_mean_abs": null, 
    "ok_max_mean_abs": null, 
    "priority": 1.0, 
    "MIPs (requesting)": "  AerChemMIP(1,1)", 
    "experiments": "  amip (AerChemMIP:1), historical (AerChemMIP:1)"
  }, 
  "maxpblz": {
    "CMOR Name": "maxpblz", 
    "CMOR Name, any freq": "maxpblz", 
    "CCCma check": "N/A, Jason", 
    "CCCma hist file": null, 
    "CCCma hist var names": null, 
    "CCCma hist var frequency": null, 
    "CCCma TS var name": null, 
    "CCCma diag file": null, 
    "CCCma units": null, 
    "CCCma optional deck": null, 
    "CCCma comment": null, 
    "CCCma NetCDF comment": null, 
    "CCCma target vertical grid": null, 
    "CCCma target horizontal grid": null, 
    "Include only for": null, 
    "Exclude for": null, 
    "long_name": "Maximum PBL Height", 
    "units": "m", 
    "description": "maximum boundary layer height during the day (add cell_methods attribute: \"time: maximum\")", 
    "comment": "maximum boundary layer height during the day (add cell_methods attribute: \"time: maximum\")", 
    "out_name": "maxpblz", 
    "standard_name": "atmosphere_boundary_layer_thickness", 
    "cell_methods": "area: mean time: maximum", 
    "positive": null, 
    "type": "real", 
    "dimensions": "longitude latitude time", 
    "modeling_realm": "aerosol", 
    "frequency": "day", 
    "cell_measures": "area: areacella", 
    "valid_min": null, 
    "valid_max": null, 
    "ok_min_mean_abs": null, 
    "ok_max_mean_abs": null, 
    "priority": 1.0, 
    "MIPs (requesting)": "  AerChemMIP(1,1)", 
    "experiments": "  amip (AerChemMIP:1), historical (AerChemMIP:1)"
  }, 
  "minpblz": {
    "CMOR Name": "minpblz", 
    "CMOR Name, any freq": "minpblz", 
    "CCCma check": "N/A, Jason", 
    "CCCma hist file": null, 
    "CCCma hist var names": null, 
    "CCCma hist var frequency": null, 
    "CCCma TS var name": null, 
    "CCCma diag file": null, 
    "CCCma units": null, 
    "CCCma optional deck": null, 
    "CCCma comment": null, 
    "CCCma NetCDF comment": null, 
    "CCCma target vertical grid": null, 
    "CCCma target horizontal grid": null, 
    "Include only for": null, 
    "Exclude for": null, 
    "long_name": "Minimum PBL Height", 
    "units": "m", 
    "description": "minimum boundary layer height during the day (add cell_methods attribute: \"time: minimum\")", 
    "comment": "minimum boundary layer height during the day (add cell_methods attribute: \"time: minimum\")", 
    "out_name": "minpblz", 
    "standard_name": "atmosphere_boundary_layer_thickness", 
    "cell_methods": "area: mean time: minimum", 
    "positive": null, 
    "type": "real", 
    "dimensions": "longitude latitude time", 
    "modeling_realm": "aerosol", 
    "frequency": "day", 
    "cell_measures": "area: areacella", 
    "valid_min": null, 
    "valid_max": null, 
    "ok_min_mean_abs": null, 
    "ok_max_mean_abs": null, 
    "priority": 1.0, 
    "MIPs (requesting)": "  AerChemMIP(1,1)", 
    "experiments": "  amip (AerChemMIP:1), historical (AerChemMIP:1)"
  }, 
  "od550aer": {
    "CMOR Name": "od550aer", 
    "CMOR Name, any freq": "od550aer", 
    "CCCma check": "Knut/Jason", 
    "CCCma hist file": "gs", 
    "CCCma hist var names": "ODST", 
    "CCCma hist var frequency": null, 
    "CCCma TS var name": "ODST", 
    "CCCma diag file": "dd", 
    "CCCma units": null, 
    "CCCma optional deck": null, 
    "CCCma comment": null, 
    "CCCma NetCDF comment": null, 
    "CCCma target vertical grid": null, 
    "CCCma target horizontal grid": null, 
    "Include only for": null, 
    "Exclude for": null, 
    "long_name": "Ambient Aerosol Optical Thickness at 550nm", 
    "units": "1", 
    "description": "AOD from the ambient aerosls (i.e., includes aerosol water).  Does not include AOD from stratospheric aerosols if these are prescribed but includes other possible background aerosol types. Needs a comment attribute \"wavelength: 550 nm\"", 
    "comment": "AOD from the ambient aerosols (i.e., includes aerosol water).  Does not include AOD from stratospheric aerosols if these are prescribed but includes other possible background aerosol types. Needs a comment attribute \"wavelength: 550nm\"", 
    "out_name": "od550aer", 
    "standard_name": "atmosphere_optical_thickness_due_to_ambient_aerosol_particles", 
    "cell_methods": "area: time: mean", 
    "positive": null, 
    "type": "real", 
    "dimensions": "longitude latitude time lambda550nm", 
    "modeling_realm": "aerosol", 
    "frequency": "day", 
    "cell_measures": "area: areacella", 
    "valid_min": null, 
    "valid_max": null, 
    "ok_min_mean_abs": null, 
    "ok_max_mean_abs": null, 
    "priority": 1.0, 
    "MIPs (requesting)": "  AerChemMIP(1,1)", 
    "experiments": "  amip (AerChemMIP:1), historical (AerChemMIP:1)"
  }, 
  "sfo3max": {
    "CMOR Name": "sfo3max", 
    "CMOR Name, any freq": "sfo3max", 
    "CCCma check": "N/A, Jason", 
    "CCCma hist file": null, 
    "CCCma hist var names": null, 
    "CCCma hist var frequency": null, 
    "CCCma TS var name": null, 
    "CCCma diag file": null, 
    "CCCma units": null, 
    "CCCma optional deck": null, 
    "CCCma comment": null, 
    "CCCma NetCDF comment": null, 
    "CCCma target vertical grid": null, 
    "CCCma target horizontal grid": null, 
    "Include only for": null, 
    "Exclude for": null, 
    "long_name": "Daily Maximum O3 Volume Mixing Ratio in Lowest Model Layer", 
    "units": "mol mol-1", 
    "description": "maximum near-surface ozone  (add cell_methods attribute \"time: maximum\")", 
    "comment": "Mole fraction is used in the construction mole_fraction_of_X_in_Y, where X is a material constituent of Y.", 
    "out_name": "sfo3max", 
    "standard_name": "mole_fraction_of_ozone_in_air", 
    "cell_methods": "area: mean time: maximum", 
    "positive": null, 
    "type": "real", 
    "dimensions": "longitude latitude time", 
    "modeling_realm": "aerosol", 
    "frequency": "day", 
    "cell_measures": "area: areacella", 
    "valid_min": null, 
    "valid_max": null, 
    "ok_min_mean_abs": null, 
    "ok_max_mean_abs": null, 
    "priority": 1.0, 
    "MIPs (requesting)": "  AerChemMIP(1,1)", 
    "experiments": "  amip (AerChemMIP:1), historical (AerChemMIP:1)"
  }, 
  "toz": {
    "CMOR Name": "toz", 
    "CMOR Name, any freq": "toz", 
    "CCCma check": "N/A, Jason", 
    "CCCma hist file": null, 
    "CCCma hist var names": null, 
    "CCCma hist var frequency": null, 
    "CCCma TS var name": null, 
    "CCCma diag file": null, 
    "CCCma units": null, 
    "CCCma optional deck": null, 
    "CCCma comment": null, 
    "CCCma NetCDF comment": null, 
    "CCCma target vertical grid": null, 
    "CCCma target horizontal grid": null, 
    "Include only for": null, 
    "Exclude for": null, 
    "long_name": "Total Column Ozone", 
    "units": "m", 
    "description": "Total ozone column", 
    "comment": "Total ozone column calculated at 0 degrees C and 1 bar, such that 1m = 1e5 DU.", 
    "out_name": "toz", 
    "standard_name": "equivalent_thickness_at_stp_of_atmosphere_ozone_content", 
    "cell_methods": "area: time: mean", 
    "positive": null, 
    "type": "real", 
    "dimensions": "longitude latitude time", 
    "modeling_realm": "aerosol", 
    "frequency": "day", 
    "cell_measures": "area: areacella", 
    "valid_min": null, 
    "valid_max": null, 
    "ok_min_mean_abs": null, 
    "ok_max_mean_abs": null, 
    "priority": 1.0, 
    "MIPs (requesting)": "  AerChemMIP(1,1)", 
    "experiments": "  amip (AerChemMIP:1), historical (AerChemMIP:1)"
  }, 
  "ua10": {
    "CMOR Name": "ua10", 
    "CMOR Name, any freq": "ua10", 
    "CCCma check": "Jason", 
    "CCCma hist file": "ss", 
    "CCCma hist var names": "VORT DIV", 
    "CCCma hist var frequency": "Spectral at ISSP", 
    "CCCma TS var name": "U", 
    "CCCma diag file": "dp", 
    "CCCma units": null, 
    "CCCma optional deck": null, 
    "CCCma comment": null, 
    "CCCma NetCDF comment": null, 
    "CCCma target vertical grid": null, 
    "CCCma target horizontal grid": null, 
    "Include only for": null, 
    "Exclude for": null, 
    "long_name": "Eastward Wind at 10hPa", 
    "units": "m s-1", 
    "description": "Zonal wind on the 10 hPa surface", 
    "comment": "Zonal wind on the 10 hPa surface", 
    "out_name": "ua10", 
    "standard_name": "eastward_wind", 
    "cell_methods": "area: time: mean", 
    "positive": null, 
    "type": "real", 
    "dimensions": "longitude latitude time p10", 
    "modeling_realm": "aerosol", 
    "frequency": "day", 
    "cell_measures": "area: areacella", 
    "valid_min": null, 
    "valid_max": null, 
    "ok_min_mean_abs": null, 
    "ok_max_mean_abs": null, 
    "priority": 1.0, 
    "MIPs (requesting)": "  AerChemMIP(1,1)", 
    "experiments": "  amip (AerChemMIP:1), historical (AerChemMIP:1)"
  }, 
  "zg10": {
    "CMOR Name": "zg10", 
    "CMOR Name, any freq": "zg10", 
    "CCCma check": "Jason", 
    "CCCma hist file": "ss", 
    "CCCma hist var names": "PHIS", 
    "CCCma hist var frequency": "ISSP", 
    "CCCma TS var name": "PHI", 
    "CCCma diag file": "dp", 
    "CCCma units": null, 
    "CCCma optional deck": "divbyg", 
    "CCCma comment": null, 
    "CCCma NetCDF comment": null, 
    "CCCma target vertical grid": null, 
    "CCCma target horizontal grid": null, 
    "Include only for": null, 
    "Exclude for": null, 
    "long_name": "Geopotential Height at 10hPa", 
    "units": "m", 
    "description": "Geopotential height on the 10 hPa surface", 
    "comment": "Geopotential height on the 10hPa surface", 
    "out_name": "zg10", 
    "standard_name": "geopotential_height", 
    "cell_methods": "area: time: mean", 
    "positive": null, 
    "type": "real", 
    "dimensions": "longitude latitude time p10", 
    "modeling_realm": "aerosol", 
    "frequency": "day", 
    "cell_measures": "area: areacella", 
    "valid_min": null, 
    "valid_max": null, 
    "ok_min_mean_abs": null, 
    "ok_max_mean_abs": null, 
    "priority": 1.0, 
    "MIPs (requesting)": "  AerChemMIP(1,1)", 
    "experiments": "  amip (AerChemMIP:1), historical (AerChemMIP:1)"
  }, 
  "zg100": {
    "CMOR Name": "zg100", 
    "CMOR Name, any freq": "zg100", 
    "CCCma check": "Jason", 
    "CCCma hist file": "ss", 
    "CCCma hist var names": "PHIS", 
    "CCCma hist var frequency": "ISSP", 
    "CCCma TS var name": "PHI", 
    "CCCma diag file": "dp", 
    "CCCma units": null, 
    "CCCma optional deck": "divbyg", 
    "CCCma comment": null, 
    "CCCma NetCDF comment": null, 
    "CCCma target vertical grid": null, 
    "CCCma target horizontal grid": null, 
    "Include only for": null, 
    "Exclude for": null, 
    "long_name": "Geopotential Height at 100hPa", 
    "units": "m", 
    "description": "Geopotential height on the 100 hPa surface", 
    "comment": "Geopotential height on the 100 hPa surface", 
    "out_name": "zg100", 
    "standard_name": "geopotential_height", 
    "cell_methods": "area: time: mean", 
    "positive": null, 
    "type": "real", 
    "dimensions": "longitude latitude time p100", 
    "modeling_realm": "aerosol", 
    "frequency": "day", 
    "cell_measures": "area: areacella", 
    "valid_min": null, 
    "valid_max": null, 
    "ok_min_mean_abs": null, 
    "ok_max_mean_abs": null, 
    "priority": 1.0, 
    "MIPs (requesting)": "  AerChemMIP(1,1)", 
    "experiments": "  amip (AerChemMIP:1), historical (AerChemMIP:1)"
  }, 
  "zg1000": {
    "CMOR Name": "zg1000", 
    "CMOR Name, any freq": "zg1000", 
    "CCCma check": "Jason", 
    "CCCma hist file": "ss", 
    "CCCma hist var names": "PHIS", 
    "CCCma hist var frequency": "ISSP", 
    "CCCma TS var name": "PHI", 
    "CCCma diag file": "dp", 
    "CCCma units": null, 
    "CCCma optional deck": "divbyg", 
    "CCCma comment": null, 
    "CCCma NetCDF comment": null, 
    "CCCma target vertical grid": null, 
    "CCCma target horizontal grid": null, 
    "Include only for": null, 
    "Exclude for": null, 
    "long_name": "Geopotential Height at 1000hPa", 
    "units": "m", 
    "description": "Geopotential height on the 1000 hPa surface", 
    "comment": "Geopotential height on the 1000 hPa surface", 
    "out_name": "zg1000", 
    "standard_name": "geopotential_height", 
    "cell_methods": "area: time: mean", 
    "positive": null, 
    "type": "real", 
    "dimensions": "longitude latitude time p1000", 
    "modeling_realm": "atmos", 
    "frequency": "day", 
    "cell_measures": "area: areacella", 
    "valid_min": null, 
    "valid_max": null, 
    "ok_min_mean_abs": null, 
    "ok_max_mean_abs": null, 
    "priority": 1.0, 
    "MIPs (requesting)": "  AerChemMIP(1,1)", 
    "experiments": "  amip (AerChemMIP:1), historical (AerChemMIP:1)"
  }, 
  "zg500": {
    "CMOR Name": "zg500", 
    "CMOR Name, any freq": "zg500", 
    "CCCma check": "Diag deck needs work.", 
    "CCCma hist file": "ss", 
    "CCCma hist var names": "PHIS TEMP", 
    "CCCma hist var frequency": "Spectral at ISSP", 
    "CCCma TS var name": "PHI", 
    "CCCma diag file": "dp", 
    "CCCma units": null, 
    "CCCma optional deck": "divbyg", 
    "CCCma comment": null, 
    "CCCma NetCDF comment": null, 
    "CCCma target vertical grid": null, 
    "CCCma target horizontal grid": null, 
    "Include only for": null, 
    "Exclude for": null, 
    "long_name": "Geopotential Height at 500hPa", 
    "units": "m", 
    "description": "geopotential height on the 500 hPa surface", 
    "comment": "geopotential height on the 500 hPa surface", 
    "out_name": "zg500", 
    "standard_name": "geopotential_height", 
    "cell_methods": "area: time: mean", 
    "positive": null, 
    "type": "real", 
    "dimensions": "longitude latitude time p500", 
    "modeling_realm": "aerosol", 
    "frequency": "day", 
    "cell_measures": "area: areacella", 
    "valid_min": null, 
    "valid_max": null, 
    "ok_min_mean_abs": null, 
    "ok_max_mean_abs": null, 
    "priority": 1.0, 
    "MIPs (requesting)": "  AerChemMIP(1,1), DCPP(1), PAMIP(1), PMIP(1,1,1,1)", 
    "experiments": "  amip (AerChemMIP:1,PMIP:1), 1pctCO2 (PMIP:1), historical (AerChemMIP:1,DCPP:1,PAMIP:1,PMIP:1), piControl (PMIP:1)"
  }
}