{
  "_metadata_": {
    "Source file": "output_variables_dreq01.00.31_CANOE__BACKUP_26Mar2021_18h26m06sUTC.xlsx output_variables_dreq01.00.31__BACKUP_26Mar2021_18h26m02sUTC.xlsx", 
    "MIP table": "ImonGre"
  }, 
  "acabf": {
    "CMOR Name": "acabf", 
    "CMOR Name, any freq": "acabf", 
    "CCCma check": null, 
    "CCCma hist file": null, 
    "CCCma hist var names": null, 
    "CCCma hist var frequency": null, 
    "CCCma TS var name": null, 
    "CCCma diag file": null, 
    "CCCma units": null, 
    "CCCma optional deck": null, 
    "CCCma comment": null, 
    "CCCma NetCDF comment": null, 
    "CCCma target vertical grid": null, 
    "CCCma target horizontal grid": null, 
    "Include only for": null, 
    "Exclude for": null, 
    "long_name": "Surface Mass Balance Flux", 
    "units": "kg m-2 s-1", 
    "description": "quantity averaged over ice sheet (grounded ice sheet and floating ice shelf) only. Needed to analyse the impact of downscaling methods, and as forcing for ISM", 
    "comment": "Specific mass balance means the net rate at which ice is added per unit area at the land ice surface. Computed as the total surface mass balance on the land ice portion of the grid cell divided by land ice area in the grid cell. A negative value means loss of ice", 
    "out_name": "acabf", 
    "standard_name": "land_ice_surface_specific_mass_balance_flux", 
    "cell_methods": "area: time: mean where ice_sheet", 
    "positive": null, 
    "type": "real", 
    "dimensions": "xgre ygre time", 
    "modeling_realm": "landIce", 
    "frequency": "mon", 
    "cell_measures": "area: areacellg", 
    "valid_min": null, 
    "valid_max": null, 
    "ok_min_mean_abs": null, 
    "ok_max_mean_abs": null, 
    "priority": 2.0, 
    "MIPs (requesting)": "  ISMIP6(2,2,2,2)", 
    "experiments": "  amip (ISMIP6:2), 1pctCO2 (ISMIP6:2), historical (ISMIP6:2), piControl (ISMIP6:2)"
  }, 
  "hfls": {
    "CMOR Name": "hfls", 
    "CMOR Name, any freq": "hfls", 
    "CCCma check": null, 
    "CCCma hist file": null, 
    "CCCma hist var names": null, 
    "CCCma hist var frequency": null, 
    "CCCma TS var name": null, 
    "CCCma diag file": null, 
    "CCCma units": null, 
    "CCCma optional deck": null, 
    "CCCma comment": null, 
    "CCCma NetCDF comment": null, 
    "CCCma target vertical grid": null, 
    "CCCma target horizontal grid": null, 
    "Include only for": null, 
    "Exclude for": null, 
    "long_name": "Surface Upward Latent Heat Flux", 
    "units": "W m-2", 
    "description": "The surface called \"surface\" means the lower boundary of the atmosphere. \"Upward\" indicates a vector component which is positive when directed upward (negative downward). The surface latent heat flux is the exchange of heat between the surface and the air on account of evaporation (including sublimation). In accordance with common usage in geophysical disciplines, \"flux\" implies per unit area, called \"flux density\" in physics.", 
    "comment": "The surface called \"surface\" means the lower boundary of the atmosphere. \"Upward\" indicates a vector component which is positive when directed upward (negative downward). The surface latent heat flux is the exchange of heat between the surface and the air on account of evaporation (including sublimation). In accordance with common usage in geophysical disciplines, \"flux\" implies per unit area, called \"flux density\" in physics.", 
    "out_name": "hfls", 
    "standard_name": "surface_upward_latent_heat_flux", 
    "cell_methods": "area: time: mean where ice_sheet", 
    "positive": "up", 
    "type": "real", 
    "dimensions": "xgre ygre time", 
    "modeling_realm": "landIce land", 
    "frequency": "mon", 
    "cell_measures": "area: areacellg", 
    "valid_min": -400.0, 
    "valid_max": 1800.0, 
    "ok_min_mean_abs": 30.0, 
    "ok_max_mean_abs": 110.0, 
    "priority": 1.0, 
    "MIPs (requesting)": "  ISMIP6(1,1,1,1)", 
    "experiments": "  amip (ISMIP6:1), 1pctCO2 (ISMIP6:1), historical (ISMIP6:1), piControl (ISMIP6:1)"
  }, 
  "hfss": {
    "CMOR Name": "hfss", 
    "CMOR Name, any freq": "hfss", 
    "CCCma check": null, 
    "CCCma hist file": null, 
    "CCCma hist var names": null, 
    "CCCma hist var frequency": null, 
    "CCCma TS var name": null, 
    "CCCma diag file": null, 
    "CCCma units": null, 
    "CCCma optional deck": null, 
    "CCCma comment": null, 
    "CCCma NetCDF comment": null, 
    "CCCma target vertical grid": null, 
    "CCCma target horizontal grid": null, 
    "Include only for": null, 
    "Exclude for": null, 
    "long_name": "Surface Upward Sensible Heat Flux", 
    "units": "W m-2", 
    "description": "The surface sensible heat flux, also called turbulent heat flux, is the exchange of heat between the surface and the air by motion of air.", 
    "comment": "The surface sensible heat flux, also called turbulent heat flux, is the exchange of heat between the surface and the air by motion of air.", 
    "out_name": "hfss", 
    "standard_name": "surface_upward_sensible_heat_flux", 
    "cell_methods": "area: time: mean where ice_sheet", 
    "positive": "up", 
    "type": "real", 
    "dimensions": "xgre ygre time", 
    "modeling_realm": "landIce land", 
    "frequency": "mon", 
    "cell_measures": "area: areacellg", 
    "valid_min": -1000.0, 
    "valid_max": 2000.0, 
    "ok_min_mean_abs": 5.0, 
    "ok_max_mean_abs": 60.0, 
    "priority": 1.0, 
    "MIPs (requesting)": "  ISMIP6(1,1,1,1)", 
    "experiments": "  amip (ISMIP6:1), 1pctCO2 (ISMIP6:1), historical (ISMIP6:1), piControl (ISMIP6:1)"
  }, 
  "icem": {
    "CMOR Name": "icem", 
    "CMOR Name, any freq": "icem", 
    "CCCma check": null, 
    "CCCma hist file": null, 
    "CCCma hist var names": null, 
    "CCCma hist var frequency": null, 
    "CCCma TS var name": null, 
    "CCCma diag file": null, 
    "CCCma units": null, 
    "CCCma optional deck": null, 
    "CCCma comment": null, 
    "CCCma NetCDF comment": null, 
    "CCCma target vertical grid": null, 
    "CCCma target horizontal grid": null, 
    "Include only for": null, 
    "Exclude for": null, 
    "long_name": "Surface Ice Melt Flux", 
    "units": "kg m-2 s-1", 
    "description": "Loss of ice mass resulting from surface melting. Computed as the total surface melt water on the land ice portion of the grid cell divided by land ice area in the grid cell.", 
    "comment": "Loss of ice mass resulting from surface melting. Computed as the total surface melt water on the land ice portion of the grid cell divided by land ice area in the grid cell.", 
    "out_name": "icem", 
    "standard_name": "land_ice_surface_melt_flux", 
    "cell_methods": "area: time: mean where ice_sheet", 
    "positive": null, 
    "type": "real", 
    "dimensions": "xgre ygre time", 
    "modeling_realm": "landIce", 
    "frequency": "mon", 
    "cell_measures": "area: areacellg", 
    "valid_min": null, 
    "valid_max": null, 
    "ok_min_mean_abs": null, 
    "ok_max_mean_abs": null, 
    "priority": 3.0, 
    "MIPs (requesting)": "  ISMIP6(3,3,3,3)", 
    "experiments": "  amip (ISMIP6:3), 1pctCO2 (ISMIP6:3), historical (ISMIP6:3), piControl (ISMIP6:3)"
  }, 
  "libmassbffl": {
    "CMOR Name": "libmassbffl", 
    "CMOR Name, any freq": "libmassbffl", 
    "CCCma check": null, 
    "CCCma hist file": null, 
    "CCCma hist var names": null, 
    "CCCma hist var frequency": null, 
    "CCCma TS var name": null, 
    "CCCma diag file": null, 
    "CCCma units": null, 
    "CCCma optional deck": null, 
    "CCCma comment": null, 
    "CCCma NetCDF comment": null, 
    "CCCma target vertical grid": null, 
    "CCCma target horizontal grid": null, 
    "Include only for": null, 
    "Exclude for": null, 
    "long_name": "Basal Specific Mass Balance Flux of Floating Ice Shelf", 
    "units": "kg m-2 s-1", 
    "description": "quantity averaged over floating ice shelf", 
    "comment": "Specific mass balance means the net rate at which ice is added per unit area at the land ice base.  A negative value means loss of ice. Computed as the total basal mass balance on the floating land ice (floating ice shelf) portion of the grid cell divided by floating land ice (floating ice shelf) area in the grid cell. Cell_methods: area: mean where floating_ice_shelf", 
    "out_name": "libmassbffl", 
    "standard_name": "land_ice_basal_specific_mass_balance_flux", 
    "cell_methods": "area: time: mean where floating_ice_shelf (comment: mask=sftflf)", 
    "positive": null, 
    "type": "real", 
    "dimensions": "xgre ygre time", 
    "modeling_realm": "landIce", 
    "frequency": "mon", 
    "cell_measures": "area: areacellg", 
    "valid_min": null, 
    "valid_max": null, 
    "ok_min_mean_abs": null, 
    "ok_max_mean_abs": null, 
    "priority": 2.0, 
    "MIPs (requesting)": "  ISMIP6(2,2,2,2)", 
    "experiments": "  amip (ISMIP6:2), 1pctCO2 (ISMIP6:2), historical (ISMIP6:2), piControl (ISMIP6:2)"
  }, 
  "libmassbfgr": {
    "CMOR Name": "libmassbfgr", 
    "CMOR Name, any freq": "libmassbfgr", 
    "CCCma check": null, 
    "CCCma hist file": null, 
    "CCCma hist var names": null, 
    "CCCma hist var frequency": null, 
    "CCCma TS var name": null, 
    "CCCma diag file": null, 
    "CCCma units": null, 
    "CCCma optional deck": null, 
    "CCCma comment": null, 
    "CCCma NetCDF comment": null, 
    "CCCma target vertical grid": null, 
    "CCCma target horizontal grid": null, 
    "Include only for": null, 
    "Exclude for": null, 
    "long_name": "Basal Specific Mass Balance Flux of Grounded Ice Sheet", 
    "units": "kg m-2 s-1", 
    "description": "quantity averaged over grounded ice sheet", 
    "comment": "Specific mass balance means the net rate at which ice is added per unit area at the land ice base.  A negative value means loss of ice. Computed as the total basal mass balance on the grounded land ice portion of the grid cell divided by grounded land ice area in the grid cell. Cell_methods: area: mean where grounded_ice_sheet", 
    "out_name": "libmassbfgr", 
    "standard_name": "land_ice_basal_specific_mass_balance_flux", 
    "cell_methods": "area: time: mean where grounded_ice_sheet (comment: mask=sfgrlf)", 
    "positive": null, 
    "type": "real", 
    "dimensions": "xgre ygre time", 
    "modeling_realm": "landIce", 
    "frequency": "mon", 
    "cell_measures": "area: areacellg", 
    "valid_min": null, 
    "valid_max": null, 
    "ok_min_mean_abs": null, 
    "ok_max_mean_abs": null, 
    "priority": 2.0, 
    "MIPs (requesting)": "  ISMIP6(2,2,2,2)", 
    "experiments": "  amip (ISMIP6:2), 1pctCO2 (ISMIP6:2), historical (ISMIP6:2), piControl (ISMIP6:2)"
  }, 
  "licalvf": {
    "CMOR Name": "licalvf", 
    "CMOR Name, any freq": "licalvf", 
    "CCCma check": null, 
    "CCCma hist file": null, 
    "CCCma hist var names": null, 
    "CCCma hist var frequency": null, 
    "CCCma TS var name": null, 
    "CCCma diag file": null, 
    "CCCma units": null, 
    "CCCma optional deck": null, 
    "CCCma comment": null, 
    "CCCma NetCDF comment": null, 
    "CCCma target vertical grid": null, 
    "CCCma target horizontal grid": null, 
    "Include only for": null, 
    "Exclude for": null, 
    "long_name": "Land Ice Calving Flux", 
    "units": "kg m-2 s-1", 
    "description": "Loss of ice mass resulting from iceberg calving. Computed as the rate of mass loss by the ice shelf (in kg s-1) divided by the horizontal area of the ice sheet (m2) in the grid box.", 
    "comment": "Loss of ice mass resulting from iceberg calving. Computed as the rate of mass loss by the ice shelf (in kg s-1) divided by the horizontal area of the ice sheet (m2) in the grid box.", 
    "out_name": "licalvf", 
    "standard_name": "land_ice_specific_mass_flux_due_to_calving", 
    "cell_methods": "area: time: mean where ice_sheet", 
    "positive": null, 
    "type": "real", 
    "dimensions": "xgre ygre time", 
    "modeling_realm": "landIce", 
    "frequency": "mon", 
    "cell_measures": "area: areacellg", 
    "valid_min": null, 
    "valid_max": null, 
    "ok_min_mean_abs": null, 
    "ok_max_mean_abs": null, 
    "priority": 3.0, 
    "MIPs (requesting)": "  ISMIP6(3,3,3,3)", 
    "experiments": "  amip (ISMIP6:3), 1pctCO2 (ISMIP6:3), historical (ISMIP6:3), piControl (ISMIP6:3)"
  }, 
  "lifmassbf": {
    "CMOR Name": "lifmassbf", 
    "CMOR Name, any freq": "lifmassbf", 
    "CCCma check": null, 
    "CCCma hist file": null, 
    "CCCma hist var names": null, 
    "CCCma hist var frequency": null, 
    "CCCma TS var name": null, 
    "CCCma diag file": null, 
    "CCCma units": null, 
    "CCCma optional deck": null, 
    "CCCma comment": null, 
    "CCCma NetCDF comment": null, 
    "CCCma target vertical grid": null, 
    "CCCma target horizontal grid": null, 
    "Include only for": null, 
    "Exclude for": null, 
    "long_name": "Land Ice Vertical Front Mass Balance Flux", 
    "units": "kg m-2 s-1", 
    "description": "Total mass balance at the ice front (or vertical margin). It includes both iceberg calving and melt on vertical ice front", 
    "comment": "Total mass balance at the ice front (or vertical margin). It includes both iceberg calving and melt on vertical ice front", 
    "out_name": "lifmassbf", 
    "standard_name": "land_ice_specific_mass_flux_due_to_calving_and_ice_front_melting", 
    "cell_methods": "area: time: mean where ice_sheet", 
    "positive": null, 
    "type": "real", 
    "dimensions": "xgre ygre time", 
    "modeling_realm": "landIce", 
    "frequency": "mon", 
    "cell_measures": "area: areacellg", 
    "valid_min": null, 
    "valid_max": null, 
    "ok_min_mean_abs": null, 
    "ok_max_mean_abs": null, 
    "priority": 3.0, 
    "MIPs (requesting)": "  ISMIP6(3,3,3,3)", 
    "experiments": "  amip (ISMIP6:3), 1pctCO2 (ISMIP6:3), historical (ISMIP6:3), piControl (ISMIP6:3)"
  }, 
  "litempbotfl": {
    "CMOR Name": "litempbotfl", 
    "CMOR Name, any freq": "litempbotfl", 
    "CCCma check": null, 
    "CCCma hist file": null, 
    "CCCma hist var names": null, 
    "CCCma hist var frequency": null, 
    "CCCma TS var name": null, 
    "CCCma diag file": null, 
    "CCCma units": null, 
    "CCCma optional deck": null, 
    "CCCma comment": null, 
    "CCCma NetCDF comment": null, 
    "CCCma target vertical grid": null, 
    "CCCma target horizontal grid": null, 
    "Include only for": null, 
    "Exclude for": null, 
    "long_name": "Basal Temperature of Floating Ice Shelf", 
    "units": "K", 
    "description": "quantity averaged over floating ice shelf", 
    "comment": "Basal temperature that is used to force the ice sheet models, it is the temperature AT ice shelf-ocean interface.  Cell_methods: area: mean where floating_ice_shelf", 
    "out_name": "litempbotfl", 
    "standard_name": "land_ice_basal_temperature", 
    "cell_methods": "area: time: mean where floating_ice_shelf (comment: mask=sftflf)", 
    "positive": null, 
    "type": "real", 
    "dimensions": "xgre ygre time", 
    "modeling_realm": "landIce", 
    "frequency": "mon", 
    "cell_measures": "area: areacellg", 
    "valid_min": null, 
    "valid_max": null, 
    "ok_min_mean_abs": null, 
    "ok_max_mean_abs": null, 
    "priority": 2.0, 
    "MIPs (requesting)": "  ISMIP6(2,2,2,2)", 
    "experiments": "  amip (ISMIP6:2), 1pctCO2 (ISMIP6:2), historical (ISMIP6:2), piControl (ISMIP6:2)"
  }, 
  "litempbotgr": {
    "CMOR Name": "litempbotgr", 
    "CMOR Name, any freq": "litempbotgr", 
    "CCCma check": null, 
    "CCCma hist file": null, 
    "CCCma hist var names": null, 
    "CCCma hist var frequency": null, 
    "CCCma TS var name": null, 
    "CCCma diag file": null, 
    "CCCma units": null, 
    "CCCma optional deck": null, 
    "CCCma comment": null, 
    "CCCma NetCDF comment": null, 
    "CCCma target vertical grid": null, 
    "CCCma target horizontal grid": null, 
    "Include only for": null, 
    "Exclude for": null, 
    "long_name": "Basal Temperature of Grounded Ice Sheet", 
    "units": "K", 
    "description": "quantity averaged over grounded ice sheet", 
    "comment": "Basal temperature that is used to force the ice sheet models, it is the temperature AT ice sheet - bedrock interface. Cell_methods: area: mean where grounded_ice_sheet", 
    "out_name": "litempbotgr", 
    "standard_name": "land_ice_basal_temperature", 
    "cell_methods": "area: time: mean where grounded_ice_sheet (comment: mask=sfgrlf)", 
    "positive": null, 
    "type": "real", 
    "dimensions": "xgre ygre time", 
    "modeling_realm": "landIce", 
    "frequency": "mon", 
    "cell_measures": "area: areacellg", 
    "valid_min": null, 
    "valid_max": null, 
    "ok_min_mean_abs": null, 
    "ok_max_mean_abs": null, 
    "priority": 2.0, 
    "MIPs (requesting)": "  ISMIP6(2,2,2,2)", 
    "experiments": "  amip (ISMIP6:2), 1pctCO2 (ISMIP6:2), historical (ISMIP6:2), piControl (ISMIP6:2)"
  }, 
  "litemptop": {
    "CMOR Name": "litemptop", 
    "CMOR Name, any freq": "litemptop", 
    "CCCma check": null, 
    "CCCma hist file": null, 
    "CCCma hist var names": null, 
    "CCCma hist var frequency": null, 
    "CCCma TS var name": null, 
    "CCCma diag file": null, 
    "CCCma units": null, 
    "CCCma optional deck": null, 
    "CCCma comment": null, 
    "CCCma NetCDF comment": null, 
    "CCCma target vertical grid": null, 
    "CCCma target horizontal grid": null, 
    "Include only for": null, 
    "Exclude for": null, 
    "long_name": "Temperature at Top of Ice Sheet Model", 
    "units": "K", 
    "description": "quantity averaged over ice sheet (grounded ice sheet and floating ice shelf) only. Needed to analyse the impact of downscaling methods", 
    "comment": "Upper boundary temperature that is used to force ice sheet models. It is the temperature at the base of the snowpack models, and does not vary with seasons. Report surface temperature of ice sheet where snow thickness is zero", 
    "out_name": "litemptop", 
    "standard_name": "temperature_at_top_of_ice_sheet_model", 
    "cell_methods": "area: time: mean where ice_sheet", 
    "positive": null, 
    "type": "real", 
    "dimensions": "xgre ygre time", 
    "modeling_realm": "landIce", 
    "frequency": "mon", 
    "cell_measures": "area: areacellg", 
    "valid_min": null, 
    "valid_max": null, 
    "ok_min_mean_abs": null, 
    "ok_max_mean_abs": null, 
    "priority": 2.0, 
    "MIPs (requesting)": "  ISMIP6(2,2,2,2)", 
    "experiments": "  amip (ISMIP6:2), 1pctCO2 (ISMIP6:2), historical (ISMIP6:2), piControl (ISMIP6:2)"
  }, 
  "mrroLi": {
    "CMOR Name": "mrroLi", 
    "CMOR Name, any freq": "mrroLi", 
    "CCCma check": null, 
    "CCCma hist file": null, 
    "CCCma hist var names": null, 
    "CCCma hist var frequency": null, 
    "CCCma TS var name": null, 
    "CCCma diag file": null, 
    "CCCma units": null, 
    "CCCma optional deck": null, 
    "CCCma comment": null, 
    "CCCma NetCDF comment": null, 
    "CCCma target vertical grid": null, 
    "CCCma target horizontal grid": null, 
    "Include only for": null, 
    "Exclude for": null, 
    "long_name": "Land Ice Runoff Flux", 
    "units": "kg m-2 s-1", 
    "description": "Runoff flux over land ice is the difference between any available liquid water in the snowpack less any refreezing. Computed as the sum of rainfall and melt of snow or ice less any refreezing or water retained in the snowpack", 
    "comment": "Runoff flux over land ice is the difference between any available liquid water in the snowpack less any refreezing. Computed as the sum of rainfall and melt of snow or ice less any refreezing or water retained in the snowpack", 
    "out_name": "mrroLi", 
    "standard_name": "land_ice_runoff_flux", 
    "cell_methods": "area: time: mean where ice_sheet", 
    "positive": null, 
    "type": "real", 
    "dimensions": "xgre ygre time", 
    "modeling_realm": "landIce land", 
    "frequency": "mon", 
    "cell_measures": "area: areacellg", 
    "valid_min": null, 
    "valid_max": null, 
    "ok_min_mean_abs": null, 
    "ok_max_mean_abs": null, 
    "priority": 1.0, 
    "MIPs (requesting)": "  ISMIP6(1,1,1,1)", 
    "experiments": "  amip (ISMIP6:1), 1pctCO2 (ISMIP6:1), historical (ISMIP6:1), piControl (ISMIP6:1)"
  }, 
  "orog": {
    "CMOR Name": "orog", 
    "CMOR Name, any freq": "orog", 
    "CCCma check": null, 
    "CCCma hist file": null, 
    "CCCma hist var names": null, 
    "CCCma hist var frequency": null, 
    "CCCma TS var name": null, 
    "CCCma diag file": null, 
    "CCCma units": null, 
    "CCCma optional deck": null, 
    "CCCma comment": null, 
    "CCCma NetCDF comment": null, 
    "CCCma target vertical grid": null, 
    "CCCma target horizontal grid": null, 
    "Include only for": null, 
    "Exclude for": null, 
    "long_name": "Surface Altitude", 
    "units": "m", 
    "description": "The surface called \"surface\" means the lower boundary of the atmosphere. Altitude is the (geometric) height above the geoid, which is the reference geopotential surface. The geoid is similar to mean sea level.", 
    "comment": "The surface called \"surface\" means the lower boundary of the atmosphere. Altitude is the (geometric) height above the geoid, which is the reference geopotential surface. The geoid is similar to mean sea level.", 
    "out_name": "orog", 
    "standard_name": "surface_altitude", 
    "cell_methods": "area: time: mean where ice_sheet", 
    "positive": null, 
    "type": "real", 
    "dimensions": "xgre ygre time", 
    "modeling_realm": "land", 
    "frequency": "mon", 
    "cell_measures": "area: areacellg", 
    "valid_min": null, 
    "valid_max": null, 
    "ok_min_mean_abs": null, 
    "ok_max_mean_abs": null, 
    "priority": 1.0, 
    "MIPs (requesting)": "  ISMIP6(1,1,1,1)", 
    "experiments": "  amip (ISMIP6:1), 1pctCO2 (ISMIP6:1), historical (ISMIP6:1), piControl (ISMIP6:1)"
  }, 
  "prra": {
    "CMOR Name": "prra", 
    "CMOR Name, any freq": "prra", 
    "CCCma check": null, 
    "CCCma hist file": null, 
    "CCCma hist var names": null, 
    "CCCma hist var frequency": null, 
    "CCCma TS var name": null, 
    "CCCma diag file": null, 
    "CCCma units": null, 
    "CCCma optional deck": null, 
    "CCCma comment": null, 
    "CCCma NetCDF comment": null, 
    "CCCma target vertical grid": null, 
    "CCCma target horizontal grid": null, 
    "Include only for": null, 
    "Exclude for": null, 
    "long_name": "Rainfall Flux over Land Ice", 
    "units": "kg m-2 s-1", 
    "description": "over Land Ice//quantity averaged over ice sheet (grounded ice sheet and floating ice shelf) only. Needed to analyse the impact of downscaling methods", 
    "comment": "In accordance with common usage in geophysical disciplines, \"flux\" implies per unit area, called \"flux density\" in physics.", 
    "out_name": "prra", 
    "standard_name": "rainfall_flux", 
    "cell_methods": "area: time: mean where ice_sheet", 
    "positive": null, 
    "type": "real", 
    "dimensions": "xgre ygre time", 
    "modeling_realm": "landIce land", 
    "frequency": "mon", 
    "cell_measures": "area: areacellg", 
    "valid_min": null, 
    "valid_max": null, 
    "ok_min_mean_abs": null, 
    "ok_max_mean_abs": null, 
    "priority": 1.0, 
    "MIPs (requesting)": "  ISMIP6(1,1,1,1)", 
    "experiments": "  amip (ISMIP6:1), 1pctCO2 (ISMIP6:1), historical (ISMIP6:1), piControl (ISMIP6:1)"
  }, 
  "prsn": {
    "CMOR Name": "prsn", 
    "CMOR Name, any freq": "prsn", 
    "CCCma check": null, 
    "CCCma hist file": null, 
    "CCCma hist var names": null, 
    "CCCma hist var frequency": null, 
    "CCCma TS var name": null, 
    "CCCma diag file": null, 
    "CCCma units": null, 
    "CCCma optional deck": null, 
    "CCCma comment": null, 
    "CCCma NetCDF comment": null, 
    "CCCma target vertical grid": null, 
    "CCCma target horizontal grid": null, 
    "Include only for": null, 
    "Exclude for": null, 
    "long_name": "Snowfall Flux", 
    "units": "kg m-2 s-1", 
    "description": "quantity averaged over ice sheet (grounded ice sheet and floating ice shelf) only. Needed to analyse the impact of downscaling methods", 
    "comment": "At surface; includes precipitation of all forms of water in the solid phase", 
    "out_name": "prsn", 
    "standard_name": "snowfall_flux", 
    "cell_methods": "area: time: mean where ice_sheet", 
    "positive": null, 
    "type": "real", 
    "dimensions": "xgre ygre time", 
    "modeling_realm": "landIce land", 
    "frequency": "mon", 
    "cell_measures": "area: areacellg", 
    "valid_min": null, 
    "valid_max": null, 
    "ok_min_mean_abs": null, 
    "ok_max_mean_abs": null, 
    "priority": 1.0, 
    "MIPs (requesting)": "  ISMIP6(1,1,1,1)", 
    "experiments": "  amip (ISMIP6:1), 1pctCO2 (ISMIP6:1), historical (ISMIP6:1), piControl (ISMIP6:1)"
  }, 
  "rlds": {
    "CMOR Name": "rlds", 
    "CMOR Name, any freq": "rlds", 
    "CCCma check": null, 
    "CCCma hist file": null, 
    "CCCma hist var names": null, 
    "CCCma hist var frequency": null, 
    "CCCma TS var name": null, 
    "CCCma diag file": null, 
    "CCCma units": null, 
    "CCCma optional deck": null, 
    "CCCma comment": null, 
    "CCCma NetCDF comment": null, 
    "CCCma target vertical grid": null, 
    "CCCma target horizontal grid": null, 
    "Include only for": null, 
    "Exclude for": null, 
    "long_name": "Surface Downwelling Longwave Radiation", 
    "units": "W m-2", 
    "description": "The surface called \"surface\" means the lower boundary of the atmosphere. \"longwave\" means longwave radiation. Downwelling radiation is radiation from above. It does not mean \"net downward\". When thought of as being incident on a surface, a radiative flux is sometimes called \"irradiance\". In addition, it is identical with the quantity measured by a cosine-collector light-meter and sometimes called \"vector irradiance\". In accordance with common usage in geophysical disciplines, \"flux\" implies per unit area, called \"flux density\" in physics.", 
    "comment": "The surface called \"surface\" means the lower boundary of the atmosphere. \"longwave\" means longwave radiation. Downwelling radiation is radiation from above. It does not mean \"net downward\". When thought of as being incident on a surface, a radiative flux is sometimes called \"irradiance\". In addition, it is identical with the quantity measured by a cosine-collector light-meter and sometimes called \"vector irradiance\". In accordance with common usage in geophysical disciplines, \"flux\" implies per unit area, called \"flux density\" in physics.", 
    "out_name": "rlds", 
    "standard_name": "surface_downwelling_longwave_flux_in_air", 
    "cell_methods": "area: time: mean where ice_sheet", 
    "positive": "down", 
    "type": "real", 
    "dimensions": "xgre ygre time", 
    "modeling_realm": "landIce land", 
    "frequency": "mon", 
    "cell_measures": "area: areacellg", 
    "valid_min": null, 
    "valid_max": null, 
    "ok_min_mean_abs": null, 
    "ok_max_mean_abs": null, 
    "priority": 1.0, 
    "MIPs (requesting)": "  ISMIP6(1,1,1,1)", 
    "experiments": "  amip (ISMIP6:1), 1pctCO2 (ISMIP6:1), historical (ISMIP6:1), piControl (ISMIP6:1)"
  }, 
  "rlus": {
    "CMOR Name": "rlus", 
    "CMOR Name, any freq": "rlus", 
    "CCCma check": null, 
    "CCCma hist file": null, 
    "CCCma hist var names": null, 
    "CCCma hist var frequency": null, 
    "CCCma TS var name": null, 
    "CCCma diag file": null, 
    "CCCma units": null, 
    "CCCma optional deck": null, 
    "CCCma comment": null, 
    "CCCma NetCDF comment": null, 
    "CCCma target vertical grid": null, 
    "CCCma target horizontal grid": null, 
    "Include only for": null, 
    "Exclude for": null, 
    "long_name": "Surface Upwelling Longwave Radiation", 
    "units": "W m-2", 
    "description": "The surface called \"surface\" means the lower boundary of the atmosphere. \"longwave\" means longwave radiation. Upwelling radiation is radiation from below. It does not mean \"net upward\". When thought of as being incident on a surface, a radiative flux is sometimes called \"irradiance\". In addition, it is identical with the quantity measured by a cosine-collector light-meter and sometimes called \"vector irradiance\". In accordance with common usage in geophysical disciplines, \"flux\" implies per unit area, called \"flux density\" in physics.", 
    "comment": "The surface called \"surface\" means the lower boundary of the atmosphere. \"longwave\" means longwave radiation. Upwelling radiation is radiation from below. It does not mean \"net upward\". When thought of as being incident on a surface, a radiative flux is sometimes called \"irradiance\". In addition, it is identical with the quantity measured by a cosine-collector light-meter and sometimes called \"vector irradiance\". In accordance with common usage in geophysical disciplines, \"flux\" implies per unit area, called \"flux density\" in physics.", 
    "out_name": "rlus", 
    "standard_name": "surface_upwelling_longwave_flux_in_air", 
    "cell_methods": "area: time: mean where ice_sheet", 
    "positive": "up", 
    "type": "real", 
    "dimensions": "xgre ygre time", 
    "modeling_realm": "landIce land", 
    "frequency": "mon", 
    "cell_measures": "area: areacellg", 
    "valid_min": null, 
    "valid_max": null, 
    "ok_min_mean_abs": null, 
    "ok_max_mean_abs": null, 
    "priority": 1.0, 
    "MIPs (requesting)": "  ISMIP6(1,1,1,1)", 
    "experiments": "  amip (ISMIP6:1), 1pctCO2 (ISMIP6:1), historical (ISMIP6:1), piControl (ISMIP6:1)"
  }, 
  "rsds": {
    "CMOR Name": "rsds", 
    "CMOR Name, any freq": "rsds", 
    "CCCma check": null, 
    "CCCma hist file": null, 
    "CCCma hist var names": null, 
    "CCCma hist var frequency": null, 
    "CCCma TS var name": null, 
    "CCCma diag file": null, 
    "CCCma units": null, 
    "CCCma optional deck": null, 
    "CCCma comment": null, 
    "CCCma NetCDF comment": null, 
    "CCCma target vertical grid": null, 
    "CCCma target horizontal grid": null, 
    "Include only for": null, 
    "Exclude for": null, 
    "long_name": "Surface Downwelling Shortwave Radiation", 
    "units": "W m-2", 
    "description": "Surface solar irradiance for UV calculations.", 
    "comment": "Surface solar irradiance for UV calculations.", 
    "out_name": "rsds", 
    "standard_name": "surface_downwelling_shortwave_flux_in_air", 
    "cell_methods": "area: time: mean where ice_sheet", 
    "positive": "down", 
    "type": "real", 
    "dimensions": "xgre ygre time", 
    "modeling_realm": "landIce land", 
    "frequency": "mon", 
    "cell_measures": "area: areacellg", 
    "valid_min": null, 
    "valid_max": null, 
    "ok_min_mean_abs": null, 
    "ok_max_mean_abs": null, 
    "priority": 1.0, 
    "MIPs (requesting)": "  ISMIP6(1,1,1,1)", 
    "experiments": "  amip (ISMIP6:1), 1pctCO2 (ISMIP6:1), historical (ISMIP6:1), piControl (ISMIP6:1)"
  }, 
  "rsus": {
    "CMOR Name": "rsus", 
    "CMOR Name, any freq": "rsus", 
    "CCCma check": null, 
    "CCCma hist file": null, 
    "CCCma hist var names": null, 
    "CCCma hist var frequency": null, 
    "CCCma TS var name": null, 
    "CCCma diag file": null, 
    "CCCma units": null, 
    "CCCma optional deck": null, 
    "CCCma comment": null, 
    "CCCma NetCDF comment": null, 
    "CCCma target vertical grid": null, 
    "CCCma target horizontal grid": null, 
    "Include only for": null, 
    "Exclude for": null, 
    "long_name": "Surface Upwelling Shortwave Radiation", 
    "units": "W m-2", 
    "description": "The surface called \"surface\" means the lower boundary of the atmosphere. \"shortwave\" means shortwave radiation. Upwelling radiation is radiation from below. It does not mean \"net upward\". When thought of as being incident on a surface, a radiative flux is sometimes called \"irradiance\". In addition, it is identical with the quantity measured by a cosine-collector light-meter and sometimes called \"vector irradiance\". In accordance with common usage in geophysical disciplines, \"flux\" implies per unit area, called \"flux density\" in physics.", 
    "comment": "The surface called \"surface\" means the lower boundary of the atmosphere. \"shortwave\" means shortwave radiation. Upwelling radiation is radiation from below. It does not mean \"net upward\". When thought of as being incident on a surface, a radiative flux is sometimes called \"irradiance\". In addition, it is identical with the quantity measured by a cosine-collector light-meter and sometimes called \"vector irradiance\". In accordance with common usage in geophysical disciplines, \"flux\" implies per unit area, called \"flux density\" in physics.", 
    "out_name": "rsus", 
    "standard_name": "surface_upwelling_shortwave_flux_in_air", 
    "cell_methods": "area: time: mean where ice_sheet", 
    "positive": "up", 
    "type": "real", 
    "dimensions": "xgre ygre time", 
    "modeling_realm": "landIce land", 
    "frequency": "mon", 
    "cell_measures": "area: areacellg", 
    "valid_min": null, 
    "valid_max": null, 
    "ok_min_mean_abs": null, 
    "ok_max_mean_abs": null, 
    "priority": 1.0, 
    "MIPs (requesting)": "  ISMIP6(1,1,1,1)", 
    "experiments": "  amip (ISMIP6:1), 1pctCO2 (ISMIP6:1), historical (ISMIP6:1), piControl (ISMIP6:1)"
  }, 
  "sbl": {
    "CMOR Name": "sbl", 
    "CMOR Name, any freq": "sbl", 
    "CCCma check": null, 
    "CCCma hist file": null, 
    "CCCma hist var names": null, 
    "CCCma hist var frequency": null, 
    "CCCma TS var name": null, 
    "CCCma diag file": null, 
    "CCCma units": null, 
    "CCCma optional deck": null, 
    "CCCma comment": null, 
    "CCCma NetCDF comment": null, 
    "CCCma target vertical grid": null, 
    "CCCma target horizontal grid": null, 
    "Include only for": null, 
    "Exclude for": null, 
    "long_name": "Surface Snow and Ice Sublimation Flux", 
    "units": "kg m-2 s-1", 
    "description": "The snow and ice sublimation flux is the loss of snow and ice mass per unit area from the surface resulting from their direct conversion to water vapor that enters the atmosphere.", 
    "comment": "The snow and ice sublimation flux is the loss of snow and ice mass per unit area from the surface resulting from their direct conversion to water vapor that enters the atmosphere.", 
    "out_name": "sbl", 
    "standard_name": "tendency_of_atmosphere_mass_content_of_water_vapor_due_to_sublimation_of_surface_snow_and_ice", 
    "cell_methods": "area: time: mean where ice_sheet", 
    "positive": null, 
    "type": "real", 
    "dimensions": "xgre ygre time", 
    "modeling_realm": "landIce", 
    "frequency": "mon", 
    "cell_measures": "area: areacellg", 
    "valid_min": null, 
    "valid_max": null, 
    "ok_min_mean_abs": null, 
    "ok_max_mean_abs": null, 
    "priority": 1.0, 
    "MIPs (requesting)": "  ISMIP6(1,1,1,1)", 
    "experiments": "  amip (ISMIP6:1), 1pctCO2 (ISMIP6:1), historical (ISMIP6:1), piControl (ISMIP6:1)"
  }, 
  "snc": {
    "CMOR Name": "snc", 
    "CMOR Name, any freq": "snc", 
    "CCCma check": null, 
    "CCCma hist file": null, 
    "CCCma hist var names": null, 
    "CCCma hist var frequency": null, 
    "CCCma TS var name": null, 
    "CCCma diag file": null, 
    "CCCma units": null, 
    "CCCma optional deck": null, 
    "CCCma comment": null, 
    "CCCma NetCDF comment": null, 
    "CCCma target vertical grid": null, 
    "CCCma target horizontal grid": null, 
    "Include only for": null, 
    "Exclude for": null, 
    "long_name": "Snow Area Percentage", 
    "units": "%", 
    "description": "quantity averaged over ice sheet (grounded ice sheet and floating ice shelf) only, to avoid contamination from other surfaces (eg: permafrost)", 
    "comment": "Percentage of each grid cell that is occupied by snow that rests on land portion of cell.", 
    "out_name": "snc", 
    "standard_name": "surface_snow_area_fraction", 
    "cell_methods": "area: time: mean where ice_sheet", 
    "positive": null, 
    "type": "real", 
    "dimensions": "xgre ygre time", 
    "modeling_realm": "landIce land", 
    "frequency": "mon", 
    "cell_measures": "area: areacellg", 
    "valid_min": null, 
    "valid_max": null, 
    "ok_min_mean_abs": null, 
    "ok_max_mean_abs": null, 
    "priority": 1.0, 
    "MIPs (requesting)": "  ISMIP6(1,1,1,1)", 
    "experiments": "  amip (ISMIP6:1), 1pctCO2 (ISMIP6:1), historical (ISMIP6:1), piControl (ISMIP6:1)"
  }, 
  "snicefreez": {
    "CMOR Name": "snicefreez", 
    "CMOR Name, any freq": "snicefreez", 
    "CCCma check": null, 
    "CCCma hist file": null, 
    "CCCma hist var names": null, 
    "CCCma hist var frequency": null, 
    "CCCma TS var name": null, 
    "CCCma diag file": null, 
    "CCCma units": null, 
    "CCCma optional deck": null, 
    "CCCma comment": null, 
    "CCCma NetCDF comment": null, 
    "CCCma target vertical grid": null, 
    "CCCma target horizontal grid": null, 
    "Include only for": null, 
    "Exclude for": null, 
    "long_name": "Surface Snow and Ice Refreeze Flux", 
    "units": "kg m-2 s-1", 
    "description": "Mass flux of surface meltwater which refreezes within the snowpack. Computed as the total refreezing on the land ice portion of the grid cell divided by land ice area in the grid cell.", 
    "comment": "Mass flux of surface meltwater which refreezes within the snowpack. Computed as the total refreezing on the land ice portion of the grid cell divided by land ice area in the grid cell.", 
    "out_name": "snicefreez", 
    "standard_name": "surface_snow_and_ice_refreezing_flux", 
    "cell_methods": "area: time: mean where ice_sheet", 
    "positive": null, 
    "type": "real", 
    "dimensions": "xgre ygre time", 
    "modeling_realm": "landIce", 
    "frequency": "mon", 
    "cell_measures": "area: areacellg", 
    "valid_min": null, 
    "valid_max": null, 
    "ok_min_mean_abs": null, 
    "ok_max_mean_abs": null, 
    "priority": 2.0, 
    "MIPs (requesting)": "  ISMIP6(2,2,2,2)", 
    "experiments": "  amip (ISMIP6:2), 1pctCO2 (ISMIP6:2), historical (ISMIP6:2), piControl (ISMIP6:2)"
  }, 
  "snicem": {
    "CMOR Name": "snicem", 
    "CMOR Name, any freq": "snicem", 
    "CCCma check": null, 
    "CCCma hist file": null, 
    "CCCma hist var names": null, 
    "CCCma hist var frequency": null, 
    "CCCma TS var name": null, 
    "CCCma diag file": null, 
    "CCCma units": null, 
    "CCCma optional deck": null, 
    "CCCma comment": null, 
    "CCCma NetCDF comment": null, 
    "CCCma target vertical grid": null, 
    "CCCma target horizontal grid": null, 
    "Include only for": null, 
    "Exclude for": null, 
    "long_name": "Surface Snow and Ice Melt Flux", 
    "units": "kg m-2 s-1", 
    "description": "Loss of snow and ice mass resulting from surface melting. Computed as the total surface melt on the land ice portion of the grid cell divided by land ice area in the grid cell.", 
    "comment": "Loss of snow and ice mass resulting from surface melting. Computed as the total surface melt on the land ice portion of the grid cell divided by land ice area in the grid cell.", 
    "out_name": "snicem", 
    "standard_name": "surface_snow_and_ice_melt_flux", 
    "cell_methods": "area: time: mean where ice_sheet", 
    "positive": null, 
    "type": "real", 
    "dimensions": "xgre ygre time", 
    "modeling_realm": "landIce", 
    "frequency": "mon", 
    "cell_measures": "area: areacellg", 
    "valid_min": null, 
    "valid_max": null, 
    "ok_min_mean_abs": null, 
    "ok_max_mean_abs": null, 
    "priority": 2.0, 
    "MIPs (requesting)": "  ISMIP6(2,2,2,2)", 
    "experiments": "  amip (ISMIP6:2), 1pctCO2 (ISMIP6:2), historical (ISMIP6:2), piControl (ISMIP6:2)"
  }, 
  "snm": {
    "CMOR Name": "snm", 
    "CMOR Name, any freq": "snm", 
    "CCCma check": null, 
    "CCCma hist file": null, 
    "CCCma hist var names": null, 
    "CCCma hist var frequency": null, 
    "CCCma TS var name": null, 
    "CCCma diag file": null, 
    "CCCma units": null, 
    "CCCma optional deck": null, 
    "CCCma comment": null, 
    "CCCma NetCDF comment": null, 
    "CCCma target vertical grid": null, 
    "CCCma target horizontal grid": null, 
    "Include only for": null, 
    "Exclude for": null, 
    "long_name": "Surface Snow Melt", 
    "units": "kg m-2 s-1", 
    "description": "The total surface snow melt rate on the land portion of the grid cell divided by the land area in the grid cell; report as zero for snow-free land regions and missing where there is no land.", 
    "comment": "The total surface snow melt rate on the land portion of the grid cell divided by the land area in the grid cell; report as zero for snow-free land regions and missing where there is no land.", 
    "out_name": "snm", 
    "standard_name": "surface_snow_melt_flux", 
    "cell_methods": "area: time: mean where ice_sheet", 
    "positive": null, 
    "type": "real", 
    "dimensions": "xgre ygre time", 
    "modeling_realm": "landIce land", 
    "frequency": "mon", 
    "cell_measures": "area: areacellg", 
    "valid_min": null, 
    "valid_max": null, 
    "ok_min_mean_abs": null, 
    "ok_max_mean_abs": null, 
    "priority": 1.0, 
    "MIPs (requesting)": "  ISMIP6(1,1,1,1)", 
    "experiments": "  amip (ISMIP6:1), 1pctCO2 (ISMIP6:1), historical (ISMIP6:1), piControl (ISMIP6:1)"
  }, 
  "tas": {
    "CMOR Name": "tas", 
    "CMOR Name, any freq": "tas", 
    "CCCma check": null, 
    "CCCma hist file": null, 
    "CCCma hist var names": null, 
    "CCCma hist var frequency": null, 
    "CCCma TS var name": null, 
    "CCCma diag file": null, 
    "CCCma units": null, 
    "CCCma optional deck": null, 
    "CCCma comment": null, 
    "CCCma NetCDF comment": null, 
    "CCCma target vertical grid": null, 
    "CCCma target horizontal grid": null, 
    "Include only for": null, 
    "Exclude for": null, 
    "long_name": "Near-Surface Air Temperature", 
    "units": "K", 
    "description": "quantity averaged over ice sheet (grounded ice sheet and floating ice shelf) only. Needed to analyse the impact of downscaling methods", 
    "comment": "near-surface (usually, 2 meter) air temperature", 
    "out_name": "tas", 
    "standard_name": "air_temperature", 
    "cell_methods": "area: time: mean where ice_sheet", 
    "positive": null, 
    "type": "real", 
    "dimensions": "time height2m", 
    "modeling_realm": "landIce land", 
    "frequency": "mon", 
    "cell_measures": null, 
    "valid_min": null, 
    "valid_max": null, 
    "ok_min_mean_abs": null, 
    "ok_max_mean_abs": null, 
    "priority": 1.0, 
    "MIPs (requesting)": "  ISMIP6(1,1,1,1)", 
    "experiments": "  amip (ISMIP6:1), 1pctCO2 (ISMIP6:1), historical (ISMIP6:1), piControl (ISMIP6:1)"
  }, 
  "ts": {
    "CMOR Name": "ts", 
    "CMOR Name, any freq": "ts", 
    "CCCma check": null, 
    "CCCma hist file": null, 
    "CCCma hist var names": null, 
    "CCCma hist var frequency": null, 
    "CCCma TS var name": null, 
    "CCCma diag file": null, 
    "CCCma units": null, 
    "CCCma optional deck": null, 
    "CCCma comment": null, 
    "CCCma NetCDF comment": null, 
    "CCCma target vertical grid": null, 
    "CCCma target horizontal grid": null, 
    "Include only for": null, 
    "Exclude for": null, 
    "long_name": "Surface Temperature", 
    "units": "K", 
    "description": "quantity averaged over ice sheet (grounded ice sheet and floating ice shelf) only. Needed to analyse the impact of downscaling methods", 
    "comment": "Temperature of the lower boundary of the atmosphere", 
    "out_name": "ts", 
    "standard_name": "surface_temperature", 
    "cell_methods": "area: time: mean where ice_sheet", 
    "positive": null, 
    "type": "real", 
    "dimensions": "xgre ygre time", 
    "modeling_realm": "landIce land", 
    "frequency": "mon", 
    "cell_measures": "area: areacellg", 
    "valid_min": null, 
    "valid_max": null, 
    "ok_min_mean_abs": null, 
    "ok_max_mean_abs": null, 
    "priority": 1.0, 
    "MIPs (requesting)": "  ISMIP6(1,1,1,1)", 
    "experiments": "  amip (ISMIP6:1), 1pctCO2 (ISMIP6:1), historical (ISMIP6:1), piControl (ISMIP6:1)"
  }, 
  "tsn": {
    "CMOR Name": "tsn", 
    "CMOR Name, any freq": "tsn", 
    "CCCma check": null, 
    "CCCma hist file": null, 
    "CCCma hist var names": null, 
    "CCCma hist var frequency": null, 
    "CCCma TS var name": null, 
    "CCCma diag file": null, 
    "CCCma units": null, 
    "CCCma optional deck": null, 
    "CCCma comment": null, 
    "CCCma NetCDF comment": null, 
    "CCCma target vertical grid": null, 
    "CCCma target horizontal grid": null, 
    "Include only for": null, 
    "Exclude for": null, 
    "long_name": "Snow Internal Temperature", 
    "units": "K", 
    "description": "quantity averaged over ice sheet (grounded ice sheet and floating ice shelf) only. Needed to analyse the impact of downscaling methods", 
    "comment": "This temperature is averaged over all the snow in the grid cell that rests on land or land ice.  When computing the time-mean here, the time samples, weighted by the mass of snow on the land portion of the grid cell, are accumulated and then divided by the sum of the weights.   Reported as missing in regions free of snow on land.", 
    "out_name": "tsn", 
    "standard_name": "temperature_in_surface_snow", 
    "cell_methods": "area: time: mean where ice_sheet", 
    "positive": null, 
    "type": "real", 
    "dimensions": "xgre ygre time", 
    "modeling_realm": "landIce land", 
    "frequency": "mon", 
    "cell_measures": "area: areacellg", 
    "valid_min": null, 
    "valid_max": null, 
    "ok_min_mean_abs": null, 
    "ok_max_mean_abs": null, 
    "priority": 1.0, 
    "MIPs (requesting)": "  ISMIP6(1,1,1,1)", 
    "experiments": "  amip (ISMIP6:1), 1pctCO2 (ISMIP6:1), historical (ISMIP6:1), piControl (ISMIP6:1)"
  }
}