{
  "_metadata_": {
    "Source file": "output_variables_dreq01.00.31_CANOE__BACKUP_26Mar2021_18h26m06sUTC.xlsx output_variables_dreq01.00.31__BACKUP_26Mar2021_18h26m02sUTC.xlsx", 
    "MIP table": "day"
  }, 
  "clt": {
    "CMOR Name": "clt", 
    "CMOR Name, any freq": "clt", 
    "CCCma check": "Done.", 
    "CCCma hist file": "gs", 
    "CCCma hist var names": "CLDT", 
    "CCCma hist var frequency": "ISRAD", 
    "CCCma TS var name": "CLDT", 
    "CCCma diag file": "dd", 
    "CCCma units": "-", 
    "CCCma optional deck": "mltby100", 
    "CCCma comment": null, 
    "CCCma NetCDF comment": null, 
    "CCCma target vertical grid": null, 
    "CCCma target horizontal grid": null, 
    "Include only for": null, 
    "Exclude for": null, 
    "long_name": "Total Cloud Cover Percentage", 
    "units": "%", 
    "description": "for the whole atmospheric column, as seen from the surface or the top of the atmosphere. Includes both large-scale and convective cloud.", 
    "comment": "Total cloud area fraction (reported as a percentage) for the whole atmospheric column, as seen from the surface or the top of the atmosphere. Includes both large-scale and convective cloud.", 
    "out_name": "clt", 
    "standard_name": "cloud_area_fraction", 
    "cell_methods": "area: time: mean", 
    "positive": null, 
    "type": "real", 
    "dimensions": "longitude latitude time", 
    "modeling_realm": "atmos", 
    "frequency": "day", 
    "cell_measures": "area: areacella", 
    "valid_min": -0.001, 
    "valid_max": 100.001, 
    "ok_min_mean_abs": 10.0, 
    "ok_max_mean_abs": 90.0, 
    "priority": 1.0, 
    "MIPs (requesting)": "  CFMIP(1,1,1,1,1), CMIP(1,1,1), CORDEX(1), DAMIP(1,1), DCPP(2), HighResMIP(1,1,1), PAMIP(2), VIACSAB(1,1,1,2,2,2,2), VolMIP(1)", 
    "experiments": "  abrupt-4xCO2 (CFMIP:1), amip (CFMIP:1,CMIP:1,HighResMIP:1,VIACSAB:1,VIACSAB:2), 1pctCO2 (CFMIP:1,VIACSAB:1,VIACSAB:2), historical (CFMIP:1,CMIP:1,DAMIP:1,HighResMIP:1,VIACSAB:1,DCPP:2,PAMIP:2,VIACSAB:2), piControl (CFMIP:1,CMIP:1,CORDEX:1,DAMIP:1,HighResMIP:1,VolMIP:1,VIACSAB:2)"
  }, 
  "hfls": {
    "CMOR Name": "hfls", 
    "CMOR Name, any freq": "hfls", 
    "CCCma check": "Done.", 
    "CCCma hist file": "gs", 
    "CCCma hist var names": "HFL", 
    "CCCma hist var frequency": "ISRAD", 
    "CCCma TS var name": "HFL", 
    "CCCma diag file": "dd", 
    "CCCma units": "W m-2", 
    "CCCma optional deck": null, 
    "CCCma comment": null, 
    "CCCma NetCDF comment": null, 
    "CCCma target vertical grid": null, 
    "CCCma target horizontal grid": null, 
    "Include only for": null, 
    "Exclude for": null, 
    "long_name": "Surface Upward Latent Heat Flux", 
    "units": "W m-2", 
    "description": "The surface called \"surface\" means the lower boundary of the atmosphere. \"Upward\" indicates a vector component which is positive when directed upward (negative downward). The surface latent heat flux is the exchange of heat between the surface and the air on account of evaporation (including sublimation). In accordance with common usage in geophysical disciplines, \"flux\" implies per unit area, called \"flux density\" in physics.", 
    "comment": "The surface called \"surface\" means the lower boundary of the atmosphere. \"Upward\" indicates a vector component which is positive when directed upward (negative downward). The surface latent heat flux is the exchange of heat between the surface and the air on account of evaporation (including sublimation). In accordance with common usage in geophysical disciplines, \"flux\" implies per unit area, called \"flux density\" in physics.", 
    "out_name": "hfls", 
    "standard_name": "surface_upward_latent_heat_flux", 
    "cell_methods": "area: time: mean", 
    "positive": "up", 
    "type": "real", 
    "dimensions": "longitude latitude time", 
    "modeling_realm": "atmos", 
    "frequency": "day", 
    "cell_measures": "area: areacella", 
    "valid_min": -400.0, 
    "valid_max": 1800.0, 
    "ok_min_mean_abs": 30.0, 
    "ok_max_mean_abs": 110.0, 
    "priority": 1.0, 
    "MIPs (requesting)": "  CFMIP(1,1,1,1,1), CMIP(1,1,1), DAMIP(1,1), DCPP(3), HighResMIP(1,1,1), LUMIP(1), PAMIP(3), VIACSAB(1,1,1), VolMIP(1)", 
    "experiments": "  abrupt-4xCO2 (CFMIP:1), amip (CFMIP:1,CMIP:1,HighResMIP:1,VIACSAB:1), 1pctCO2 (CFMIP:1), historical (CFMIP:1,CMIP:1,DAMIP:1,HighResMIP:1,LUMIP:1,VIACSAB:1,DCPP:3,PAMIP:3), piControl (CFMIP:1,CMIP:1,DAMIP:1,HighResMIP:1,VIACSAB:1,VolMIP:1)"
  }, 
  "hfss": {
    "CMOR Name": "hfss", 
    "CMOR Name, any freq": "hfss", 
    "CCCma check": "Done.", 
    "CCCma hist file": "gs", 
    "CCCma hist var names": "HFS", 
    "CCCma hist var frequency": "ISRAD", 
    "CCCma TS var name": "HFS", 
    "CCCma diag file": "dd", 
    "CCCma units": "W m-2", 
    "CCCma optional deck": null, 
    "CCCma comment": null, 
    "CCCma NetCDF comment": null, 
    "CCCma target vertical grid": null, 
    "CCCma target horizontal grid": null, 
    "Include only for": null, 
    "Exclude for": null, 
    "long_name": "Surface Upward Sensible Heat Flux", 
    "units": "W m-2", 
    "description": "The surface sensible heat flux, also called turbulent heat flux, is the exchange of heat between the surface and the air by motion of air.", 
    "comment": "The surface sensible heat flux, also called turbulent heat flux, is the exchange of heat between the surface and the air by motion of air.", 
    "out_name": "hfss", 
    "standard_name": "surface_upward_sensible_heat_flux", 
    "cell_methods": "area: time: mean", 
    "positive": "up", 
    "type": "real", 
    "dimensions": "longitude latitude time", 
    "modeling_realm": "atmos", 
    "frequency": "day", 
    "cell_measures": "area: areacella", 
    "valid_min": -1000.0, 
    "valid_max": 2000.0, 
    "ok_min_mean_abs": 5.0, 
    "ok_max_mean_abs": 60.0, 
    "priority": 1.0, 
    "MIPs (requesting)": "  CFMIP(1,1,1,1,1), CMIP(1,1,1), DAMIP(1,1), DCPP(3), HighResMIP(1,1,1), LUMIP(1), PAMIP(3), VIACSAB(1,1,1), VolMIP(1)", 
    "experiments": "  abrupt-4xCO2 (CFMIP:1), amip (CFMIP:1,CMIP:1,HighResMIP:1,VIACSAB:1), 1pctCO2 (CFMIP:1), historical (CFMIP:1,CMIP:1,DAMIP:1,HighResMIP:1,LUMIP:1,VIACSAB:1,DCPP:3,PAMIP:3), piControl (CFMIP:1,CMIP:1,DAMIP:1,HighResMIP:1,VIACSAB:1,VolMIP:1)"
  }, 
  "hur": {
    "CMOR Name": "hur", 
    "CMOR Name, any freq": "hur", 
    "CCCma check": "Do we produce this in timeseries now?", 
    "CCCma hist file": "ss", 
    "CCCma hist var names": "TEMP ES", 
    "CCCma hist var frequency": "Spectral at ISSP", 
    "CCCma TS var name": "RH", 
    "CCCma diag file": "dp", 
    "CCCma units": "-", 
    "CCCma optional deck": "mltby100", 
    "CCCma comment": null, 
    "CCCma NetCDF comment": null, 
    "CCCma target vertical grid": null, 
    "CCCma target horizontal grid": null, 
    "Include only for": null, 
    "Exclude for": null, 
    "long_name": "Relative Humidity", 
    "units": "%", 
    "description": "This is the relative humidity with respect to liquid water for T> 0 C, and with respect to ice for T<0 C.", 
    "comment": "The relative humidity with respect to liquid water for T> 0 C, and with respect to ice for T<0 C.", 
    "out_name": "hur", 
    "standard_name": "relative_humidity", 
    "cell_methods": "time: mean", 
    "positive": null, 
    "type": "real", 
    "dimensions": "longitude latitude plev8 time", 
    "modeling_realm": "atmos", 
    "frequency": "day", 
    "cell_measures": "area: areacella", 
    "valid_min": -0.001, 
    "valid_max": 105.0, 
    "ok_min_mean_abs": 10.0, 
    "ok_max_mean_abs": 90.0, 
    "priority": 1.0, 
    "MIPs (requesting)": "  CFMIP(1,1,1,1,1), CMIP(1,1,1), DAMIP(1,1), HighResMIP(1,1,1), VIACSAB(1,2,2,2), VolMIP(1)", 
    "experiments": "  abrupt-4xCO2 (CFMIP:1), amip (CFMIP:1,CMIP:1,HighResMIP:1,VIACSAB:2), 1pctCO2 (CFMIP:1), historical (CFMIP:1,CMIP:1,DAMIP:1,HighResMIP:1,VIACSAB:1,VIACSAB:2), piControl (CFMIP:1,CMIP:1,DAMIP:1,HighResMIP:1,VolMIP:1,VIACSAB:2)"
  }, 
  "hurs": {
    "CMOR Name": "hurs", 
    "CMOR Name, any freq": "hurs", 
    "CCCma check": "Done.", 
    "CCCma hist file": "gs", 
    "CCCma hist var names": "SRH", 
    "CCCma hist var frequency": "ISRAD", 
    "CCCma TS var name": "SRH", 
    "CCCma diag file": "dd", 
    "CCCma units": "-", 
    "CCCma optional deck": "mltby100", 
    "CCCma comment": null, 
    "CCCma NetCDF comment": null, 
    "CCCma target vertical grid": null, 
    "CCCma target horizontal grid": null, 
    "Include only for": null, 
    "Exclude for": null, 
    "long_name": "Near-Surface Relative Humidity", 
    "units": "%", 
    "description": "This is the relative humidity with respect to liquid water for T> 0 C, and with respect to ice for T<0 C.", 
    "comment": "The relative humidity with respect to liquid water for T> 0 C, and with respect to ice for T<0 C.", 
    "out_name": "hurs", 
    "standard_name": "relative_humidity", 
    "cell_methods": "area: time: mean", 
    "positive": null, 
    "type": "real", 
    "dimensions": "longitude latitude time height2m", 
    "modeling_realm": "atmos", 
    "frequency": "day", 
    "cell_measures": "area: areacella", 
    "valid_min": null, 
    "valid_max": null, 
    "ok_min_mean_abs": null, 
    "ok_max_mean_abs": null, 
    "priority": 1.0, 
    "MIPs (requesting)": "  CFMIP(1,1,1,1,1), CMIP(1,1,1,1,1), CORDEX(1), DAMIP(1,1), GMMIP(1), HighResMIP(1,1,1), PMIP(1,1,1,1,1), VIACSAB(1,1,1,2), VolMIP(1)", 
    "experiments": "  abrupt-4xCO2 (CFMIP:1,CMIP:1,PMIP:1), amip (CFMIP:1,CMIP:1,GMMIP:1,HighResMIP:1,PMIP:1,VIACSAB:1), 1pctCO2 (CFMIP:1,CMIP:1,PMIP:1,VIACSAB:1), historical (CFMIP:1,CMIP:1,DAMIP:1,HighResMIP:1,PMIP:1,VIACSAB:1,VIACSAB:2), piControl (CFMIP:1,CMIP:1,CORDEX:1,DAMIP:1,HighResMIP:1,PMIP:1,VolMIP:1)"
  }, 
  "hursmax": {
    "CMOR Name": "hursmax", 
    "CMOR Name, any freq": "hursmax", 
    "CCCma check": "Done.", 
    "CCCma hist file": "gs", 
    "CCCma hist var names": "SRHX", 
    "CCCma hist var frequency": "ISRAD", 
    "CCCma TS var name": "SRHX", 
    "CCCma diag file": "dd", 
    "CCCma units": "-", 
    "CCCma optional deck": "mltby100", 
    "CCCma comment": null, 
    "CCCma NetCDF comment": null, 
    "CCCma target vertical grid": null, 
    "CCCma target horizontal grid": null, 
    "Include only for": null, 
    "Exclude for": null, 
    "long_name": "Daily Maximum Near-Surface Relative Humidity", 
    "units": "%", 
    "description": "This is the relative humidity with respect to liquid water for T> 0 C, and with respect to ice for T<0 C.", 
    "comment": "The relative humidity with respect to liquid water for T> 0 C, and with respect to ice for T<0 C.", 
    "out_name": "hursmax", 
    "standard_name": "relative_humidity", 
    "cell_methods": "area: mean time: maximum", 
    "positive": null, 
    "type": "real", 
    "dimensions": "longitude latitude time height2m", 
    "modeling_realm": "atmos", 
    "frequency": "day", 
    "cell_measures": "area: areacella", 
    "valid_min": null, 
    "valid_max": null, 
    "ok_min_mean_abs": null, 
    "ok_max_mean_abs": null, 
    "priority": 1.0, 
    "MIPs (requesting)": "  CFMIP(1,1,1,1,1), CMIP(1,1,1), DAMIP(1,1), HighResMIP(1,1,1), PMIP(1,1,1,1,1), VIACSAB(1,1,2,2,2), VolMIP(1)", 
    "experiments": "  abrupt-4xCO2 (CFMIP:1,PMIP:1), amip (CFMIP:1,CMIP:1,HighResMIP:1,PMIP:1,VIACSAB:1,VIACSAB:2), 1pctCO2 (CFMIP:1,PMIP:1), historical (CFMIP:1,CMIP:1,DAMIP:1,HighResMIP:1,PMIP:1,VIACSAB:1,VIACSAB:2), piControl (CFMIP:1,CMIP:1,DAMIP:1,HighResMIP:1,PMIP:1,VolMIP:1,VIACSAB:2)"
  }, 
  "hursmin": {
    "CMOR Name": "hursmin", 
    "CMOR Name, any freq": "hursmin", 
    "CCCma check": "Done.", 
    "CCCma hist file": "gs", 
    "CCCma hist var names": "SRHN", 
    "CCCma hist var frequency": "ISRAD", 
    "CCCma TS var name": "SRHN", 
    "CCCma diag file": "dd", 
    "CCCma units": "-", 
    "CCCma optional deck": "mltby100", 
    "CCCma comment": null, 
    "CCCma NetCDF comment": null, 
    "CCCma target vertical grid": null, 
    "CCCma target horizontal grid": null, 
    "Include only for": null, 
    "Exclude for": null, 
    "long_name": "Daily Minimum Near-Surface Relative Humidity", 
    "units": "%", 
    "description": "This is the relative humidity with respect to liquid water for T> 0 C, and with respect to ice for T<0 C.", 
    "comment": "The relative humidity with respect to liquid water for T> 0 C, and with respect to ice for T<0 C.", 
    "out_name": "hursmin", 
    "standard_name": "relative_humidity", 
    "cell_methods": "area: mean time: minimum", 
    "positive": null, 
    "type": "real", 
    "dimensions": "longitude latitude time height2m", 
    "modeling_realm": "atmos", 
    "frequency": "day", 
    "cell_measures": "area: areacella", 
    "valid_min": null, 
    "valid_max": null, 
    "ok_min_mean_abs": null, 
    "ok_max_mean_abs": null, 
    "priority": 1.0, 
    "MIPs (requesting)": "  CFMIP(1,1,1,1,1), CMIP(1,1,1,1,1), DAMIP(1,1), GMMIP(1), HighResMIP(1,1,1), PMIP(1,1,1,1,1), VIACSAB(1,1,2,2,2), VolMIP(1)", 
    "experiments": "  abrupt-4xCO2 (CFMIP:1,CMIP:1,PMIP:1), amip (CFMIP:1,CMIP:1,GMMIP:1,HighResMIP:1,PMIP:1,VIACSAB:1,VIACSAB:2), 1pctCO2 (CFMIP:1,CMIP:1,PMIP:1), historical (CFMIP:1,CMIP:1,DAMIP:1,HighResMIP:1,PMIP:1,VIACSAB:1,VIACSAB:2), piControl (CFMIP:1,CMIP:1,DAMIP:1,HighResMIP:1,PMIP:1,VolMIP:1,VIACSAB:2)"
  }, 
  "hus": {
    "CMOR Name": "hus", 
    "CMOR Name, any freq": "hus", 
    "CCCma check": "Do we produce this in timeseries now?", 
    "CCCma hist file": "ss", 
    "CCCma hist var names": "ES", 
    "CCCma hist var frequency": "Spectral at ISSP", 
    "CCCma TS var name": "SHUM", 
    "CCCma diag file": "dp", 
    "CCCma units": "-", 
    "CCCma optional deck": null, 
    "CCCma comment": null, 
    "CCCma NetCDF comment": null, 
    "CCCma target vertical grid": null, 
    "CCCma target horizontal grid": null, 
    "Include only for": null, 
    "Exclude for": null, 
    "long_name": "Specific Humidity", 
    "units": "1", 
    "description": "Specific humidity is the mass fraction of water vapor in (moist) air.", 
    "comment": "Specific humidity is the mass fraction of water vapor in (moist) air.", 
    "out_name": "hus", 
    "standard_name": "specific_humidity", 
    "cell_methods": "time: mean", 
    "positive": null, 
    "type": "real", 
    "dimensions": "longitude latitude plev8 time", 
    "modeling_realm": "atmos", 
    "frequency": "day", 
    "cell_measures": "area: areacella", 
    "valid_min": -0.001, 
    "valid_max": 0.06, 
    "ok_min_mean_abs": 1e-05, 
    "ok_max_mean_abs": 0.01, 
    "priority": 1.0, 
    "MIPs (requesting)": "  CFMIP(1,1,1,1,1), CMIP(1,1,1), CORDEX(1), DAMIP(1,1), HighResMIP(1,1,1), VIACSAB(1,2,2,2), VolMIP(1)", 
    "experiments": "  abrupt-4xCO2 (CFMIP:1), amip (CFMIP:1,CMIP:1,HighResMIP:1,VIACSAB:2), 1pctCO2 (CFMIP:1), historical (CFMIP:1,CMIP:1,DAMIP:1,HighResMIP:1,VIACSAB:1,VIACSAB:2), piControl (CFMIP:1,CMIP:1,CORDEX:1,DAMIP:1,HighResMIP:1,VolMIP:1,VIACSAB:2)"
  }, 
  "huss": {
    "CMOR Name": "huss", 
    "CMOR Name, any freq": "huss", 
    "CCCma check": "Done.", 
    "CCCma hist file": "gs", 
    "CCCma hist var names": "SQ", 
    "CCCma hist var frequency": "ISRAD", 
    "CCCma TS var name": "SQ", 
    "CCCma diag file": "dd", 
    "CCCma units": "-", 
    "CCCma optional deck": null, 
    "CCCma comment": null, 
    "CCCma NetCDF comment": null, 
    "CCCma target vertical grid": null, 
    "CCCma target horizontal grid": null, 
    "Include only for": null, 
    "Exclude for": null, 
    "long_name": "Near-Surface Specific Humidity", 
    "units": "1", 
    "description": "Near-surface (usually, 2 meter) specific humidity.", 
    "comment": "Near-surface (usually, 2 meter) specific humidity.", 
    "out_name": "huss", 
    "standard_name": "specific_humidity", 
    "cell_methods": "area: time: mean", 
    "positive": null, 
    "type": "real", 
    "dimensions": "longitude latitude time height2m", 
    "modeling_realm": "atmos", 
    "frequency": "day", 
    "cell_measures": "area: areacella", 
    "valid_min": null, 
    "valid_max": null, 
    "ok_min_mean_abs": null, 
    "ok_max_mean_abs": null, 
    "priority": 1.0, 
    "MIPs (requesting)": "  CFMIP(1,1,1,1,1), CMIP(1,1,1,1,1), CORDEX(1), DAMIP(1,1), GMMIP(1), HighResMIP(1,1,1), VIACSAB(1,1,2,2,2,2), VolMIP(1)", 
    "experiments": "  abrupt-4xCO2 (CFMIP:1,CMIP:1), amip (CFMIP:1,CMIP:1,GMMIP:1,HighResMIP:1,VIACSAB:1,VIACSAB:2), 1pctCO2 (CFMIP:1,CMIP:1,VIACSAB:2), historical (CFMIP:1,CMIP:1,DAMIP:1,HighResMIP:1,VIACSAB:1,VIACSAB:2), piControl (CFMIP:1,CMIP:1,CORDEX:1,DAMIP:1,HighResMIP:1,VolMIP:1,VIACSAB:2)"
  }, 
  "mrro": {
    "CMOR Name": "mrro", 
    "CMOR Name, any freq": "mrro", 
    "CCCma check": "Done.", 
    "CCCma hist file": "gs", 
    "CCCma hist var names": "ROF", 
    "CCCma hist var frequency": "ISRAD", 
    "CCCma TS var name": "ROF", 
    "CCCma diag file": "dd", 
    "CCCma units": "kg m-2 s-1", 
    "CCCma optional deck": null, 
    "CCCma comment": "land tile only", 
    "CCCma NetCDF comment": null, 
    "CCCma target vertical grid": null, 
    "CCCma target horizontal grid": null, 
    "Include only for": null, 
    "Exclude for": null, 
    "long_name": "Total Runoff", 
    "units": "kg m-2 s-1", 
    "description": "computed as the total runoff (including \"drainage\" through the base of the soil model) leaving the land portion of the grid cell divided by the land area in the grid cell.", 
    "comment": "The total run-off (including drainage through the base of the soil model) per unit area leaving the land portion of the grid cell.", 
    "out_name": "mrro", 
    "standard_name": "runoff_flux", 
    "cell_methods": "area: mean where land time: mean", 
    "positive": null, 
    "type": "real", 
    "dimensions": "longitude latitude time", 
    "modeling_realm": "land", 
    "frequency": "day", 
    "cell_measures": "area: areacella", 
    "valid_min": null, 
    "valid_max": null, 
    "ok_min_mean_abs": null, 
    "ok_max_mean_abs": null, 
    "priority": 1.0, 
    "MIPs (requesting)": "  CFMIP(1,1,1,1,1), CMIP(1,1,1), DAMIP(1,1), HighResMIP(1,1,1), VIACSAB(1,1,1,1), VolMIP(1)", 
    "experiments": "  abrupt-4xCO2 (CFMIP:1), amip (CFMIP:1,CMIP:1,HighResMIP:1,VIACSAB:1), 1pctCO2 (CFMIP:1,VIACSAB:1), historical (CFMIP:1,CMIP:1,DAMIP:1,HighResMIP:1,VIACSAB:1), piControl (CFMIP:1,CMIP:1,DAMIP:1,HighResMIP:1,VIACSAB:1,VolMIP:1)"
  }, 
  "mrso": {
    "CMOR Name": "mrso", 
    "CMOR Name, any freq": "mrso", 
    "CCCma check": "Add to optional deck!", 
    "CCCma hist file": "gs", 
    "CCCma hist var names": "WGL WGF", 
    "CCCma hist var frequency": "ISGG", 
    "CCCma TS var name": "WGL WGF", 
    "CCCma diag file": "dd", 
    "CCCma units": "kg m-2", 
    "CCCma optional deck": "wglfsum", 
    "CCCma comment": "Sum over layers of WGL+WGF, binning 4 ISGG saves to one daily save.", 
    "CCCma NetCDF comment": null, 
    "CCCma target vertical grid": null, 
    "CCCma target horizontal grid": null, 
    "Include only for": null, 
    "Exclude for": null, 
    "long_name": "Total Soil Moisture Content", 
    "units": "kg m-2", 
    "description": "the mass per unit area  (summed over all soil layers) of water in all phases.", 
    "comment": "the mass per unit area  (summed over all soil layers) of water in all phases.", 
    "out_name": "mrso", 
    "standard_name": "mass_content_of_water_in_soil", 
    "cell_methods": "area: mean where land time: mean", 
    "positive": null, 
    "type": "real", 
    "dimensions": "longitude latitude time", 
    "modeling_realm": "land", 
    "frequency": "day", 
    "cell_measures": "area: areacella", 
    "valid_min": null, 
    "valid_max": null, 
    "ok_min_mean_abs": null, 
    "ok_max_mean_abs": null, 
    "priority": 1.0, 
    "MIPs (requesting)": "  CFMIP(1,1,1,1,1), CMIP(1,1,1,1,1), DAMIP(1,1), DCPP(3), GMMIP(1), HighResMIP(1,1,1), PAMIP(3), VolMIP(1)", 
    "experiments": "  abrupt-4xCO2 (CFMIP:1,CMIP:1), amip (CFMIP:1,CMIP:1,GMMIP:1,HighResMIP:1), 1pctCO2 (CFMIP:1,CMIP:1), historical (CFMIP:1,CMIP:1,DAMIP:1,HighResMIP:1,DCPP:3,PAMIP:3), piControl (CFMIP:1,CMIP:1,DAMIP:1,HighResMIP:1,VolMIP:1)"
  }, 
  "mrsos": {
    "CMOR Name": "mrsos", 
    "CMOR Name, any freq": "mrsos", 
    "CCCma check": "Done. Seems this is already done? If not, add to optional deck!", 
    "CCCma hist file": "gs", 
    "CCCma hist var names": "WGL WGF", 
    "CCCma hist var frequency": "ISGG", 
    "CCCma TS var name": "WGFL", 
    "CCCma diag file": "dd", 
    "CCCma units": "kg m-2", 
    "CCCma optional deck": null, 
    "CCCma comment": null, 
    "CCCma NetCDF comment": null, 
    "CCCma target vertical grid": null, 
    "CCCma target horizontal grid": null, 
    "Include only for": null, 
    "Exclude for": null, 
    "long_name": "Moisture in Upper Portion of Soil Column", 
    "units": "kg m-2", 
    "description": "the mass of water in all phases in a thin surface soil layer.", 
    "comment": "The mass of water in all phases in the upper 10cm of the  soil layer.", 
    "out_name": "mrsos", 
    "standard_name": "mass_content_of_water_in_soil_layer", 
    "cell_methods": "area: mean where land time: mean", 
    "positive": null, 
    "type": "real", 
    "dimensions": "longitude latitude time sdepth1", 
    "modeling_realm": "land", 
    "frequency": "day", 
    "cell_measures": "area: areacella", 
    "valid_min": null, 
    "valid_max": null, 
    "ok_min_mean_abs": null, 
    "ok_max_mean_abs": null, 
    "priority": 1.0, 
    "MIPs (requesting)": "  CFMIP(1,1,1,1,1), CMIP(1,1,1,1,1), DAMIP(1,1), GMMIP(1), HighResMIP(1,1,1), VIACSAB(1,1,1,2,2,2), VolMIP(1)", 
    "experiments": "  abrupt-4xCO2 (CFMIP:1,CMIP:1), amip (CFMIP:1,CMIP:1,GMMIP:1,HighResMIP:1,VIACSAB:1,VIACSAB:2), 1pctCO2 (CFMIP:1,CMIP:1,VIACSAB:1), historical (CFMIP:1,CMIP:1,DAMIP:1,HighResMIP:1,VIACSAB:1,VIACSAB:2), piControl (CFMIP:1,CMIP:1,DAMIP:1,HighResMIP:1,VolMIP:1,VIACSAB:2)"
  }, 
  "pr": {
    "CMOR Name": "pr", 
    "CMOR Name, any freq": "pr", 
    "CCCma check": "Done.", 
    "CCCma hist file": "gs", 
    "CCCma hist var names": "PCP", 
    "CCCma hist var frequency": "ISRAD", 
    "CCCma TS var name": "PCP", 
    "CCCma diag file": "dd", 
    "CCCma units": "kg m-2 s-1", 
    "CCCma optional deck": null, 
    "CCCma comment": null, 
    "CCCma NetCDF comment": null, 
    "CCCma target vertical grid": null, 
    "CCCma target horizontal grid": null, 
    "Include only for": null, 
    "Exclude for": null, 
    "long_name": "Precipitation", 
    "units": "kg m-2 s-1", 
    "description": "at surface; includes both liquid and solid phases from all types of clouds (both large-scale and convective)", 
    "comment": "includes both liquid and solid phases", 
    "out_name": "pr", 
    "standard_name": "precipitation_flux", 
    "cell_methods": "area: time: mean", 
    "positive": null, 
    "type": "real", 
    "dimensions": "longitude latitude time", 
    "modeling_realm": "atmos", 
    "frequency": "day", 
    "cell_measures": "area: areacella", 
    "valid_min": null, 
    "valid_max": null, 
    "ok_min_mean_abs": null, 
    "ok_max_mean_abs": null, 
    "priority": 1.0, 
    "MIPs (requesting)": "  AerChemMIP(1,1), CFMIP(1,1,1,1,1), CMIP(1,1,1,1,1,1), CORDEX(1), DAMIP(1,1), DCPP(1), GeoMIP(1,1,1), GMMIP(1), HighResMIP(1,1,1), LUMIP(1), PAMIP(1), PMIP(1,1,1,1,1), VIACSAB(1,1,1,1,2,2,2), VolMIP(1)", 
    "experiments": "  abrupt-4xCO2 (CFMIP:1,CMIP:1,CMIP:1,GeoMIP:1,PMIP:1), amip (AerChemMIP:1,CFMIP:1,CMIP:1,GMMIP:1,HighResMIP:1,PMIP:1,VIACSAB:1,VIACSAB:2), 1pctCO2 (CFMIP:1,CMIP:1,PMIP:1,VIACSAB:1,VIACSAB:2), historical (AerChemMIP:1,CFMIP:1,CMIP:1,DAMIP:1,DCPP:1,GeoMIP:1,HighResMIP:1,LUMIP:1,PAMIP:1,PMIP:1,VIACSAB:1,VIACSAB:2), piControl (CFMIP:1,CMIP:1,CORDEX:1,DAMIP:1,GeoMIP:1,HighResMIP:1,PMIP:1,VIACSAB:1,VolMIP:1)"
  }, 
  "prc": {
    "CMOR Name": "prc", 
    "CMOR Name, any freq": "prc", 
    "CCCma check": "Done.", 
    "CCCma hist file": "gs", 
    "CCCma hist var names": "PCPC", 
    "CCCma hist var frequency": "ISRAD", 
    "CCCma TS var name": "PCPC", 
    "CCCma diag file": "dd", 
    "CCCma units": "kg m-2 s-1", 
    "CCCma optional deck": null, 
    "CCCma comment": "this includes shallow", 
    "CCCma NetCDF comment": null, 
    "CCCma target vertical grid": null, 
    "CCCma target horizontal grid": null, 
    "Include only for": null, 
    "Exclude for": null, 
    "long_name": "Convective Precipitation", 
    "units": "kg m-2 s-1", 
    "description": "at surface; includes both liquid and solid phases.", 
    "comment": "Convective precipitation at surface; includes both liquid and solid phases.", 
    "out_name": "prc", 
    "standard_name": "convective_precipitation_flux", 
    "cell_methods": "area: time: mean", 
    "positive": null, 
    "type": "real", 
    "dimensions": "longitude latitude time", 
    "modeling_realm": "atmos", 
    "frequency": "day", 
    "cell_measures": "area: areacella", 
    "valid_min": null, 
    "valid_max": null, 
    "ok_min_mean_abs": null, 
    "ok_max_mean_abs": null, 
    "priority": 1.0, 
    "MIPs (requesting)": "  CFMIP(1,1,1,1,1), CMIP(1,1,1), DAMIP(1,1), GeoMIP(1,1,1), HighResMIP(1,1,1), VIACSAB(1,1,1,2,2,2), VolMIP(1)", 
    "experiments": "  abrupt-4xCO2 (CFMIP:1,GeoMIP:1), amip (CFMIP:1,CMIP:1,HighResMIP:1,VIACSAB:1,VIACSAB:2), 1pctCO2 (CFMIP:1,VIACSAB:1), historical (CFMIP:1,CMIP:1,DAMIP:1,GeoMIP:1,HighResMIP:1,VIACSAB:1,VIACSAB:2), piControl (CFMIP:1,CMIP:1,DAMIP:1,GeoMIP:1,HighResMIP:1,VolMIP:1,VIACSAB:2)"
  }, 
  "prsn": {
    "CMOR Name": "prsn", 
    "CMOR Name, any freq": "prsn", 
    "CCCma check": "Done.", 
    "CCCma hist file": "gs", 
    "CCCma hist var names": "PCPN", 
    "CCCma hist var frequency": "ISRAD", 
    "CCCma TS var name": "PCPN", 
    "CCCma diag file": "dd", 
    "CCCma units": "kg m-2 s-1", 
    "CCCma optional deck": null, 
    "CCCma comment": null, 
    "CCCma NetCDF comment": null, 
    "CCCma target vertical grid": null, 
    "CCCma target horizontal grid": null, 
    "Include only for": null, 
    "Exclude for": null, 
    "long_name": "Snowfall Flux", 
    "units": "kg m-2 s-1", 
    "description": "at surface; includes precipitation of all forms of water in the solid phase", 
    "comment": "At surface; includes precipitation of all forms of water in the solid phase", 
    "out_name": "prsn", 
    "standard_name": "snowfall_flux", 
    "cell_methods": "area: time: mean", 
    "positive": null, 
    "type": "real", 
    "dimensions": "longitude latitude time", 
    "modeling_realm": "atmos", 
    "frequency": "day", 
    "cell_measures": "area: areacella", 
    "valid_min": null, 
    "valid_max": null, 
    "ok_min_mean_abs": null, 
    "ok_max_mean_abs": null, 
    "priority": 1.0, 
    "MIPs (requesting)": "  CFMIP(1,1,1,1,1), CMIP(1,1,1), DAMIP(1,1), DCPP(3), HighResMIP(1,1,1), PAMIP(3), VIACSAB(1,1,1,2,2,2), VolMIP(1)", 
    "experiments": "  abrupt-4xCO2 (CFMIP:1), amip (CFMIP:1,CMIP:1,HighResMIP:1,VIACSAB:1,VIACSAB:2), 1pctCO2 (CFMIP:1,VIACSAB:1), historical (CFMIP:1,CMIP:1,DAMIP:1,HighResMIP:1,VIACSAB:1,VIACSAB:2,DCPP:3,PAMIP:3), piControl (CFMIP:1,CMIP:1,DAMIP:1,HighResMIP:1,VolMIP:1,VIACSAB:2)"
  }, 
  "psl": {
    "CMOR Name": "psl", 
    "CMOR Name, any freq": "psl", 
    "CCCma check": "Done. ", 
    "CCCma hist file": "ss", 
    "CCCma hist var names": "LNSP PHIS TEMP", 
    "CCCma hist var frequency": "Spectral at ISSP", 
    "CCCma TS var name": "PMSL", 
    "CCCma diag file": "dd", 
    "CCCma units": "mb", 
    "CCCma optional deck": "mltby100", 
    "CCCma comment": "PMSL*100", 
    "CCCma NetCDF comment": null, 
    "CCCma target vertical grid": null, 
    "CCCma target horizontal grid": null, 
    "Include only for": null, 
    "Exclude for": null, 
    "long_name": "Sea Level Pressure", 
    "units": "Pa", 
    "description": "Sea Level Pressure", 
    "comment": "Sea Level Pressure", 
    "out_name": "psl", 
    "standard_name": "air_pressure_at_mean_sea_level", 
    "cell_methods": "area: time: mean", 
    "positive": null, 
    "type": "real", 
    "dimensions": "longitude latitude time", 
    "modeling_realm": "atmos", 
    "frequency": "day", 
    "cell_measures": "area: areacella", 
    "valid_min": null, 
    "valid_max": null, 
    "ok_min_mean_abs": null, 
    "ok_max_mean_abs": null, 
    "priority": 1.0, 
    "MIPs (requesting)": "  CFMIP(1,1,1,1,1), CMIP(1,1,1,1,1), CORDEX(1), DAMIP(1,1,1,1), DCPP(1), GMMIP(1), HighResMIP(1,1,1), PAMIP(1), VIACSAB(1,1,1,2,2,2), VolMIP(1)", 
    "experiments": "  abrupt-4xCO2 (CFMIP:1,CMIP:1), amip (CFMIP:1,CMIP:1,GMMIP:1,HighResMIP:1,VIACSAB:1,VIACSAB:2), 1pctCO2 (CFMIP:1,CMIP:1,VIACSAB:2), historical (CFMIP:1,CMIP:1,DAMIP:1,DAMIP:1,DCPP:1,HighResMIP:1,PAMIP:1,VIACSAB:1,VIACSAB:2), piControl (CFMIP:1,CMIP:1,CORDEX:1,DAMIP:1,DAMIP:1,HighResMIP:1,VIACSAB:1,VolMIP:1)"
  }, 
  "rlds": {
    "CMOR Name": "rlds", 
    "CMOR Name, any freq": "rlds", 
    "CCCma check": "Done.", 
    "CCCma hist file": "gs", 
    "CCCma hist var names": "FDL", 
    "CCCma hist var frequency": "ISRAD", 
    "CCCma TS var name": "FDL", 
    "CCCma diag file": "dd", 
    "CCCma units": "kg m-2 s-1", 
    "CCCma optional deck": null, 
    "CCCma comment": null, 
    "CCCma NetCDF comment": null, 
    "CCCma target vertical grid": null, 
    "CCCma target horizontal grid": null, 
    "Include only for": null, 
    "Exclude for": null, 
    "long_name": "Surface Downwelling Longwave Radiation", 
    "units": "W m-2", 
    "description": "The surface called \"surface\" means the lower boundary of the atmosphere. \"longwave\" means longwave radiation. Downwelling radiation is radiation from above. It does not mean \"net downward\". When thought of as being incident on a surface, a radiative flux is sometimes called \"irradiance\". In addition, it is identical with the quantity measured by a cosine-collector light-meter and sometimes called \"vector irradiance\". In accordance with common usage in geophysical disciplines, \"flux\" implies per unit area, called \"flux density\" in physics.", 
    "comment": "The surface called \"surface\" means the lower boundary of the atmosphere. \"longwave\" means longwave radiation. Downwelling radiation is radiation from above. It does not mean \"net downward\". When thought of as being incident on a surface, a radiative flux is sometimes called \"irradiance\". In addition, it is identical with the quantity measured by a cosine-collector light-meter and sometimes called \"vector irradiance\". In accordance with common usage in geophysical disciplines, \"flux\" implies per unit area, called \"flux density\" in physics.", 
    "out_name": "rlds", 
    "standard_name": "surface_downwelling_longwave_flux_in_air", 
    "cell_methods": "area: time: mean", 
    "positive": "down", 
    "type": "real", 
    "dimensions": "longitude latitude time", 
    "modeling_realm": "atmos", 
    "frequency": "day", 
    "cell_measures": "area: areacella", 
    "valid_min": null, 
    "valid_max": null, 
    "ok_min_mean_abs": null, 
    "ok_max_mean_abs": null, 
    "priority": 1.0, 
    "MIPs (requesting)": "  AerChemMIP(1,1), CFMIP(1,1,1,1,1), CMIP(1,1,1), DAMIP(1,1), DCPP(3), HighResMIP(1,1,1), PAMIP(3), VIACSAB(1,1,1,1,2), VolMIP(1)", 
    "experiments": "  abrupt-4xCO2 (CFMIP:1), amip (AerChemMIP:1,CFMIP:1,CMIP:1,HighResMIP:1,VIACSAB:1), 1pctCO2 (CFMIP:1,VIACSAB:1), historical (AerChemMIP:1,CFMIP:1,CMIP:1,DAMIP:1,HighResMIP:1,VIACSAB:1,VIACSAB:2,DCPP:3,PAMIP:3), piControl (CFMIP:1,CMIP:1,DAMIP:1,HighResMIP:1,VIACSAB:1,VolMIP:1)"
  }, 
  "rls": {
    "CMOR Name": "rls", 
    "CMOR Name, any freq": "rls", 
    "CCCma check": "Done.", 
    "CCCma hist file": "gs", 
    "CCCma hist var names": "FLG", 
    "CCCma hist var frequency": "ISRAD", 
    "CCCma TS var name": "FLG", 
    "CCCma diag file": "dd", 
    "CCCma units": "W m-2", 
    "CCCma optional deck": null, 
    "CCCma comment": null, 
    "CCCma NetCDF comment": null, 
    "CCCma target vertical grid": null, 
    "CCCma target horizontal grid": null, 
    "Include only for": null, 
    "Exclude for": null, 
    "long_name": "Net Longwave Surface Radiation", 
    "units": "W m-2", 
    "description": "Net longwave radiation", 
    "comment": "Net longwave surface radiation", 
    "out_name": "rls", 
    "standard_name": "surface_net_downward_longwave_flux", 
    "cell_methods": "area: time: mean", 
    "positive": "down", 
    "type": "real", 
    "dimensions": "longitude latitude time", 
    "modeling_realm": "atmos", 
    "frequency": "day", 
    "cell_measures": "area: areacella", 
    "valid_min": null, 
    "valid_max": null, 
    "ok_min_mean_abs": null, 
    "ok_max_mean_abs": null, 
    "priority": 3.0, 
    "MIPs (requesting)": "  DCPP(3), PAMIP(3)", 
    "experiments": "  historical (DCPP:3,PAMIP:3)"
  }, 
  "rlus": {
    "CMOR Name": "rlus", 
    "CMOR Name, any freq": "rlus", 
    "CCCma check": "Done.", 
    "CCCma hist file": "gs", 
    "CCCma hist var names": "FDL FLG", 
    "CCCma hist var frequency": "ISRAD", 
    "CCCma TS var name": "FDL FLG", 
    "CCCma diag file": "dd", 
    "CCCma units": "kg m-2 s-1", 
    "CCCma optional deck": "subtract", 
    "CCCma comment": null, 
    "CCCma NetCDF comment": null, 
    "CCCma target vertical grid": null, 
    "CCCma target horizontal grid": null, 
    "Include only for": null, 
    "Exclude for": null, 
    "long_name": "Surface Upwelling Longwave Radiation", 
    "units": "W m-2", 
    "description": "The surface called \"surface\" means the lower boundary of the atmosphere. \"longwave\" means longwave radiation. Upwelling radiation is radiation from below. It does not mean \"net upward\". When thought of as being incident on a surface, a radiative flux is sometimes called \"irradiance\". In addition, it is identical with the quantity measured by a cosine-collector light-meter and sometimes called \"vector irradiance\". In accordance with common usage in geophysical disciplines, \"flux\" implies per unit area, called \"flux density\" in physics.", 
    "comment": "The surface called \"surface\" means the lower boundary of the atmosphere. \"longwave\" means longwave radiation. Upwelling radiation is radiation from below. It does not mean \"net upward\". When thought of as being incident on a surface, a radiative flux is sometimes called \"irradiance\". In addition, it is identical with the quantity measured by a cosine-collector light-meter and sometimes called \"vector irradiance\". In accordance with common usage in geophysical disciplines, \"flux\" implies per unit area, called \"flux density\" in physics.", 
    "out_name": "rlus", 
    "standard_name": "surface_upwelling_longwave_flux_in_air", 
    "cell_methods": "area: time: mean", 
    "positive": "up", 
    "type": "real", 
    "dimensions": "longitude latitude time", 
    "modeling_realm": "atmos", 
    "frequency": "day", 
    "cell_measures": "area: areacella", 
    "valid_min": null, 
    "valid_max": null, 
    "ok_min_mean_abs": null, 
    "ok_max_mean_abs": null, 
    "priority": 1.0, 
    "MIPs (requesting)": "  AerChemMIP(1,1), CFMIP(1,1,1,1,1), CMIP(1,1,1), DAMIP(1,1), HighResMIP(1,1,1), VIACSAB(1,1,1,1,2), VolMIP(1)", 
    "experiments": "  abrupt-4xCO2 (CFMIP:1), amip (AerChemMIP:1,CFMIP:1,CMIP:1,HighResMIP:1,VIACSAB:1), 1pctCO2 (CFMIP:1,VIACSAB:1), historical (AerChemMIP:1,CFMIP:1,CMIP:1,DAMIP:1,HighResMIP:1,VIACSAB:1,VIACSAB:2), piControl (CFMIP:1,CMIP:1,DAMIP:1,HighResMIP:1,VIACSAB:1,VolMIP:1)"
  }, 
  "rlut": {
    "CMOR Name": "rlut", 
    "CMOR Name, any freq": "rlut", 
    "CCCma check": "Done. NOTE change needed in post-processing deck and comments for old way!", 
    "CCCma hist file": "gs", 
    "CCCma hist var names": "OLR", 
    "CCCma hist var frequency": "ISRAD", 
    "CCCma TS var name": "OLR", 
    "CCCma diag file": "dd", 
    "CCCma units": "kg m-2 s-1", 
    "CCCma optional deck": null, 
    "CCCma comment": null, 
    "CCCma NetCDF comment": null, 
    "CCCma target vertical grid": null, 
    "CCCma target horizontal grid": null, 
    "Include only for": null, 
    "Exclude for": null, 
    "long_name": "TOA Outgoing Longwave Radiation", 
    "units": "W m-2", 
    "description": "at the top of the atmosphere.", 
    "comment": "at the top of the atmosphere (to be compared with satellite measurements)", 
    "out_name": "rlut", 
    "standard_name": "toa_outgoing_longwave_flux", 
    "cell_methods": "area: time: mean", 
    "positive": "up", 
    "type": "real", 
    "dimensions": "longitude latitude time", 
    "modeling_realm": "atmos", 
    "frequency": "day", 
    "cell_measures": "area: areacella", 
    "valid_min": null, 
    "valid_max": null, 
    "ok_min_mean_abs": null, 
    "ok_max_mean_abs": null, 
    "priority": 1.0, 
    "MIPs (requesting)": "  CFMIP(1,1,1,1,1), CMIP(1,1,1,1,1,1,1,1), DAMIP(1,1), DCPP(3), HighResMIP(1,1,1), PAMIP(3), VIACSAB(1,1,1), VolMIP(1)", 
    "experiments": "  abrupt-4xCO2 (CFMIP:1,CMIP:1,CMIP:1), amip (CFMIP:1,CMIP:1,HighResMIP:1,VIACSAB:1), 1pctCO2 (CFMIP:1,CMIP:1), historical (CFMIP:1,CMIP:1,CMIP:1,DAMIP:1,HighResMIP:1,VIACSAB:1,DCPP:3,PAMIP:3), piControl (CFMIP:1,CMIP:1,CMIP:1,DAMIP:1,HighResMIP:1,VIACSAB:1,VolMIP:1)"
  }, 
  "rsds": {
    "CMOR Name": "rsds", 
    "CMOR Name, any freq": "rsds", 
    "CCCma check": "Done.", 
    "CCCma hist file": "gs", 
    "CCCma hist var names": "FSS", 
    "CCCma hist var frequency": "ISRAD", 
    "CCCma TS var name": "FSS", 
    "CCCma diag file": "dd", 
    "CCCma units": "W m-2", 
    "CCCma optional deck": null, 
    "CCCma comment": null, 
    "CCCma NetCDF comment": null, 
    "CCCma target vertical grid": null, 
    "CCCma target horizontal grid": null, 
    "Include only for": null, 
    "Exclude for": null, 
    "long_name": "Surface Downwelling Shortwave Radiation", 
    "units": "W m-2", 
    "description": "Surface solar irradiance for UV calculations.", 
    "comment": "Surface solar irradiance for UV calculations.", 
    "out_name": "rsds", 
    "standard_name": "surface_downwelling_shortwave_flux_in_air", 
    "cell_methods": "area: time: mean", 
    "positive": "down", 
    "type": "real", 
    "dimensions": "longitude latitude time", 
    "modeling_realm": "atmos", 
    "frequency": "day", 
    "cell_measures": "area: areacella", 
    "valid_min": null, 
    "valid_max": null, 
    "ok_min_mean_abs": null, 
    "ok_max_mean_abs": null, 
    "priority": 1.0, 
    "MIPs (requesting)": "  AerChemMIP(1,1), CFMIP(1,1,1,1,1), CMIP(1,1,1), DAMIP(1,1), DCPP(1), HighResMIP(1,1,1), PAMIP(1), VIACSAB(1,1,1,1,2), VolMIP(1)", 
    "experiments": "  abrupt-4xCO2 (CFMIP:1), amip (AerChemMIP:1,CFMIP:1,CMIP:1,HighResMIP:1,VIACSAB:1), 1pctCO2 (CFMIP:1,VIACSAB:1), historical (AerChemMIP:1,CFMIP:1,CMIP:1,DAMIP:1,DCPP:1,HighResMIP:1,PAMIP:1,VIACSAB:1,VIACSAB:2), piControl (CFMIP:1,CMIP:1,DAMIP:1,HighResMIP:1,VIACSAB:1,VolMIP:1)"
  }, 
  "rss": {
    "CMOR Name": "rss", 
    "CMOR Name, any freq": "rss", 
    "CCCma check": "Done.", 
    "CCCma hist file": "gs", 
    "CCCma hist var names": "FSG", 
    "CCCma hist var frequency": "ISRAD", 
    "CCCma TS var name": "FSG", 
    "CCCma diag file": "dd", 
    "CCCma units": "W m-2", 
    "CCCma optional deck": null, 
    "CCCma comment": null, 
    "CCCma NetCDF comment": null, 
    "CCCma target vertical grid": null, 
    "CCCma target horizontal grid": null, 
    "Include only for": null, 
    "Exclude for": null, 
    "long_name": "Net Shortwave Surface Radiation", 
    "units": "W m-2", 
    "description": "Net shortwave radiation", 
    "comment": "Net downward shortwave radiation at the surface", 
    "out_name": "rss", 
    "standard_name": "surface_net_downward_shortwave_flux", 
    "cell_methods": "area: time: mean", 
    "positive": "down", 
    "type": "real", 
    "dimensions": "longitude latitude time", 
    "modeling_realm": "atmos", 
    "frequency": "day", 
    "cell_measures": "area: areacella", 
    "valid_min": null, 
    "valid_max": null, 
    "ok_min_mean_abs": null, 
    "ok_max_mean_abs": null, 
    "priority": 3.0, 
    "MIPs (requesting)": "  DCPP(3), PAMIP(3)", 
    "experiments": "  historical (DCPP:3,PAMIP:3)"
  }, 
  "rsus": {
    "CMOR Name": "rsus", 
    "CMOR Name, any freq": "rsus", 
    "CCCma check": "Done.", 
    "CCCma hist file": "gs", 
    "CCCma hist var names": "FSS FSG", 
    "CCCma hist var frequency": "ISRAD", 
    "CCCma TS var name": "FSS FSG", 
    "CCCma diag file": "dd", 
    "CCCma units": "W m-2", 
    "CCCma optional deck": "subtract", 
    "CCCma comment": null, 
    "CCCma NetCDF comment": null, 
    "CCCma target vertical grid": null, 
    "CCCma target horizontal grid": null, 
    "Include only for": null, 
    "Exclude for": null, 
    "long_name": "Surface Upwelling Shortwave Radiation", 
    "units": "W m-2", 
    "description": "The surface called \"surface\" means the lower boundary of the atmosphere. \"shortwave\" means shortwave radiation. Upwelling radiation is radiation from below. It does not mean \"net upward\". When thought of as being incident on a surface, a radiative flux is sometimes called \"irradiance\". In addition, it is identical with the quantity measured by a cosine-collector light-meter and sometimes called \"vector irradiance\". In accordance with common usage in geophysical disciplines, \"flux\" implies per unit area, called \"flux density\" in physics.", 
    "comment": "The surface called \"surface\" means the lower boundary of the atmosphere. \"shortwave\" means shortwave radiation. Upwelling radiation is radiation from below. It does not mean \"net upward\". When thought of as being incident on a surface, a radiative flux is sometimes called \"irradiance\". In addition, it is identical with the quantity measured by a cosine-collector light-meter and sometimes called \"vector irradiance\". In accordance with common usage in geophysical disciplines, \"flux\" implies per unit area, called \"flux density\" in physics.", 
    "out_name": "rsus", 
    "standard_name": "surface_upwelling_shortwave_flux_in_air", 
    "cell_methods": "area: time: mean", 
    "positive": "up", 
    "type": "real", 
    "dimensions": "longitude latitude time", 
    "modeling_realm": "atmos", 
    "frequency": "day", 
    "cell_measures": "area: areacella", 
    "valid_min": null, 
    "valid_max": null, 
    "ok_min_mean_abs": null, 
    "ok_max_mean_abs": null, 
    "priority": 1.0, 
    "MIPs (requesting)": "  CFMIP(1,1,1,1,1), CMIP(1,1,1), DAMIP(1,1), HighResMIP(1,1,1), VIACSAB(1,1,1,1,2), VolMIP(1)", 
    "experiments": "  abrupt-4xCO2 (CFMIP:1), amip (CFMIP:1,CMIP:1,HighResMIP:1,VIACSAB:1), 1pctCO2 (CFMIP:1,VIACSAB:1), historical (CFMIP:1,CMIP:1,DAMIP:1,HighResMIP:1,VIACSAB:1,VIACSAB:2), piControl (CFMIP:1,CMIP:1,DAMIP:1,HighResMIP:1,VIACSAB:1,VolMIP:1)"
  }, 
  "sfcWind": {
    "CMOR Name": "sfcWind", 
    "CMOR Name, any freq": "sfcWind", 
    "CCCma check": "Done.", 
    "CCCma hist file": "gs", 
    "CCCma hist var names": "SWA", 
    "CCCma hist var frequency": "ISRAD", 
    "CCCma TS var name": "SWA", 
    "CCCma diag file": "dd", 
    "CCCma units": "m s-1", 
    "CCCma optional deck": null, 
    "CCCma comment": null, 
    "CCCma NetCDF comment": null, 
    "CCCma target vertical grid": null, 
    "CCCma target horizontal grid": null, 
    "Include only for": null, 
    "Exclude for": null, 
    "long_name": "Daily-Mean Near-Surface Wind Speed", 
    "units": "m s-1", 
    "description": "near-surface (usually, 10 meters) wind speed.", 
    "comment": "near-surface (usually, 10 meters) wind speed.", 
    "out_name": "sfcWind", 
    "standard_name": "wind_speed", 
    "cell_methods": "area: time: mean", 
    "positive": null, 
    "type": "real", 
    "dimensions": "longitude latitude time height10m", 
    "modeling_realm": "atmos", 
    "frequency": "day", 
    "cell_measures": "area: areacella", 
    "valid_min": null, 
    "valid_max": null, 
    "ok_min_mean_abs": null, 
    "ok_max_mean_abs": null, 
    "priority": 1.0, 
    "MIPs (requesting)": "  CFMIP(1,1,1,1,1), CMIP(1,1,1,1,1), DAMIP(1,1), GMMIP(1), HighResMIP(1,1,1), VIACSAB(1,1,1,2,2,2,2), VolMIP(1)", 
    "experiments": "  abrupt-4xCO2 (CFMIP:1,CMIP:1), amip (CFMIP:1,CMIP:1,GMMIP:1,HighResMIP:1,VIACSAB:1,VIACSAB:2), 1pctCO2 (CFMIP:1,CMIP:1,VIACSAB:1,VIACSAB:2), historical (CFMIP:1,CMIP:1,DAMIP:1,HighResMIP:1,VIACSAB:1,VIACSAB:2), piControl (CFMIP:1,CMIP:1,DAMIP:1,HighResMIP:1,VolMIP:1,VIACSAB:2)"
  }, 
  "sfcWindmax": {
    "CMOR Name": "sfcWindmax", 
    "CMOR Name, any freq": "sfcWindmax", 
    "CCCma check": "Done.", 
    "CCCma hist file": "gs", 
    "CCCma hist var names": "SWX", 
    "CCCma hist var frequency": "ISRAD", 
    "CCCma TS var name": "SWX", 
    "CCCma diag file": "dd", 
    "CCCma units": "m s-1", 
    "CCCma optional deck": null, 
    "CCCma comment": "we also now have SWXU and SWXV", 
    "CCCma NetCDF comment": null, 
    "CCCma target vertical grid": null, 
    "CCCma target horizontal grid": null, 
    "Include only for": null, 
    "Exclude for": null, 
    "long_name": "Daily Maximum Near-Surface Wind Speed", 
    "units": "m s-1", 
    "description": "Daily maximum near-surface (usually, 10 meters) wind speed.", 
    "comment": "Daily maximum near-surface (usually, 10 meters) wind speed.", 
    "out_name": "sfcWindmax", 
    "standard_name": "wind_speed", 
    "cell_methods": "area: mean time: maximum", 
    "positive": null, 
    "type": "real", 
    "dimensions": "longitude latitude time height10m", 
    "modeling_realm": "atmos", 
    "frequency": "day", 
    "cell_measures": "area: areacella", 
    "valid_min": null, 
    "valid_max": null, 
    "ok_min_mean_abs": null, 
    "ok_max_mean_abs": null, 
    "priority": 1.0, 
    "MIPs (requesting)": "  CFMIP(1,1,1,1,1), CMIP(1,1,1), DAMIP(1,1), DCPP(1), HighResMIP(1,1,1), PAMIP(1), PMIP(1,1,1,1,1), VIACSAB(1,1,1,1), VolMIP(1)", 
    "experiments": "  abrupt-4xCO2 (CFMIP:1,PMIP:1), amip (CFMIP:1,CMIP:1,HighResMIP:1,PMIP:1,VIACSAB:1), 1pctCO2 (CFMIP:1,PMIP:1,VIACSAB:1), historical (CFMIP:1,CMIP:1,DAMIP:1,DCPP:1,HighResMIP:1,PAMIP:1,PMIP:1,VIACSAB:1), piControl (CFMIP:1,CMIP:1,DAMIP:1,HighResMIP:1,PMIP:1,VIACSAB:1,VolMIP:1)"
  }, 
  "snc": {
    "CMOR Name": "snc", 
    "CMOR Name, any freq": "snc", 
    "CCCma check": "Done.", 
    "CCCma hist file": "gs", 
    "CCCma hist var names": "FNLA", 
    "CCCma hist var frequency": "ISRAD", 
    "CCCma TS var name": "FNLA", 
    "CCCma diag file": "dd", 
    "CCCma units": "-", 
    "CCCma optional deck": "mltby100", 
    "CCCma comment": "FNT(1)*FARE(1)*100, binning 4  ISGG saves  to one daily average save.", 
    "CCCma NetCDF comment": null, 
    "CCCma target vertical grid": null, 
    "CCCma target horizontal grid": null, 
    "Include only for": null, 
    "Exclude for": null, 
    "long_name": "Snow Area Percentage", 
    "units": "%", 
    "description": "Percentage of each grid cell that is occupied by snow that rests on land portion of cell.", 
    "comment": "Percentage of each grid cell that is occupied by snow that rests on land portion of cell.", 
    "out_name": "snc", 
    "standard_name": "surface_snow_area_fraction", 
    "cell_methods": "area: time: mean", 
    "positive": null, 
    "type": "real", 
    "dimensions": "longitude latitude time", 
    "modeling_realm": "landIce land", 
    "frequency": "day", 
    "cell_measures": "area: areacella", 
    "valid_min": null, 
    "valid_max": null, 
    "ok_min_mean_abs": null, 
    "ok_max_mean_abs": null, 
    "priority": 1.0, 
    "MIPs (requesting)": "  CFMIP(1,1,1,1,1), CMIP(1,1,1,1,1,1,1,1), DAMIP(1,1), HighResMIP(1,1,1), VIACSAB(1,1,2,2,2), VolMIP(1)", 
    "experiments": "  abrupt-4xCO2 (CFMIP:1,CMIP:1,CMIP:1), amip (CFMIP:1,CMIP:1,HighResMIP:1,VIACSAB:1,VIACSAB:2), 1pctCO2 (CFMIP:1,CMIP:1), historical (CFMIP:1,CMIP:1,CMIP:1,DAMIP:1,HighResMIP:1,VIACSAB:1,VIACSAB:2), piControl (CFMIP:1,CMIP:1,CMIP:1,DAMIP:1,HighResMIP:1,VolMIP:1,VIACSAB:2)"
  }, 
  "snw": {
    "CMOR Name": "snw", 
    "CMOR Name, any freq": "snw", 
    "CCCma check": "Note that they ask for \"missing\" flag, so would have to be done post-processed! Our saved SNOT for land does not include canopy (Paul B confirmed), so this should be OK.", 
    "CCCma hist file": "gs", 
    "CCCma hist var names": "SNOT", 
    "CCCma hist var frequency": "ISGG", 
    "CCCma TS var name": "SNW", 
    "CCCma diag file": "dd", 
    "CCCma units": "kg m-2", 
    "CCCma optional deck": "bindtwo", 
    "CCCma comment": "SNOT(1), binning 4 ISGG saves to one daily save.", 
    "CCCma NetCDF comment": null, 
    "CCCma target vertical grid": null, 
    "CCCma target horizontal grid": null, 
    "Include only for": null, 
    "Exclude for": null, 
    "long_name": "Surface Snow Amount", 
    "units": "kg m-2", 
    "description": "the mass of surface snow on the land portion of the grid cell divided by the land area in the grid cell; reported as missing where the land fraction is 0; excludes snow on vegetation canopy or on sea ice.", 
    "comment": "The mass of surface snow on the land portion of the grid cell divided by the land area in the grid cell; reported as missing where the land fraction is 0; excludes snow on vegetation canopy or on sea ice.", 
    "out_name": "snw", 
    "standard_name": "surface_snow_amount", 
    "cell_methods": "area: mean where land time: mean", 
    "positive": null, 
    "type": "real", 
    "dimensions": "longitude latitude time", 
    "modeling_realm": "landIce land", 
    "frequency": "day", 
    "cell_measures": "area: areacella", 
    "valid_min": null, 
    "valid_max": null, 
    "ok_min_mean_abs": null, 
    "ok_max_mean_abs": null, 
    "priority": 1.0, 
    "MIPs (requesting)": "  CFMIP(1,1,1,1,1), CMIP(1,1,1), DAMIP(1,1), HighResMIP(1,1,1), VIACSAB(1,1,1), VolMIP(1)", 
    "experiments": "  abrupt-4xCO2 (CFMIP:1), amip (CFMIP:1,CMIP:1,HighResMIP:1,VIACSAB:1), 1pctCO2 (CFMIP:1,VIACSAB:1), historical (CFMIP:1,CMIP:1,DAMIP:1,HighResMIP:1,VIACSAB:1), piControl (CFMIP:1,CMIP:1,DAMIP:1,HighResMIP:1,VolMIP:1)"
  }, 
  "ta": {
    "CMOR Name": "ta", 
    "CMOR Name, any freq": "ta", 
    "CCCma check": "Done.", 
    "CCCma hist file": "ss", 
    "CCCma hist var names": "TEMP", 
    "CCCma hist var frequency": "Spectral at ISSP", 
    "CCCma TS var name": "TEMP", 
    "CCCma diag file": "dp", 
    "CCCma units": "K", 
    "CCCma optional deck": null, 
    "CCCma comment": "Bin 4 saves to one daily save.", 
    "CCCma NetCDF comment": null, 
    "CCCma target vertical grid": null, 
    "CCCma target horizontal grid": null, 
    "Include only for": null, 
    "Exclude for": null, 
    "long_name": "Air Temperature", 
    "units": "K", 
    "description": "Air Temperature", 
    "comment": "Air Temperature", 
    "out_name": "ta", 
    "standard_name": "air_temperature", 
    "cell_methods": "time: mean", 
    "positive": null, 
    "type": "real", 
    "dimensions": "longitude latitude plev8 time", 
    "modeling_realm": "atmos", 
    "frequency": "day", 
    "cell_measures": "area: areacella", 
    "valid_min": null, 
    "valid_max": null, 
    "ok_min_mean_abs": null, 
    "ok_max_mean_abs": null, 
    "priority": 1.0, 
    "MIPs (requesting)": "  CFMIP(1,1,1,1,1), CMIP(1,1,1), CORDEX(1), DAMIP(1,1), HighResMIP(1,1,1), VIACSAB(1,1,1,2,2,2), VolMIP(1)", 
    "experiments": "  abrupt-4xCO2 (CFMIP:1), amip (CFMIP:1,CMIP:1,HighResMIP:1,VIACSAB:1,VIACSAB:2), 1pctCO2 (CFMIP:1,VIACSAB:1), historical (CFMIP:1,CMIP:1,DAMIP:1,HighResMIP:1,VIACSAB:1,VIACSAB:2), piControl (CFMIP:1,CMIP:1,CORDEX:1,DAMIP:1,HighResMIP:1,VolMIP:1,VIACSAB:2)"
  }, 
  "tas": {
    "CMOR Name": "tas", 
    "CMOR Name, any freq": "tas", 
    "CCCma check": "Done.", 
    "CCCma hist file": "gs", 
    "CCCma hist var names": "ST", 
    "CCCma hist var frequency": "ISRAD", 
    "CCCma TS var name": "ST", 
    "CCCma diag file": "dd", 
    "CCCma units": "K", 
    "CCCma optional deck": null, 
    "CCCma comment": null, 
    "CCCma NetCDF comment": null, 
    "CCCma target vertical grid": null, 
    "CCCma target horizontal grid": null, 
    "Include only for": null, 
    "Exclude for": null, 
    "long_name": "Near-Surface Air Temperature", 
    "units": "K", 
    "description": "near-surface (usually, 2 meter) air temperature", 
    "comment": "near-surface (usually, 2 meter) air temperature", 
    "out_name": "tas", 
    "standard_name": "air_temperature", 
    "cell_methods": "area: time: mean", 
    "positive": null, 
    "type": "real", 
    "dimensions": "longitude latitude time height2m", 
    "modeling_realm": "atmos", 
    "frequency": "day", 
    "cell_measures": "area: areacella", 
    "valid_min": null, 
    "valid_max": null, 
    "ok_min_mean_abs": null, 
    "ok_max_mean_abs": null, 
    "priority": 1.0, 
    "MIPs (requesting)": "  AerChemMIP(1,1), CFMIP(1,1,1,1,1), CMIP(1,1,1,1,1,1), CORDEX(1), DAMIP(1,1), DCPP(1), GMMIP(1), HighResMIP(1,1,1), PAMIP(1), PMIP(1,1,1,1,1), VIACSAB(1,1,1,1,2,2,2), VolMIP(1)", 
    "experiments": "  abrupt-4xCO2 (CFMIP:1,CMIP:1,CMIP:1,PMIP:1), amip (AerChemMIP:1,CFMIP:1,CMIP:1,GMMIP:1,HighResMIP:1,PMIP:1,VIACSAB:1,VIACSAB:2), 1pctCO2 (CFMIP:1,CMIP:1,PMIP:1,VIACSAB:1,VIACSAB:2), historical (AerChemMIP:1,CFMIP:1,CMIP:1,DAMIP:1,DCPP:1,HighResMIP:1,PAMIP:1,PMIP:1,VIACSAB:1,VIACSAB:2), piControl (CFMIP:1,CMIP:1,CORDEX:1,DAMIP:1,HighResMIP:1,PMIP:1,VIACSAB:1,VolMIP:1)"
  }, 
  "tasmax": {
    "CMOR Name": "tasmax", 
    "CMOR Name, any freq": "tasmax", 
    "CCCma check": "Done.", 
    "CCCma hist file": "gs", 
    "CCCma hist var names": "STMX", 
    "CCCma hist var frequency": "ISRAD", 
    "CCCma TS var name": "STMX", 
    "CCCma diag file": "dd", 
    "CCCma units": "K", 
    "CCCma optional deck": null, 
    "CCCma comment": null, 
    "CCCma NetCDF comment": null, 
    "CCCma target vertical grid": null, 
    "CCCma target horizontal grid": null, 
    "Include only for": null, 
    "Exclude for": null, 
    "long_name": "Daily Maximum Near-Surface Air Temperature", 
    "units": "K", 
    "description": "maximum near-surface (usually, 2 meter) air temperature (add cell_method attribute \"time: max\")", 
    "comment": "maximum near-surface (usually, 2 meter) air temperature (add cell_method attribute \"time: max\")", 
    "out_name": "tasmax", 
    "standard_name": "air_temperature", 
    "cell_methods": "area: mean time: maximum", 
    "positive": null, 
    "type": "real", 
    "dimensions": "longitude latitude time height2m", 
    "modeling_realm": "atmos", 
    "frequency": "day", 
    "cell_measures": "area: areacella", 
    "valid_min": null, 
    "valid_max": null, 
    "ok_min_mean_abs": null, 
    "ok_max_mean_abs": null, 
    "priority": 1.0, 
    "MIPs (requesting)": "  AerChemMIP(1,1), CFMIP(1,1,1,1,1), CMIP(1,1,1,1,1,1), CORDEX(1), DAMIP(1,1), DCPP(1), GeoMIP(1,1,1), GMMIP(1), HighResMIP(1,1,1), LUMIP(1), PAMIP(1), PMIP(1,1,1,1,1), VIACSAB(1,1,1,1,2,2,2), VolMIP(1)", 
    "experiments": "  abrupt-4xCO2 (CFMIP:1,CMIP:1,CMIP:1,GeoMIP:1,PMIP:1), amip (AerChemMIP:1,CFMIP:1,CMIP:1,GMMIP:1,HighResMIP:1,PMIP:1,VIACSAB:1,VIACSAB:2), 1pctCO2 (CFMIP:1,CMIP:1,PMIP:1,VIACSAB:1,VIACSAB:2), historical (AerChemMIP:1,CFMIP:1,CMIP:1,DAMIP:1,DCPP:1,GeoMIP:1,HighResMIP:1,LUMIP:1,PAMIP:1,PMIP:1,VIACSAB:1,VIACSAB:2), piControl (CFMIP:1,CMIP:1,CORDEX:1,DAMIP:1,GeoMIP:1,HighResMIP:1,PMIP:1,VIACSAB:1,VolMIP:1)"
  }, 
  "tasmin": {
    "CMOR Name": "tasmin", 
    "CMOR Name, any freq": "tasmin", 
    "CCCma check": "Done.", 
    "CCCma hist file": "gs", 
    "CCCma hist var names": "STMN", 
    "CCCma hist var frequency": "ISRAD", 
    "CCCma TS var name": "STMN", 
    "CCCma diag file": "dd", 
    "CCCma units": "K", 
    "CCCma optional deck": null, 
    "CCCma comment": null, 
    "CCCma NetCDF comment": null, 
    "CCCma target vertical grid": null, 
    "CCCma target horizontal grid": null, 
    "Include only for": null, 
    "Exclude for": null, 
    "long_name": "Daily Minimum Near-Surface Air Temperature", 
    "units": "K", 
    "description": "minimum near-surface (usually, 2 meter) air temperature (add cell_method attribute \"time: min\")", 
    "comment": "minimum near-surface (usually, 2 meter) air temperature (add cell_method attribute \"time: min\")", 
    "out_name": "tasmin", 
    "standard_name": "air_temperature", 
    "cell_methods": "area: mean time: minimum", 
    "positive": null, 
    "type": "real", 
    "dimensions": "longitude latitude time height2m", 
    "modeling_realm": "atmos", 
    "frequency": "day", 
    "cell_measures": "area: areacella", 
    "valid_min": null, 
    "valid_max": null, 
    "ok_min_mean_abs": null, 
    "ok_max_mean_abs": null, 
    "priority": 1.0, 
    "MIPs (requesting)": "  AerChemMIP(1,1), CFMIP(1,1,1,1,1), CMIP(1,1,1,1,1,1), CORDEX(1), DAMIP(1,1), DCPP(1), GeoMIP(1,1,1), GMMIP(1), HighResMIP(1,1,1), LUMIP(1), PAMIP(1), PMIP(1,1,1,1,1), VIACSAB(1,1,1,1,2,2,2), VolMIP(1)", 
    "experiments": "  abrupt-4xCO2 (CFMIP:1,CMIP:1,CMIP:1,GeoMIP:1,PMIP:1), amip (AerChemMIP:1,CFMIP:1,CMIP:1,GMMIP:1,HighResMIP:1,PMIP:1,VIACSAB:1,VIACSAB:2), 1pctCO2 (CFMIP:1,CMIP:1,PMIP:1,VIACSAB:1,VIACSAB:2), historical (AerChemMIP:1,CFMIP:1,CMIP:1,DAMIP:1,DCPP:1,GeoMIP:1,HighResMIP:1,LUMIP:1,PAMIP:1,PMIP:1,VIACSAB:1,VIACSAB:2), piControl (CFMIP:1,CMIP:1,CORDEX:1,DAMIP:1,GeoMIP:1,HighResMIP:1,PMIP:1,VIACSAB:1,VolMIP:1)"
  }, 
  "tslsi": {
    "CMOR Name": "tslsi", 
    "CMOR Name, any freq": "tslsi", 
    "CCCma check": "Diag to be done, based on saved tiled fractions and termperatures.", 
    "CCCma hist file": "gs", 
    "CCCma hist var names": "GTT FARE", 
    "CCCma hist var frequency": "ISGG", 
    "CCCma TS var name": "GTT FARE", 
    "CCCma diag file": "3h", 
    "CCCma units": "K", 
    "CCCma optional deck": "tslsi_bind8", 
    "CCCma comment": "(GTT(1)*FARE(1)+GTT(6)*FARE(6))/(FARE(1)+FARE(6)) ???(YJ---averaged over tile 1,2 and 6; binning over 8 3hrly saves to one daily save)", 
    "CCCma NetCDF comment": null, 
    "CCCma target vertical grid": null, 
    "CCCma target horizontal grid": null, 
    "Include only for": null, 
    "Exclude for": null, 
    "long_name": "Surface Temperature Where Land or Sea Ice", 
    "units": "K", 
    "description": "Surface temperature of all surfaces except open ocean.", 
    "comment": "Surface temperature of all surfaces except open ocean.", 
    "out_name": "tslsi", 
    "standard_name": "surface_temperature", 
    "cell_methods": "area: time: mean (comment: over land and sea ice)", 
    "positive": null, 
    "type": "real", 
    "dimensions": "longitude latitude time", 
    "modeling_realm": "land", 
    "frequency": "day", 
    "cell_measures": "area: areacella", 
    "valid_min": null, 
    "valid_max": null, 
    "ok_min_mean_abs": null, 
    "ok_max_mean_abs": null, 
    "priority": 1.0, 
    "MIPs (requesting)": "  CFMIP(1,1,1,1,1), CMIP(1,1,1), CORDEX(1), DAMIP(1,1), HighResMIP(1,1,1), PMIP(1,1,1,1,1), VIACSAB(1,1,1,1,1), VolMIP(1)", 
    "experiments": "  abrupt-4xCO2 (CFMIP:1,PMIP:1), amip (CFMIP:1,CMIP:1,HighResMIP:1,PMIP:1,VIACSAB:1), 1pctCO2 (CFMIP:1,PMIP:1,VIACSAB:1), historical (CFMIP:1,CMIP:1,DAMIP:1,HighResMIP:1,PMIP:1,VIACSAB:1,VIACSAB:1), piControl (CFMIP:1,CMIP:1,CORDEX:1,DAMIP:1,HighResMIP:1,PMIP:1,VIACSAB:1,VolMIP:1)"
  }, 
  "ua": {
    "CMOR Name": "ua", 
    "CMOR Name, any freq": "ua", 
    "CCCma check": "Done.", 
    "CCCma hist file": "ss", 
    "CCCma hist var names": "VORT DIV", 
    "CCCma hist var frequency": "Spectral at ISSP", 
    "CCCma TS var name": "U", 
    "CCCma diag file": "dp", 
    "CCCma units": "m s-1", 
    "CCCma optional deck": null, 
    "CCCma comment": "Bin 4 saves to one daily save.", 
    "CCCma NetCDF comment": null, 
    "CCCma target vertical grid": null, 
    "CCCma target horizontal grid": null, 
    "Include only for": null, 
    "Exclude for": null, 
    "long_name": "Eastward Wind", 
    "units": "m s-1", 
    "description": "Zonal wind (positive in a eastward direction).", 
    "comment": "Zonal wind (positive in a eastward direction).", 
    "out_name": "ua", 
    "standard_name": "eastward_wind", 
    "cell_methods": "time: mean", 
    "positive": null, 
    "type": "real", 
    "dimensions": "longitude latitude plev8 time", 
    "modeling_realm": "atmos", 
    "frequency": "day", 
    "cell_measures": "area: areacella", 
    "valid_min": null, 
    "valid_max": null, 
    "ok_min_mean_abs": null, 
    "ok_max_mean_abs": null, 
    "priority": 1.0, 
    "MIPs (requesting)": "  CFMIP(1,1,1,1,1), CMIP(1,1,1,1,1,1,1), CORDEX(1), DAMIP(1,1), HighResMIP(1,1,1), VIACSAB(1,2,2,2), VolMIP(1)", 
    "experiments": "  abrupt-4xCO2 (CFMIP:1,CMIP:1), amip (CFMIP:1,CMIP:1,HighResMIP:1,VIACSAB:2), 1pctCO2 (CFMIP:1,CMIP:1), historical (CFMIP:1,CMIP:1,CMIP:1,DAMIP:1,HighResMIP:1,VIACSAB:1,VIACSAB:2), piControl (CFMIP:1,CMIP:1,CMIP:1,CORDEX:1,DAMIP:1,HighResMIP:1,VolMIP:1,VIACSAB:2)"
  }, 
  "uas": {
    "CMOR Name": "uas", 
    "CMOR Name, any freq": "uas", 
    "CCCma check": "Done.", 
    "CCCma hist file": "gs", 
    "CCCma hist var names": "SU", 
    "CCCma hist var frequency": "ISRAD", 
    "CCCma TS var name": "SU", 
    "CCCma diag file": "dd", 
    "CCCma units": "m s-1", 
    "CCCma optional deck": null, 
    "CCCma comment": null, 
    "CCCma NetCDF comment": null, 
    "CCCma target vertical grid": null, 
    "CCCma target horizontal grid": null, 
    "Include only for": null, 
    "Exclude for": null, 
    "long_name": "Eastward Near-Surface Wind", 
    "units": "m s-1", 
    "description": "Eastward component of the near-surface (usually, 10 meters)  wind", 
    "comment": "Eastward component of the near-surface (usually, 10 meters)  wind", 
    "out_name": "uas", 
    "standard_name": "eastward_wind", 
    "cell_methods": "area: time: mean", 
    "positive": null, 
    "type": "real", 
    "dimensions": "longitude latitude time height10m", 
    "modeling_realm": "atmos", 
    "frequency": "day", 
    "cell_measures": "area: areacella", 
    "valid_min": null, 
    "valid_max": null, 
    "ok_min_mean_abs": null, 
    "ok_max_mean_abs": null, 
    "priority": 1.0, 
    "MIPs (requesting)": "  AerChemMIP(1,1), CFMIP(1,1,1,1,1), CMIP(1,1,1), CORDEX(1), DAMIP(1,1), DCPP(2), GeoMIP(1,1,1), HighResMIP(1,1,1), PAMIP(2), VIACSAB(1,1,1), VolMIP(1)", 
    "experiments": "  abrupt-4xCO2 (CFMIP:1,GeoMIP:1), amip (AerChemMIP:1,CFMIP:1,CMIP:1,HighResMIP:1,VIACSAB:1), 1pctCO2 (CFMIP:1), historical (AerChemMIP:1,CFMIP:1,CMIP:1,DAMIP:1,GeoMIP:1,HighResMIP:1,VIACSAB:1,DCPP:2,PAMIP:2), piControl (CFMIP:1,CMIP:1,CORDEX:1,DAMIP:1,GeoMIP:1,HighResMIP:1,VIACSAB:1,VolMIP:1)"
  }, 
  "va": {
    "CMOR Name": "va", 
    "CMOR Name, any freq": "va", 
    "CCCma check": "Done.", 
    "CCCma hist file": "ss", 
    "CCCma hist var names": "VORT DIV", 
    "CCCma hist var frequency": "Spectral at ISSP", 
    "CCCma TS var name": "V", 
    "CCCma diag file": "dp", 
    "CCCma units": "m s-1", 
    "CCCma optional deck": null, 
    "CCCma comment": "Bin 4 saves to one daily save.", 
    "CCCma NetCDF comment": null, 
    "CCCma target vertical grid": null, 
    "CCCma target horizontal grid": null, 
    "Include only for": null, 
    "Exclude for": null, 
    "long_name": "Northward Wind", 
    "units": "m s-1", 
    "description": "Meridional wind (positive in a northward direction).", 
    "comment": "Meridional wind (positive in a northward direction).", 
    "out_name": "va", 
    "standard_name": "northward_wind", 
    "cell_methods": "time: mean", 
    "positive": null, 
    "type": "real", 
    "dimensions": "longitude latitude plev8 time", 
    "modeling_realm": "atmos", 
    "frequency": "day", 
    "cell_measures": "area: areacella", 
    "valid_min": null, 
    "valid_max": null, 
    "ok_min_mean_abs": null, 
    "ok_max_mean_abs": null, 
    "priority": 1.0, 
    "MIPs (requesting)": "  CFMIP(1,1,1,1,1), CMIP(1,1,1,1,1,1,1), CORDEX(1), DAMIP(1,1), HighResMIP(1,1,1), VIACSAB(1,2,2,2), VolMIP(1)", 
    "experiments": "  abrupt-4xCO2 (CFMIP:1,CMIP:1), amip (CFMIP:1,CMIP:1,HighResMIP:1,VIACSAB:2), 1pctCO2 (CFMIP:1,CMIP:1), historical (CFMIP:1,CMIP:1,CMIP:1,DAMIP:1,HighResMIP:1,VIACSAB:1,VIACSAB:2), piControl (CFMIP:1,CMIP:1,CMIP:1,CORDEX:1,DAMIP:1,HighResMIP:1,VolMIP:1,VIACSAB:2)"
  }, 
  "vas": {
    "CMOR Name": "vas", 
    "CMOR Name, any freq": "vas", 
    "CCCma check": "Done.", 
    "CCCma hist file": "gs", 
    "CCCma hist var names": "SV", 
    "CCCma hist var frequency": "ISRAD", 
    "CCCma TS var name": "SV", 
    "CCCma diag file": "dd", 
    "CCCma units": "m s-1", 
    "CCCma optional deck": null, 
    "CCCma comment": null, 
    "CCCma NetCDF comment": null, 
    "CCCma target vertical grid": null, 
    "CCCma target horizontal grid": null, 
    "Include only for": null, 
    "Exclude for": null, 
    "long_name": "Northward Near-Surface Wind", 
    "units": "m s-1", 
    "description": "Northward component of the near surface wind", 
    "comment": "Northward component of the near surface wind", 
    "out_name": "vas", 
    "standard_name": "northward_wind", 
    "cell_methods": "area: time: mean", 
    "positive": null, 
    "type": "real", 
    "dimensions": "longitude latitude time height10m", 
    "modeling_realm": "atmos", 
    "frequency": "day", 
    "cell_measures": "area: areacella", 
    "valid_min": null, 
    "valid_max": null, 
    "ok_min_mean_abs": null, 
    "ok_max_mean_abs": null, 
    "priority": 1.0, 
    "MIPs (requesting)": "  AerChemMIP(1,1), CFMIP(1,1,1,1,1), CMIP(1,1,1), CORDEX(1), DAMIP(1,1), DCPP(2), GeoMIP(1,1,1), HighResMIP(1,1,1), PAMIP(2), VIACSAB(1,1,1), VolMIP(1)", 
    "experiments": "  abrupt-4xCO2 (CFMIP:1,GeoMIP:1), amip (AerChemMIP:1,CFMIP:1,CMIP:1,HighResMIP:1,VIACSAB:1), 1pctCO2 (CFMIP:1), historical (AerChemMIP:1,CFMIP:1,CMIP:1,DAMIP:1,GeoMIP:1,HighResMIP:1,VIACSAB:1,DCPP:2,PAMIP:2), piControl (CFMIP:1,CMIP:1,CORDEX:1,DAMIP:1,GeoMIP:1,HighResMIP:1,VIACSAB:1,VolMIP:1)"
  }, 
  "wap": {
    "CMOR Name": "wap", 
    "CMOR Name, any freq": "wap", 
    "CCCma check": "Done.", 
    "CCCma hist file": "gs", 
    "CCCma hist var names": "OMET", 
    "CCCma hist var frequency": "ISGG", 
    "CCCma TS var name": "OMEG", 
    "CCCma diag file": "dp", 
    "CCCma units": "Pa s-1", 
    "CCCma optional deck": null, 
    "CCCma comment": "Bin 4 saves to one daily save", 
    "CCCma NetCDF comment": null, 
    "CCCma target vertical grid": null, 
    "CCCma target horizontal grid": null, 
    "Include only for": null, 
    "Exclude for": null, 
    "long_name": "Omega (=dp/dt)", 
    "units": "Pa s-1", 
    "description": "commonly referred to as \"omega\", this represents the vertical component of velocity in pressure coordinates (positive down)", 
    "comment": "Omega (vertical velocity in pressure coordinates, positive downwards)", 
    "out_name": "wap", 
    "standard_name": "lagrangian_tendency_of_air_pressure", 
    "cell_methods": "time: mean", 
    "positive": null, 
    "type": "real", 
    "dimensions": "longitude latitude plev8 time", 
    "modeling_realm": "atmos", 
    "frequency": "day", 
    "cell_measures": "area: areacella", 
    "valid_min": null, 
    "valid_max": null, 
    "ok_min_mean_abs": null, 
    "ok_max_mean_abs": null, 
    "priority": 1.0, 
    "MIPs (requesting)": "  CFMIP(1,1,1,1,1), CMIP(1,1,1), DAMIP(1,1), HighResMIP(1,1,1), VIACSAB(1,2,2,2), VolMIP(1)", 
    "experiments": "  abrupt-4xCO2 (CFMIP:1), amip (CFMIP:1,CMIP:1,HighResMIP:1,VIACSAB:2), 1pctCO2 (CFMIP:1), historical (CFMIP:1,CMIP:1,DAMIP:1,HighResMIP:1,VIACSAB:1,VIACSAB:2), piControl (CFMIP:1,CMIP:1,DAMIP:1,HighResMIP:1,VolMIP:1,VIACSAB:2)"
  }, 
  "zg": {
    "CMOR Name": "zg", 
    "CMOR Name, any freq": "zg", 
    "CCCma check": "Diag file.", 
    "CCCma hist file": "ss", 
    "CCCma hist var names": "PHIS LNSP TEMP", 
    "CCCma hist var frequency": "ISSP", 
    "CCCma TS var name": "PHI", 
    "CCCma diag file": "dp", 
    "CCCma units": "m", 
    "CCCma optional deck": "divbyg", 
    "CCCma comment": "PHI/9.80616", 
    "CCCma NetCDF comment": null, 
    "CCCma target vertical grid": null, 
    "CCCma target horizontal grid": null, 
    "Include only for": null, 
    "Exclude for": null, 
    "long_name": "Geopotential Height", 
    "units": "m", 
    "description": "Geopotential is the sum of the specific gravitational potential energy relative to the geoid and the specific centripetal potential energy. Geopotential height is the geopotential divided by the standard acceleration due to gravity. It is numerically similar to the altitude (or geometric height) and not to the quantity with standard name height, which is relative to the surface.", 
    "comment": "Geopotential is the sum of the specific gravitational potential energy relative to the geoid and the specific centripetal potential energy. Geopotential height is the geopotential divided by the standard acceleration due to gravity. It is numerically similar to the altitude (or geometric height) and not to the quantity with standard name height, which is relative to the surface.", 
    "out_name": "zg", 
    "standard_name": "geopotential_height", 
    "cell_methods": "time: mean", 
    "positive": null, 
    "type": "real", 
    "dimensions": "longitude latitude plev8 time", 
    "modeling_realm": "atmos", 
    "frequency": "day", 
    "cell_measures": "area: areacella", 
    "valid_min": null, 
    "valid_max": null, 
    "ok_min_mean_abs": null, 
    "ok_max_mean_abs": null, 
    "priority": 1.0, 
    "MIPs (requesting)": "  CFMIP(2,2,2,2,2), CMIP(2,2,2), CORDEX(1), DAMIP(2,2), HighResMIP(2,2,2), VIACSAB(1,1,1), VolMIP(2)", 
    "experiments": "  abrupt-4xCO2 (CFMIP:2), amip (VIACSAB:1,CFMIP:2,CMIP:2,HighResMIP:2), 1pctCO2 (CFMIP:2), historical (VIACSAB:1,CFMIP:2,CMIP:2,DAMIP:2,HighResMIP:2), piControl (CORDEX:1,VIACSAB:1,CFMIP:2,CMIP:2,DAMIP:2,HighResMIP:2,VolMIP:2)"
  }
}