{
  "_metadata_": {
    "Source file": "output_variables_dreq01.00.31_CANOE__BACKUP_26Mar2021_18h26m06sUTC.xlsx output_variables_dreq01.00.31__BACKUP_26Mar2021_18h26m02sUTC.xlsx", 
    "MIP table": "AERmonZ"
  }, 
  "bry": {
    "CMOR Name": "bry", 
    "CMOR Name, any freq": "bry", 
    "CCCma check": "?", 
    "CCCma hist file": null, 
    "CCCma hist var names": null, 
    "CCCma hist var frequency": null, 
    "CCCma TS var name": null, 
    "CCCma diag file": null, 
    "CCCma units": null, 
    "CCCma optional deck": null, 
    "CCCma comment": null, 
    "CCCma NetCDF comment": null, 
    "CCCma target vertical grid": null, 
    "CCCma target horizontal grid": null, 
    "Include only for": null, 
    "Exclude for": null, 
    "long_name": "Total Inorganic Bromine Volume Mixing Ratio", 
    "units": "mol mol-1", 
    "description": "Total family (the sum of all appropriate species in the model) ; list the species in the netCDF header, e.g. Bry = Br + BrO + HOBr + HBr + BrONO2 + BrCl Definition: Total inorganic bromine (e.g., HBr and inorganic bromine oxides and radicals (e.g., BrO, atomic bromine (Br), bromine nitrate (BrONO2)) resulting from degradation of bromine-containing organicsource gases (halons, methyl bromide, VSLS), and natural inorganic bromine sources (e.g., volcanoes, sea salt, and other aerosols) add comment attribute with detailed description about how the model calculates these fields", 
    "comment": "Total family (the sum of all appropriate species in the model) ; list the species in the netCDF header, e.g. Bry = Br + BrO + HOBr + HBr + BrONO2 + BrCl Definition: Total inorganic bromine (e.g., HBr and inorganic bromine oxides and radicals (e.g., BrO, atomic bromine (Br), bromine nitrate (BrONO2)) resulting from degradation of bromine-containing organic source gases (halons, methyl bromide, VSLS), and natural inorganic bromine sources (e.g., volcanoes, sea salt, and other aerosols) add comment attribute with detailed description about how the model calculates these fields", 
    "out_name": "bry", 
    "standard_name": "mole_fraction_of_inorganic_bromine_in_air", 
    "cell_methods": "longitude: mean time: mean", 
    "positive": null, 
    "type": "real", 
    "dimensions": "latitude plev39 time", 
    "modeling_realm": "aerosol", 
    "frequency": "mon", 
    "cell_measures": null, 
    "valid_min": null, 
    "valid_max": null, 
    "ok_min_mean_abs": null, 
    "ok_max_mean_abs": null, 
    "priority": 1.0, 
    "MIPs (requesting)": "  AerChemMIP(1,1,1,1,1)", 
    "experiments": "  abrupt-4xCO2 (AerChemMIP:1), amip (AerChemMIP:1), 1pctCO2 (AerChemMIP:1), historical (AerChemMIP:1), piControl (AerChemMIP:1)"
  }, 
  "ch4": {
    "CMOR Name": "ch4", 
    "CMOR Name, any freq": "ch4", 
    "CCCma check": "See Amon", 
    "CCCma hist file": null, 
    "CCCma hist var names": null, 
    "CCCma hist var frequency": null, 
    "CCCma TS var name": null, 
    "CCCma diag file": null, 
    "CCCma units": null, 
    "CCCma optional deck": null, 
    "CCCma comment": null, 
    "CCCma NetCDF comment": null, 
    "CCCma target vertical grid": null, 
    "CCCma target horizontal grid": null, 
    "Include only for": null, 
    "Exclude for": null, 
    "long_name": "Mole Fraction of CH4", 
    "units": "mol mol-1", 
    "description": "Mole fraction is used in the construction mole_fraction_of_X_in_Y, where X is a material constituent of Y.", 
    "comment": "Mole fraction is used in the construction mole_fraction_of_X_in_Y, where X is a material constituent of Y.", 
    "out_name": "ch4", 
    "standard_name": "mole_fraction_of_methane_in_air", 
    "cell_methods": "longitude: mean time: mean", 
    "positive": null, 
    "type": "real", 
    "dimensions": "latitude plev39 time", 
    "modeling_realm": "aerosol", 
    "frequency": "mon", 
    "cell_measures": null, 
    "valid_min": null, 
    "valid_max": null, 
    "ok_min_mean_abs": null, 
    "ok_max_mean_abs": null, 
    "priority": 1.0, 
    "MIPs (requesting)": "  AerChemMIP(1,1,1,1,1)", 
    "experiments": "  abrupt-4xCO2 (AerChemMIP:1), amip (AerChemMIP:1), 1pctCO2 (AerChemMIP:1), historical (AerChemMIP:1), piControl (AerChemMIP:1)"
  }, 
  "cly": {
    "CMOR Name": "cly", 
    "CMOR Name, any freq": "cly", 
    "CCCma check": "?", 
    "CCCma hist file": null, 
    "CCCma hist var names": null, 
    "CCCma hist var frequency": null, 
    "CCCma TS var name": null, 
    "CCCma diag file": null, 
    "CCCma units": null, 
    "CCCma optional deck": null, 
    "CCCma comment": null, 
    "CCCma NetCDF comment": null, 
    "CCCma target vertical grid": null, 
    "CCCma target horizontal grid": null, 
    "Include only for": null, 
    "Exclude for": null, 
    "long_name": "Total Inorganic Chlorine Volume Mixing Ratio", 
    "units": "mol mol-1", 
    "description": "Total family (the sum of all appropriate species in the model) ; list the species in the netCDF header, e.g. Cly = HCl + ClONO2 + HOCl + ClO + Cl + 2*Cl2O2 +2Cl2 + OClO + BrCl Definition: Total inorganic stratospheric chlorine (e.g., HCl, ClO) resulting from degradation of chlorine-containing source gases (CFCs, HCFCs, VSLS), and natural inorganic chlorine sources (e.g., sea salt and other aerosols) add comment attribute with detailed description about how the model calculates these fields", 
    "comment": "Total family (the sum of all appropriate species in the model) ; list the species in the netCDF header, e.g. Cly = HCl + ClONO2 + HOCl + ClO + Cl + 2*Cl2O2 +2Cl2 + OClO + BrCl Definition: Total inorganic stratospheric chlorine (e.g., HCl, ClO) resulting from degradation of chlorine-containing source gases (CFCs, HCFCs, VSLS), and natural inorganic chlorine sources (e.g., sea salt and other aerosols) add comment attribute with detailed description about how the model calculates these fields", 
    "out_name": "cly", 
    "standard_name": "mole_fraction_of_inorganic_chlorine_in_air", 
    "cell_methods": "longitude: mean time: mean", 
    "positive": null, 
    "type": "real", 
    "dimensions": "latitude plev39 time", 
    "modeling_realm": "aerosol", 
    "frequency": "mon", 
    "cell_measures": null, 
    "valid_min": null, 
    "valid_max": null, 
    "ok_min_mean_abs": null, 
    "ok_max_mean_abs": null, 
    "priority": 1.0, 
    "MIPs (requesting)": "  AerChemMIP(1,1,1,1,1)", 
    "experiments": "  abrupt-4xCO2 (AerChemMIP:1), amip (AerChemMIP:1), 1pctCO2 (AerChemMIP:1), historical (AerChemMIP:1), piControl (AerChemMIP:1)"
  }, 
  "h2o": {
    "CMOR Name": "h2o", 
    "CMOR Name, any freq": "h2o", 
    "CCCma check": null, 
    "CCCma hist file": null, 
    "CCCma hist var names": null, 
    "CCCma hist var frequency": null, 
    "CCCma TS var name": null, 
    "CCCma diag file": null, 
    "CCCma units": null, 
    "CCCma optional deck": null, 
    "CCCma comment": null, 
    "CCCma NetCDF comment": null, 
    "CCCma target vertical grid": null, 
    "CCCma target horizontal grid": null, 
    "Include only for": null, 
    "Exclude for": null, 
    "long_name": "Mass Fraction of Water", 
    "units": "1", 
    "description": "includes all phases of water", 
    "comment": "includes all phases of water", 
    "out_name": "h2o", 
    "standard_name": "mass_fraction_of_water_in_air", 
    "cell_methods": "longitude: mean time: mean", 
    "positive": null, 
    "type": "real", 
    "dimensions": "latitude plev39 time", 
    "modeling_realm": "aerosol", 
    "frequency": "mon", 
    "cell_measures": null, 
    "valid_min": null, 
    "valid_max": null, 
    "ok_min_mean_abs": null, 
    "ok_max_mean_abs": null, 
    "priority": 1.0, 
    "MIPs (requesting)": "  AerChemMIP(1,1,1,1,1)", 
    "experiments": "  abrupt-4xCO2 (AerChemMIP:1), amip (AerChemMIP:1), 1pctCO2 (AerChemMIP:1), historical (AerChemMIP:1), piControl (AerChemMIP:1)"
  }, 
  "hcl": {
    "CMOR Name": "hcl", 
    "CMOR Name, any freq": "hcl", 
    "CCCma check": "?", 
    "CCCma hist file": null, 
    "CCCma hist var names": null, 
    "CCCma hist var frequency": null, 
    "CCCma TS var name": null, 
    "CCCma diag file": null, 
    "CCCma units": null, 
    "CCCma optional deck": null, 
    "CCCma comment": null, 
    "CCCma NetCDF comment": null, 
    "CCCma target vertical grid": null, 
    "CCCma target horizontal grid": null, 
    "Include only for": null, 
    "Exclude for": null, 
    "long_name": "HCl Volume Mixing Ratio", 
    "units": "mol mol-1", 
    "description": "Mole fraction is used in the construction mole_fraction_of_X_in_Y, where X is a material constituent of Y.  The chemical formula of hydrogen chloride is HCl.", 
    "comment": "Mole fraction is used in the construction mole_fraction_of_X_in_Y, where X is a material constituent of Y.  The chemical formula of hydrogen chloride is HCl.", 
    "out_name": "hcl", 
    "standard_name": "mole_fraction_of_hydrogen_chloride_in_air", 
    "cell_methods": "longitude: mean time: mean", 
    "positive": null, 
    "type": "real", 
    "dimensions": "latitude plev39 time", 
    "modeling_realm": "aerosol", 
    "frequency": "mon", 
    "cell_measures": null, 
    "valid_min": null, 
    "valid_max": null, 
    "ok_min_mean_abs": null, 
    "ok_max_mean_abs": null, 
    "priority": 1.0, 
    "MIPs (requesting)": "  AerChemMIP(1,1,1,1,1)", 
    "experiments": "  abrupt-4xCO2 (AerChemMIP:1), amip (AerChemMIP:1), 1pctCO2 (AerChemMIP:1), historical (AerChemMIP:1), piControl (AerChemMIP:1)"
  }, 
  "hno3": {
    "CMOR Name": "hno3", 
    "CMOR Name, any freq": "hno3", 
    "CCCma check": "?", 
    "CCCma hist file": null, 
    "CCCma hist var names": null, 
    "CCCma hist var frequency": null, 
    "CCCma TS var name": null, 
    "CCCma diag file": null, 
    "CCCma units": null, 
    "CCCma optional deck": null, 
    "CCCma comment": null, 
    "CCCma NetCDF comment": null, 
    "CCCma target vertical grid": null, 
    "CCCma target horizontal grid": null, 
    "Include only for": null, 
    "Exclude for": null, 
    "long_name": "HNO3 Volume Mixing Ratio", 
    "units": "mol mol-1", 
    "description": "Mole fraction is used in the construction mole_fraction_of_X_in_Y, where X is a material constituent of Y.", 
    "comment": "Mole fraction is used in the construction mole_fraction_of_X_in_Y, where X is a material constituent of Y.", 
    "out_name": "hno3", 
    "standard_name": "mole_fraction_of_nitric_acid_in_air", 
    "cell_methods": "longitude: mean time: mean", 
    "positive": null, 
    "type": "real", 
    "dimensions": "latitude plev39 time", 
    "modeling_realm": "aerosol", 
    "frequency": "mon", 
    "cell_measures": null, 
    "valid_min": null, 
    "valid_max": null, 
    "ok_min_mean_abs": null, 
    "ok_max_mean_abs": null, 
    "priority": 1.0, 
    "MIPs (requesting)": "  AerChemMIP(1,1,1,1,1)", 
    "experiments": "  abrupt-4xCO2 (AerChemMIP:1), amip (AerChemMIP:1), 1pctCO2 (AerChemMIP:1), historical (AerChemMIP:1), piControl (AerChemMIP:1)"
  }, 
  "ho2": {
    "CMOR Name": "ho2", 
    "CMOR Name, any freq": "ho2", 
    "CCCma check": "?", 
    "CCCma hist file": null, 
    "CCCma hist var names": null, 
    "CCCma hist var frequency": null, 
    "CCCma TS var name": null, 
    "CCCma diag file": null, 
    "CCCma units": null, 
    "CCCma optional deck": null, 
    "CCCma comment": null, 
    "CCCma NetCDF comment": null, 
    "CCCma target vertical grid": null, 
    "CCCma target horizontal grid": null, 
    "Include only for": null, 
    "Exclude for": null, 
    "long_name": "HO2 Volume Mixing Ratio", 
    "units": "mol mol-1", 
    "description": "Mole fraction is used in the construction mole_fraction_of_X_in_Y, where X is a material constituent of Y.  The chemical formula of hydroperoxyl radical is HO2.", 
    "comment": "Mole fraction is used in the construction mole_fraction_of_X_in_Y, where X is a material constituent of Y.  The chemical formula of hydroperoxyl radical is HO2.", 
    "out_name": "ho2", 
    "standard_name": "mole_fraction_of_hydroperoxyl_radical_in_air", 
    "cell_methods": "longitude: mean time: mean", 
    "positive": null, 
    "type": "real", 
    "dimensions": "latitude plev39 time", 
    "modeling_realm": "aerosol", 
    "frequency": "mon", 
    "cell_measures": null, 
    "valid_min": null, 
    "valid_max": null, 
    "ok_min_mean_abs": null, 
    "ok_max_mean_abs": null, 
    "priority": 1.0, 
    "MIPs (requesting)": "  AerChemMIP(1,1,1,1,1)", 
    "experiments": "  abrupt-4xCO2 (AerChemMIP:1), amip (AerChemMIP:1), 1pctCO2 (AerChemMIP:1), historical (AerChemMIP:1), piControl (AerChemMIP:1)"
  }, 
  "meanage": {
    "CMOR Name": "meanage", 
    "CMOR Name, any freq": "meanage", 
    "CCCma check": "N/A", 
    "CCCma hist file": null, 
    "CCCma hist var names": null, 
    "CCCma hist var frequency": null, 
    "CCCma TS var name": null, 
    "CCCma diag file": null, 
    "CCCma units": null, 
    "CCCma optional deck": null, 
    "CCCma comment": null, 
    "CCCma NetCDF comment": null, 
    "CCCma target vertical grid": null, 
    "CCCma target horizontal grid": null, 
    "Include only for": null, 
    "Exclude for": null, 
    "long_name": "Mean Age of Stratospheric Air", 
    "units": "yr", 
    "description": "The mean age of air is defined as the mean time that a stratospheric air mass has been out of contact with the well-mixed troposphere.", 
    "comment": "The mean age of air is defined as the mean time that a stratospheric air mass has been out of contact with the well-mixed troposphere.", 
    "out_name": "meanage", 
    "standard_name": "age_of_stratospheric_air", 
    "cell_methods": "longitude: mean time: mean", 
    "positive": null, 
    "type": "real", 
    "dimensions": "latitude plev39 time", 
    "modeling_realm": "aerosol", 
    "frequency": "mon", 
    "cell_measures": null, 
    "valid_min": null, 
    "valid_max": null, 
    "ok_min_mean_abs": null, 
    "ok_max_mean_abs": null, 
    "priority": 1.0, 
    "MIPs (requesting)": "  AerChemMIP(1,1,1,1,1), VolMIP(1)", 
    "experiments": "  abrupt-4xCO2 (AerChemMIP:1), amip (AerChemMIP:1), 1pctCO2 (AerChemMIP:1), historical (AerChemMIP:1), piControl (AerChemMIP:1,VolMIP:1)"
  }, 
  "n2o": {
    "CMOR Name": "n2o", 
    "CMOR Name, any freq": "n2o", 
    "CCCma check": "See Amon", 
    "CCCma hist file": null, 
    "CCCma hist var names": null, 
    "CCCma hist var frequency": null, 
    "CCCma TS var name": null, 
    "CCCma diag file": null, 
    "CCCma units": null, 
    "CCCma optional deck": null, 
    "CCCma comment": null, 
    "CCCma NetCDF comment": null, 
    "CCCma target vertical grid": null, 
    "CCCma target horizontal grid": null, 
    "Include only for": null, 
    "Exclude for": null, 
    "long_name": "Mole Fraction of N2O", 
    "units": "mol mol-1", 
    "description": "Mole fraction is used in the construction mole_fraction_of_X_in_Y, where X is a material constituent of Y.   The chemical formula of  nitrous oxide is N2O.", 
    "comment": "Mole fraction is used in the construction mole_fraction_of_X_in_Y, where X is a material constituent of Y.   The chemical formula of  nitrous oxide is N2O.", 
    "out_name": "n2o", 
    "standard_name": "mole_fraction_of_nitrous_oxide_in_air", 
    "cell_methods": "longitude: mean time: mean", 
    "positive": null, 
    "type": "real", 
    "dimensions": "latitude plev39 time", 
    "modeling_realm": "aerosol", 
    "frequency": "mon", 
    "cell_measures": null, 
    "valid_min": null, 
    "valid_max": null, 
    "ok_min_mean_abs": null, 
    "ok_max_mean_abs": null, 
    "priority": 1.0, 
    "MIPs (requesting)": "  AerChemMIP(1,1,1,1,1)", 
    "experiments": "  abrupt-4xCO2 (AerChemMIP:1), amip (AerChemMIP:1), 1pctCO2 (AerChemMIP:1), historical (AerChemMIP:1), piControl (AerChemMIP:1)"
  }, 
  "noy": {
    "CMOR Name": "noy", 
    "CMOR Name, any freq": "noy", 
    "CCCma check": "?", 
    "CCCma hist file": null, 
    "CCCma hist var names": null, 
    "CCCma hist var frequency": null, 
    "CCCma TS var name": null, 
    "CCCma diag file": null, 
    "CCCma units": null, 
    "CCCma optional deck": null, 
    "CCCma comment": null, 
    "CCCma NetCDF comment": null, 
    "CCCma target vertical grid": null, 
    "CCCma target horizontal grid": null, 
    "Include only for": null, 
    "Exclude for": null, 
    "long_name": "Total Reactive Nitrogen Volume Mixing Ratio", 
    "units": "mol mol-1", 
    "description": "Total family (the sum of all appropriate species in the model); list the species in the netCDF header, e.g. NOy = N + NO + NO2 + NO3 + HNO3 + 2N2O5 + HNO4 + ClONO2 + BrONO2 Definition: Total reactive nitrogen; usually includes atomic nitrogen (N), nitric oxide (NO), NO2, nitrogen trioxide (NO3), dinitrogen radical (N2O5), nitric acid (HNO3), peroxynitric acid (HNO4), BrONO2, ClONO2 add comment attribute with detailed description about how the model calculates these fields", 
    "comment": "Total family (the sum of all appropriate species in the model); list the species in the netCDF header, e.g. NOy = N + NO + NO2 + NO3 + HNO3 + 2N2O5 + HNO4 + ClONO2 + BrONO2 Definition: Total reactive nitrogen; usually includes atomic nitrogen (N), nitric oxide (NO), NO2, nitrogen trioxide (NO3), dinitrogen radical (N2O5), nitric acid (HNO3), peroxynitric acid (HNO4), BrONO2, ClONO2 add comment attribute with detailed description about how the model calculates these fields", 
    "out_name": "noy", 
    "standard_name": "mole_fraction_of_noy_expressed_as_nitrogen_in_air", 
    "cell_methods": "longitude: mean time: mean", 
    "positive": null, 
    "type": "real", 
    "dimensions": "latitude plev39 time", 
    "modeling_realm": "aerosol", 
    "frequency": "mon", 
    "cell_measures": null, 
    "valid_min": null, 
    "valid_max": null, 
    "ok_min_mean_abs": null, 
    "ok_max_mean_abs": null, 
    "priority": 1.0, 
    "MIPs (requesting)": "  AerChemMIP(1,1,1,1,1)", 
    "experiments": "  abrupt-4xCO2 (AerChemMIP:1), amip (AerChemMIP:1), 1pctCO2 (AerChemMIP:1), historical (AerChemMIP:1), piControl (AerChemMIP:1)"
  }, 
  "o3": {
    "CMOR Name": "o3", 
    "CMOR Name, any freq": "o3", 
    "CCCma check": "See Amon", 
    "CCCma hist file": null, 
    "CCCma hist var names": null, 
    "CCCma hist var frequency": null, 
    "CCCma TS var name": null, 
    "CCCma diag file": null, 
    "CCCma units": null, 
    "CCCma optional deck": null, 
    "CCCma comment": null, 
    "CCCma NetCDF comment": null, 
    "CCCma target vertical grid": null, 
    "CCCma target horizontal grid": null, 
    "Include only for": null, 
    "Exclude for": null, 
    "long_name": "Mole Fraction of O3", 
    "units": "mol mol-1", 
    "description": "Mole fraction is used in the construction mole_fraction_of_X_in_Y, where X is a material constituent of Y.", 
    "comment": "Mole fraction is used in the construction mole_fraction_of_X_in_Y, where X is a material constituent of Y.", 
    "out_name": "o3", 
    "standard_name": "mole_fraction_of_ozone_in_air", 
    "cell_methods": "longitude: mean time: mean", 
    "positive": null, 
    "type": "real", 
    "dimensions": "latitude plev39 time", 
    "modeling_realm": "aerosol", 
    "frequency": "mon", 
    "cell_measures": null, 
    "valid_min": null, 
    "valid_max": null, 
    "ok_min_mean_abs": null, 
    "ok_max_mean_abs": null, 
    "priority": 1.0, 
    "MIPs (requesting)": "  AerChemMIP(1,1,1,1,1)", 
    "experiments": "  abrupt-4xCO2 (AerChemMIP:1), amip (AerChemMIP:1), 1pctCO2 (AerChemMIP:1), historical (AerChemMIP:1), piControl (AerChemMIP:1)"
  }, 
  "oh": {
    "CMOR Name": "oh", 
    "CMOR Name, any freq": "oh", 
    "CCCma check": "?", 
    "CCCma hist file": null, 
    "CCCma hist var names": null, 
    "CCCma hist var frequency": null, 
    "CCCma TS var name": null, 
    "CCCma diag file": null, 
    "CCCma units": null, 
    "CCCma optional deck": null, 
    "CCCma comment": null, 
    "CCCma NetCDF comment": null, 
    "CCCma target vertical grid": null, 
    "CCCma target horizontal grid": null, 
    "Include only for": null, 
    "Exclude for": null, 
    "long_name": "OH Volume Mixing Ratio", 
    "units": "mol mol-1", 
    "description": "Mole fraction is used in the construction mole_fraction_of_X_in_Y, where X is a material constituent of Y.", 
    "comment": "Mole fraction is used in the construction mole_fraction_of_X_in_Y, where X is a material constituent of Y.", 
    "out_name": "oh", 
    "standard_name": "mole_fraction_of_hydroxyl_radical_in_air", 
    "cell_methods": "longitude: mean time: mean", 
    "positive": null, 
    "type": "real", 
    "dimensions": "latitude plev39 time", 
    "modeling_realm": "aerosol", 
    "frequency": "mon", 
    "cell_measures": null, 
    "valid_min": null, 
    "valid_max": null, 
    "ok_min_mean_abs": null, 
    "ok_max_mean_abs": null, 
    "priority": 1.0, 
    "MIPs (requesting)": "  AerChemMIP(1,1,1,1,1)", 
    "experiments": "  abrupt-4xCO2 (AerChemMIP:1), amip (AerChemMIP:1), 1pctCO2 (AerChemMIP:1), historical (AerChemMIP:1), piControl (AerChemMIP:1)"
  }, 
  "ta": {
    "CMOR Name": "ta", 
    "CMOR Name, any freq": "ta", 
    "CCCma check": "OK, Michael", 
    "CCCma hist file": "ss", 
    "CCCma hist var names": "TEMP", 
    "CCCma hist var frequency": "Spectral at ISSP", 
    "CCCma TS var name": "t", 
    "CCCma diag file": "zp", 
    "CCCma units": null, 
    "CCCma optional deck": null, 
    "CCCma comment": null, 
    "CCCma NetCDF comment": null, 
    "CCCma target vertical grid": null, 
    "CCCma target horizontal grid": null, 
    "Include only for": null, 
    "Exclude for": null, 
    "long_name": "Air Temperature", 
    "units": "K", 
    "description": "Air Temperature", 
    "comment": "Air Temperature", 
    "out_name": "ta", 
    "standard_name": "air_temperature", 
    "cell_methods": "longitude: mean time: mean", 
    "positive": null, 
    "type": "real", 
    "dimensions": "latitude plev39 time", 
    "modeling_realm": "aerosol", 
    "frequency": "mon", 
    "cell_measures": null, 
    "valid_min": null, 
    "valid_max": null, 
    "ok_min_mean_abs": null, 
    "ok_max_mean_abs": null, 
    "priority": 1.0, 
    "MIPs (requesting)": "  AerChemMIP(1,1,1,1,1), DCPP(3), PAMIP(3), VolMIP(1)", 
    "experiments": "  abrupt-4xCO2 (AerChemMIP:1), amip (AerChemMIP:1), 1pctCO2 (AerChemMIP:1), historical (AerChemMIP:1,DCPP:3,PAMIP:3), piControl (AerChemMIP:1,VolMIP:1)"
  }, 
  "ua": {
    "CMOR Name": "ua", 
    "CMOR Name, any freq": "ua", 
    "CCCma check": "OK, Michael", 
    "CCCma hist file": "ss", 
    "CCCma hist var names": "P,C", 
    "CCCma hist var frequency": "Spectral at ISSP", 
    "CCCma TS var name": "u", 
    "CCCma diag file": "zp", 
    "CCCma units": null, 
    "CCCma optional deck": null, 
    "CCCma comment": null, 
    "CCCma NetCDF comment": null, 
    "CCCma target vertical grid": null, 
    "CCCma target horizontal grid": null, 
    "Include only for": null, 
    "Exclude for": null, 
    "long_name": "Eastward Wind", 
    "units": "m s-1", 
    "description": "Zonal wind (positive in a eastward direction).", 
    "comment": "Zonal wind (positive in a eastward direction).", 
    "out_name": "ua", 
    "standard_name": "eastward_wind", 
    "cell_methods": "longitude: mean time: mean", 
    "positive": null, 
    "type": "real", 
    "dimensions": "latitude plev39 time", 
    "modeling_realm": "aerosol", 
    "frequency": "mon", 
    "cell_measures": null, 
    "valid_min": null, 
    "valid_max": null, 
    "ok_min_mean_abs": null, 
    "ok_max_mean_abs": null, 
    "priority": 1.0, 
    "MIPs (requesting)": "  AerChemMIP(1,1,1,1,1), DCPP(3), PAMIP(3)", 
    "experiments": "  abrupt-4xCO2 (AerChemMIP:1), amip (AerChemMIP:1), 1pctCO2 (AerChemMIP:1), historical (AerChemMIP:1,DCPP:3,PAMIP:3), piControl (AerChemMIP:1)"
  }, 
  "va": {
    "CMOR Name": "va", 
    "CMOR Name, any freq": "va", 
    "CCCma check": "OK, Michael", 
    "CCCma hist file": "ss", 
    "CCCma hist var names": "P,C", 
    "CCCma hist var frequency": "Spectral at ISSP", 
    "CCCma TS var name": "v", 
    "CCCma diag file": "zp", 
    "CCCma units": null, 
    "CCCma optional deck": null, 
    "CCCma comment": null, 
    "CCCma NetCDF comment": null, 
    "CCCma target vertical grid": null, 
    "CCCma target horizontal grid": null, 
    "Include only for": null, 
    "Exclude for": null, 
    "long_name": "Northward Wind", 
    "units": "m s-1", 
    "description": "Meridional wind (positive in a northward direction).", 
    "comment": "Meridional wind (positive in a northward direction).", 
    "out_name": "va", 
    "standard_name": "northward_wind", 
    "cell_methods": "longitude: mean time: mean", 
    "positive": null, 
    "type": "real", 
    "dimensions": "latitude plev39 time", 
    "modeling_realm": "aerosol", 
    "frequency": "mon", 
    "cell_measures": null, 
    "valid_min": null, 
    "valid_max": null, 
    "ok_min_mean_abs": null, 
    "ok_max_mean_abs": null, 
    "priority": 1.0, 
    "MIPs (requesting)": "  AerChemMIP(1,1,1,1,1)", 
    "experiments": "  abrupt-4xCO2 (AerChemMIP:1), amip (AerChemMIP:1), 1pctCO2 (AerChemMIP:1), historical (AerChemMIP:1), piControl (AerChemMIP:1)"
  }, 
  "vt100": {
    "CMOR Name": "vt100", 
    "CMOR Name, any freq": "vt100", 
    "CCCma check": "OK, Michael", 
    "CCCma hist file": null, 
    "CCCma hist var names": null, 
    "CCCma hist var frequency": null, 
    "CCCma TS var name": "meridional_heat_flux", 
    "CCCma diag file": "zp", 
    "CCCma units": null, 
    "CCCma optional deck": null, 
    "CCCma comment": null, 
    "CCCma NetCDF comment": null, 
    "CCCma target vertical grid": null, 
    "CCCma target horizontal grid": null, 
    "Include only for": null, 
    "Exclude for": null, 
    "long_name": "Northward Eddy Temperature Flux", 
    "units": "K m s-1", 
    "description": "Zonally averaged eddy temperature flux at 100hPa as monthly means derived from daily (or higher frequency) fields.", 
    "comment": "Zonally averaged eddy temperature flux at 100hPa as monthly means derived from daily (or higher frequency) fields.", 
    "out_name": "vt100", 
    "standard_name": "covariance_over_longitude_of_northward_wind_and_air_temperature", 
    "cell_methods": "longitude: mean time: mean", 
    "positive": null, 
    "type": "real", 
    "dimensions": "latitude time p100", 
    "modeling_realm": "aerosol", 
    "frequency": "mon", 
    "cell_measures": null, 
    "valid_min": null, 
    "valid_max": null, 
    "ok_min_mean_abs": null, 
    "ok_max_mean_abs": null, 
    "priority": 1.0, 
    "MIPs (requesting)": "  AerChemMIP(1,1,1,1,1)", 
    "experiments": "  abrupt-4xCO2 (AerChemMIP:1), amip (AerChemMIP:1), 1pctCO2 (AerChemMIP:1), historical (AerChemMIP:1), piControl (AerChemMIP:1)"
  }, 
  "zg": {
    "CMOR Name": "zg", 
    "CMOR Name, any freq": "zg", 
    "CCCma check": "OK, Michael", 
    "CCCma hist file": "ss", 
    "CCCma hist var names": "PHIS", 
    "CCCma hist var frequency": "ISSP", 
    "CCCma TS var name": "z", 
    "CCCma diag file": "zp", 
    "CCCma units": "m", 
    "CCCma optional deck": "divbyg", 
    "CCCma comment": "PHI/9.80616", 
    "CCCma NetCDF comment": null, 
    "CCCma target vertical grid": null, 
    "CCCma target horizontal grid": null, 
    "Include only for": null, 
    "Exclude for": null, 
    "long_name": "Geopotential Height", 
    "units": "m", 
    "description": "Geopotential is the sum of the specific gravitational potential energy relative to the geoid and the specific centripetal potential energy. Geopotential height is the geopotential divided by the standard acceleration due to gravity. It is numerically similar to the altitude (or geometric height) and not to the quantity with standard name height, which is relative to the surface.", 
    "comment": "Geopotential is the sum of the specific gravitational potential energy relative to the geoid and the specific centripetal potential energy. Geopotential height is the geopotential divided by the standard acceleration due to gravity. It is numerically similar to the altitude (or geometric height) and not to the quantity with standard name height, which is relative to the surface.", 
    "out_name": "zg", 
    "standard_name": "geopotential_height", 
    "cell_methods": "longitude: mean time: mean", 
    "positive": null, 
    "type": "real", 
    "dimensions": "latitude plev39 time", 
    "modeling_realm": "atmos", 
    "frequency": "mon", 
    "cell_measures": null, 
    "valid_min": null, 
    "valid_max": null, 
    "ok_min_mean_abs": null, 
    "ok_max_mean_abs": null, 
    "priority": 1.0, 
    "MIPs (requesting)": "  AerChemMIP(1,1,1,1,1)", 
    "experiments": "  abrupt-4xCO2 (AerChemMIP:1), amip (AerChemMIP:1), 1pctCO2 (AerChemMIP:1), historical (AerChemMIP:1), piControl (AerChemMIP:1)"
  }
}