{
  "_metadata_": {
    "Source file": "output_variables_dreq01.00.31_CANOE__BACKUP_26Mar2021_18h26m06sUTC.xlsx output_variables_dreq01.00.31__BACKUP_26Mar2021_18h26m02sUTC.xlsx", 
    "MIP table": "fx"
  }, 
  "areacella": {
    "CMOR Name": "areacella", 
    "CMOR Name, any freq": "areacella", 
    "CCCma check": null, 
    "CCCma hist file": null, 
    "CCCma hist var names": null, 
    "CCCma hist var frequency": null, 
    "CCCma TS var name": "DATA_DESCRIPTION", 
    "CCCma diag file": "gp", 
    "CCCma units": null, 
    "CCCma optional deck": "areacella", 
    "CCCma comment": "Use =mkwght=; afrac*4*Pi*R^2", 
    "CCCma NetCDF comment": null, 
    "CCCma target vertical grid": null, 
    "CCCma target horizontal grid": null, 
    "Include only for": null, 
    "Exclude for": null, 
    "long_name": "Grid-Cell Area for Atmospheric Grid Variables", 
    "units": "m2", 
    "description": "Cell areas for any grid used to report atmospheric variables and any other variable using that grid (e.g., soil moisture content). These cell areas should be defined to enable exact calculation of global integrals (e.g., of vertical fluxes of energy at the surface and top of the atmosphere).", 
    "comment": "For atmospheres with more than 1 mesh (e.g., staggered grids), report areas that apply to surface vertical fluxes of energy.", 
    "out_name": "areacella", 
    "standard_name": "cell_area", 
    "cell_methods": "area: sum", 
    "positive": null, 
    "type": "real", 
    "dimensions": "longitude latitude", 
    "modeling_realm": "atmos land", 
    "frequency": "fx", 
    "cell_measures": null, 
    "valid_min": 100000.0, 
    "valid_max": 1000000000000.0, 
    "ok_min_mean_abs": 100000.0, 
    "ok_max_mean_abs": 1000000000000.0, 
    "priority": 1.0, 
    "MIPs (requesting)": "  AerChemMIP(1,1,1), CFMIP(1,1,1,1,1), CMIP(1,1,1,1,1,1), DCPP(1), LS3MIP(1), PAMIP(1), PMIP(1,1,1,1,1)", 
    "experiments": "  abrupt-4xCO2 (CFMIP:1,CMIP:1,CMIP:1,PMIP:1), amip (AerChemMIP:1,CFMIP:1,CMIP:1,PMIP:1), 1pctCO2 (CFMIP:1,CMIP:1,PMIP:1), historical (AerChemMIP:1,CFMIP:1,CMIP:1,DCPP:1,LS3MIP:1,PAMIP:1,PMIP:1), piControl (AerChemMIP:1,CFMIP:1,CMIP:1,PMIP:1)"
  }, 
  "areacellr": {
    "CMOR Name": "areacellr", 
    "CMOR Name, any freq": "areacellr", 
    "CCCma check": null, 
    "CCCma hist file": null, 
    "CCCma hist var names": null, 
    "CCCma hist var frequency": null, 
    "CCCma TS var name": null, 
    "CCCma diag file": null, 
    "CCCma units": null, 
    "CCCma optional deck": null, 
    "CCCma comment": null, 
    "CCCma NetCDF comment": null, 
    "CCCma target vertical grid": null, 
    "CCCma target horizontal grid": null, 
    "Include only for": null, 
    "Exclude for": null, 
    "long_name": "Grid-Cell Area for River Model Variables", 
    "units": "m2", 
    "description": "Cell areas for any grid used to report river model variables (may be the same as for atmospheric variables). These cell areas should be defined to enable exact calculation of area integrals (e.g., of vertical fluxes of energy at the surface and top of the atmosphere).", 
    "comment": "For river routing model, if grid differs from the atmospheric grid.", 
    "out_name": "areacellr", 
    "standard_name": "cell_area", 
    "cell_methods": "area: sum", 
    "positive": null, 
    "type": "real", 
    "dimensions": "longitude latitude", 
    "modeling_realm": "land", 
    "frequency": "fx", 
    "cell_measures": null, 
    "valid_min": null, 
    "valid_max": null, 
    "ok_min_mean_abs": null, 
    "ok_max_mean_abs": null, 
    "priority": 1.0, 
    "MIPs (requesting)": "  CMIP(1,1,1,1,1,1), DCPP(1), PAMIP(1), PMIP(1,1,1,1,1)", 
    "experiments": "  abrupt-4xCO2 (CMIP:1,CMIP:1,PMIP:1), amip (CMIP:1,PMIP:1), 1pctCO2 (CMIP:1,PMIP:1), historical (CMIP:1,DCPP:1,PAMIP:1,PMIP:1), piControl (CMIP:1,PMIP:1)"
  }, 
  "mrsofc": {
    "CMOR Name": "mrsofc", 
    "CMOR Name, any freq": "mrsofc", 
    "CCCma check": null, 
    "CCCma hist file": null, 
    "CCCma hist var names": null, 
    "CCCma hist var frequency": null, 
    "CCCma TS var name": "DATA_DESCRIPTION", 
    "CCCma diag file": "gp", 
    "CCCma units": null, 
    "CCCma optional deck": "soilstore", 
    "CCCma comment": "sum(DZ*PORG)", 
    "CCCma NetCDF comment": null, 
    "CCCma target vertical grid": null, 
    "CCCma target horizontal grid": null, 
    "Include only for": null, 
    "Exclude for": null, 
    "long_name": "Capacity of Soil to Store Water (Field Capacity)", 
    "units": "kg m-2", 
    "description": "reported \"where land\": divide the total water holding capacity of all the soil in the grid cell by the land area in the grid cell;  reported as \"missing\" where the land fraction is 0.", 
    "comment": "The bulk water content retained by the soil at -33 J/kg of suction pressure, expressed as mass per unit land area; report as missing where there is no land", 
    "out_name": "mrsofc", 
    "standard_name": "soil_moisture_content_at_field_capacity", 
    "cell_methods": "area: mean where land", 
    "positive": null, 
    "type": "real", 
    "dimensions": "longitude latitude", 
    "modeling_realm": "land", 
    "frequency": "fx", 
    "cell_measures": "area: areacella", 
    "valid_min": null, 
    "valid_max": null, 
    "ok_min_mean_abs": null, 
    "ok_max_mean_abs": null, 
    "priority": 1.0, 
    "MIPs (requesting)": "  CMIP(1,1,1,1,1,1), DCPP(1), LS3MIP(1), PAMIP(1), PMIP(1,1,1,1,1)", 
    "experiments": "  abrupt-4xCO2 (CMIP:1,CMIP:1,PMIP:1), amip (CMIP:1,PMIP:1), 1pctCO2 (CMIP:1,PMIP:1), historical (CMIP:1,DCPP:1,LS3MIP:1,PAMIP:1,PMIP:1), piControl (CMIP:1,PMIP:1)"
  }, 
  "orog": {
    "CMOR Name": "orog", 
    "CMOR Name, any freq": "orog", 
    "CCCma check": null, 
    "CCCma hist file": null, 
    "CCCma hist var names": null, 
    "CCCma hist var frequency": null, 
    "CCCma TS var name": "PHIS DATA_DESCRIPTION", 
    "CCCma diag file": "gp", 
    "CCCma units": null, 
    "CCCma optional deck": "orog", 
    "CCCma comment": "PHIS/9.80616", 
    "CCCma NetCDF comment": null, 
    "CCCma target vertical grid": null, 
    "CCCma target horizontal grid": null, 
    "Include only for": null, 
    "Exclude for": null, 
    "long_name": "Surface Altitude", 
    "units": "m", 
    "description": "height above the geoid; as defined here, \"the geoid\" is a surface of constant geopotential that, if the ocean were at rest, would coincide with mean sea level. Under this definition, the geoid changes as the mean volume of the ocean changes (e.g., due to glacial melt, or global warming of the ocean).  Reported here is the height above the present-day geoid (0.0 over ocean).", 
    "comment": "The surface called \"surface\" means the lower boundary of the atmosphere. Altitude is the (geometric) height above the geoid, which is the reference geopotential surface. The geoid is similar to mean sea level.", 
    "out_name": "orog", 
    "standard_name": "surface_altitude", 
    "cell_methods": "area: mean", 
    "positive": null, 
    "type": "real", 
    "dimensions": "longitude latitude", 
    "modeling_realm": "land", 
    "frequency": "fx", 
    "cell_measures": "area: areacella", 
    "valid_min": -700.0, 
    "valid_max": 10000.0, 
    "ok_min_mean_abs": "Item <X.1 Core Attributes>: [ok_min_mean_abs] Minimum expected value of the global mean absolute value at each point in time", 
    "ok_max_mean_abs": "Item <X.1 Core Attributes>: [ok_max_mean_abs] Maximum expected value of the global mean absolute value at each point in time", 
    "priority": 1.0, 
    "MIPs (requesting)": "  AerChemMIP(1,1,1), CFMIP(1,1,1,1,1), CMIP(1,1,1,1,1,1), DCPP(1), LS3MIP(1), PAMIP(1), PMIP(1,1,1,1,1)", 
    "experiments": "  abrupt-4xCO2 (CFMIP:1,CMIP:1,CMIP:1,PMIP:1), amip (AerChemMIP:1,CFMIP:1,CMIP:1,PMIP:1), 1pctCO2 (CFMIP:1,CMIP:1,PMIP:1), historical (AerChemMIP:1,CFMIP:1,CMIP:1,DCPP:1,LS3MIP:1,PAMIP:1,PMIP:1), piControl (AerChemMIP:1,CFMIP:1,CMIP:1,PMIP:1)"
  }, 
  "rootd": {
    "CMOR Name": "rootd", 
    "CMOR Name, any freq": "rootd", 
    "CCCma check": "Need ROOT in AN file", 
    "CCCma hist file": null, 
    "CCCma hist var names": null, 
    "CCCma hist var frequency": null, 
    "CCCma TS var name": "DATA_DESCRIPTION", 
    "CCCma diag file": null, 
    "CCCma units": null, 
    "CCCma optional deck": null, 
    "CCCma comment": "max(ROOT)", 
    "CCCma NetCDF comment": "Max. rooting depth is tricky to derive given CTEM's dynamic vegetation. So let's not output this variable. Vivek. 8 Mar, 2019.", 
    "CCCma target vertical grid": null, 
    "CCCma target horizontal grid": null, 
    "Include only for": null, 
    "Exclude for": null, 
    "long_name": "Maximum Root Depth", 
    "units": "m", 
    "description": "report the maximum soil depth reachable by plant roots (if defined in model), i.e., the maximum soil depth from which they can extract moisture; report as \"missing\" where the land fraction is 0.", 
    "comment": "report the maximum soil depth reachable by plant roots (if defined in model), i.e., the maximum soil depth from which they can extract moisture; report as *missing* where the land fraction is 0.", 
    "out_name": "rootd", 
    "standard_name": "root_depth", 
    "cell_methods": "area: mean", 
    "positive": null, 
    "type": "real", 
    "dimensions": "longitude latitude", 
    "modeling_realm": "land", 
    "frequency": "fx", 
    "cell_measures": "area: areacella", 
    "valid_min": 0.0, 
    "valid_max": 30.0, 
    "ok_min_mean_abs": "Item <X.1 Core Attributes>: [ok_min_mean_abs] Minimum expected value of the global mean absolute value at each point in time", 
    "ok_max_mean_abs": "Item <X.1 Core Attributes>: [ok_max_mean_abs] Maximum expected value of the global mean absolute value at each point in time", 
    "priority": 1.0, 
    "MIPs (requesting)": "  CMIP(1,1,1,1,1,1), DCPP(1), LS3MIP(1), PAMIP(1), PMIP(1,1,1,1,1)", 
    "experiments": "  abrupt-4xCO2 (CMIP:1,CMIP:1,PMIP:1), amip (CMIP:1,PMIP:1), 1pctCO2 (CMIP:1,PMIP:1), historical (CMIP:1,DCPP:1,LS3MIP:1,PAMIP:1,PMIP:1), piControl (CMIP:1,PMIP:1)"
  }, 
  "sftgif": {
    "CMOR Name": "sftgif", 
    "CMOR Name, any freq": "sftgif", 
    "CCCma check": null, 
    "CCCma hist file": null, 
    "CCCma hist var names": null, 
    "CCCma hist var frequency": null, 
    "CCCma TS var name": "DATA_DESCRIPTION", 
    "CCCma diag file": "gp", 
    "CCCma units": null, 
    "CCCma optional deck": "glacier", 
    "CCCma comment": "(DPTH=-4)*FLND*100", 
    "CCCma NetCDF comment": null, 
    "CCCma target vertical grid": null, 
    "CCCma target horizontal grid": null, 
    "Include only for": null, 
    "Exclude for": null, 
    "long_name": "Land Ice Area Percentage", 
    "units": "%", 
    "description": "fraction of grid cell occupied by \"permanent\" ice (i.e., glaciers).", 
    "comment": "Percentage of grid cell covered by land ice (ice sheet, ice shelf, ice cap, glacier)", 
    "out_name": "sftgif", 
    "standard_name": "land_ice_area_fraction", 
    "cell_methods": "area: mean", 
    "positive": null, 
    "type": "real", 
    "dimensions": "longitude latitude", 
    "modeling_realm": "land", 
    "frequency": "fx", 
    "cell_measures": "area: areacella", 
    "valid_min": 0.0, 
    "valid_max": 100.0, 
    "ok_min_mean_abs": "Item <X.1 Core Attributes>: [ok_min_mean_abs] Minimum expected value of the global mean absolute value at each point in time", 
    "ok_max_mean_abs": "Item <X.1 Core Attributes>: [ok_max_mean_abs] Maximum expected value of the global mean absolute value at each point in time", 
    "priority": 1.0, 
    "MIPs (requesting)": "  CMIP(1,1,1,1,1,1), DCPP(1), ISMIP6(1,1,1,1), LS3MIP(1), PAMIP(1), PMIP(1,1,1,1,1)", 
    "experiments": "  abrupt-4xCO2 (CMIP:1,CMIP:1,PMIP:1), amip (CMIP:1,ISMIP6:1,PMIP:1), 1pctCO2 (CMIP:1,ISMIP6:1,PMIP:1), historical (CMIP:1,DCPP:1,ISMIP6:1,LS3MIP:1,PAMIP:1,PMIP:1), piControl (CMIP:1,ISMIP6:1,PMIP:1)"
  }, 
  "sftlf": {
    "CMOR Name": "sftlf", 
    "CMOR Name, any freq": "sftlf", 
    "CCCma check": "FLND+FLKU", 
    "CCCma hist file": null, 
    "CCCma hist var names": null, 
    "CCCma hist var frequency": null, 
    "CCCma TS var name": "DATA_DESCRIPTION", 
    "CCCma diag file": "gp", 
    "CCCma units": null, 
    "CCCma optional deck": "landfrac", 
    "CCCma comment": "(FLND+FLKU)*100", 
    "CCCma NetCDF comment": null, 
    "CCCma target vertical grid": null, 
    "CCCma target horizontal grid": null, 
    "Include only for": null, 
    "Exclude for": null, 
    "long_name": "Percentage of the grid  cell occupied by land (including lakes)", 
    "units": "%", 
    "description": "Percentage of horizontal area occupied by land.", 
    "comment": "Percentage of horizontal area occupied by land.", 
    "out_name": "sftlf", 
    "standard_name": "land_area_fraction", 
    "cell_methods": "area: mean", 
    "positive": null, 
    "type": "real", 
    "dimensions": "longitude latitude", 
    "modeling_realm": "atmos", 
    "frequency": "fx", 
    "cell_measures": "area: areacella", 
    "valid_min": 0.0, 
    "valid_max": 100.0, 
    "ok_min_mean_abs": "Item <X.1 Core Attributes>: [ok_min_mean_abs] Minimum expected value of the global mean absolute value at each point in time", 
    "ok_max_mean_abs": "Item <X.1 Core Attributes>: [ok_max_mean_abs] Maximum expected value of the global mean absolute value at each point in time", 
    "priority": 1.0, 
    "MIPs (requesting)": "  AerChemMIP(1,1,1), CFMIP(1,1,1,1,1), CMIP(1,1,1,1,1,1), DCPP(1), PAMIP(1), PMIP(1,1,1,1,1)", 
    "experiments": "  abrupt-4xCO2 (CFMIP:1,CMIP:1,CMIP:1,PMIP:1), amip (AerChemMIP:1,CFMIP:1,CMIP:1,PMIP:1), 1pctCO2 (CFMIP:1,CMIP:1,PMIP:1), historical (AerChemMIP:1,CFMIP:1,CMIP:1,DCPP:1,PAMIP:1,PMIP:1), piControl (AerChemMIP:1,CFMIP:1,CMIP:1,PMIP:1)"
  }, 
  "zfull": {
    "CMOR Name": "zfull", 
    "CMOR Name, any freq": "zfull", 
    "CCCma check": null, 
    "CCCma hist file": null, 
    "CCCma hist var names": null, 
    "CCCma hist var frequency": null, 
    "CCCma TS var name": null, 
    "CCCma diag file": null, 
    "CCCma units": null, 
    "CCCma optional deck": null, 
    "CCCma comment": null, 
    "CCCma NetCDF comment": null, 
    "CCCma target vertical grid": null, 
    "CCCma target horizontal grid": null, 
    "Include only for": null, 
    "Exclude for": null, 
    "long_name": "Altitude of Model Full-Levels", 
    "units": "m", 
    "description": "Provide only if altitude of full model levels is fixed", 
    "comment": "Height of full model levels above a reference ellipsoid. A reference ellipsoid is a mathematical figure that approximates the geoid. The geoid is a surface of constant geopotential with which mean sea level would coincide if the ocean were at rest. The ellipsoid is an approximation because the geoid is an irregular shape. A number of reference ellipsoids are defined for use in the field of geodesy. To specify which reference ellipsoid is being used, a grid_mapping variable should be attached to the data variable as described in Chapter 5.6 of the CF Convention.", 
    "out_name": "zfull", 
    "standard_name": "height_above_reference_ellipsoid", 
    "cell_methods": "area: mean", 
    "positive": null, 
    "type": "real", 
    "dimensions": "longitude latitude alevel", 
    "modeling_realm": "atmos", 
    "frequency": "fx", 
    "cell_measures": "area: areacella", 
    "valid_min": null, 
    "valid_max": null, 
    "ok_min_mean_abs": null, 
    "ok_max_mean_abs": null, 
    "priority": 1.0, 
    "MIPs (requesting)": "  CFMIP(1,1,1,1,1), CMIP(1,1,1,1,1)", 
    "experiments": "  abrupt-4xCO2 (CFMIP:1,CMIP:1), amip (CFMIP:1,CMIP:1), 1pctCO2 (CFMIP:1,CMIP:1), historical (CFMIP:1,CMIP:1), piControl (CFMIP:1,CMIP:1)"
  }
}